{
	"(30,60,120,180) Min": "(30, 60, 120, 180) min",
	"10 sec Auto Refresh": "10 s automatické obnovenie",
	"10Min": "10 min",
	"15Min": "15 min",
	"1Hour": "1 h",
	"30sec": "30 s",
	"5 min. Refresh": "5 min obnovenie",
	"5Min": "5 min",
	"AC Current": "Striedavý prúd",
	"ADD": "PRIDAŤ",
	"AM": "DOP",
	"Abnormally High": "Mimoriadne vysoko",
	"Account": "Účet",
	"Accra": "Akkra",
	"Add": "Pridať",
	"Add Media": "Pridať médium",
	"Add Mini Module": "Pridať mini modul",
	"Add Slave Controller": "Pridať podradený ovládač",
	"Add Unit": "Pridať jednotku",
	"Addis Ababa": "Addis Abeba",
	"Advanced Setting": "Rozšírené nastavenia",
	"Afghanistan": "Afganistan",
	"Africa": "Afrika",
	"Albania": "Albánsko",
	"Algeria": "Alžírsko",
	"Algiers": "Alžír",
	"All": "Všetko",
	"All Units": "Všetky jednotky",
	"All setting data will be deleted.": "Vymažú sa všetky dáta nastavenia.",
	"Almaty": "Alma-Ata",
	"Amman": "Ammán",
	"An error occurred while submitting the form.": "Počas odosielania formulára sa vyskytla chyba.",
	"Application Launch Mode": "Režim spustenia aplikácie",
	"Application Type": "Typ aplikácie",
	"Application Upgrade": "Inovácia aplikácia",
	"Applications will be upgraded from {text}": "Aplikácie budú aktualizované z {text}",
	"Apply": "Použiť",
	"Apply to All Units": "Použiť na všetky jednotky",
	"Apply?": "Použiť?",
	"April": "Apríl",
	"Are you sure to change Settings?": "Naozaj chcete zmeniť nastavenia?",
	"Are you sure to change the calibration settings of this unit?": "Naozaj chcete zmeniť nastavenia kalibrácie tejto jednotky?",
	"Are you sure to reboot?": "Naozaj chcete reštartovať?",
	"Are you sure to use": "Ste si istý?",
	"Are you sure to use Wi-Fi DHCP?": "Naozaj chcete použiť Wi-Fi DHCP?",
	"Are you sure to use Wired DHCP?": "Naozaj chcete použiť káblový DHCP?",
	"Are you sure you want to change type?": "Naozaj chcete zmeniť typ?",
	"Argentina": "Argentína",
	"Armenia": "Arménsko",
	"Ashgabat": "Ašchabad",
	"Asia": "Ázia",
	"Aspect Ratio when rotated": "Pomer strán pri otočení",
	"Athens": "Atény",
	"Australia": "Austrália",
	"Austria": "Rakúsko",
	"Auto": "Automatický",
	"Auto Detect": "Automaticky rozpoznať",
	"Auto Refresh": "Automatická obnova",
	"Auto Set": "Automatické nastavenie",
	"Available to Installation": "K dispozícii na nainštalovanie",
	"Azerbaijan": "Azerbajdžan",
	"Azores": "Azorské ostrovy",
	"BLU Status": "Stav BLU",
	"Back": "Späť",
	"Backlight": "Podsvietenie",
	"Backup Media Upload": "Nahratie záložného média",
	"Backup file Thumbnail Image": "Obrázok miniatúry súboru zálohy",
	"Backup via storage": "Záloha pomocou vnútornej pamäte",
	"Baghdad": "Bagdad",
	"Bahamas": "Bahamy",
	"Bahrain": "Bahrajn",
	"Bangladesh": "Bangladéš",
	"Basic Setting": "Základné nastavenia",
	"Beijing": "Peking",
	"Beirut": "Bejrút",
	"Belarus": "Bielorusko",
	"Belgium": "Belgicko",
	"Belgrade": "Belehrad",
	"Berlin": "Berlín",
	"Bermuda": "Bermudy",
	"Bhutan": "Bhután",
	"Bishkek": "Biškek",
	"Black Level": "Úroveň čiernej",
	"Bogotá": "Bogota",
	"Bolivia": "Bolívia",
	"Bootloader Version": "Verzia Bootloader",
	"Bosnia": "Bosna",
	"Both": "Oboje",
	"Bottom": "Dole",
	"Bottom Left": "Vľavo dole",
	"Bottom Light": "Vpravo dole",
	"Bottom Right": "Dole vpravo",
	"Box Name": "Názov boxu",
	"Brazil": "Brazília",
	"Brightness": "Jas",
	"Brightness Scheduling": "Plánovanie jasu",
	"Browse": "Prehľadávať",
	"Browse a file to upload": "Vyhľadajte súbor na nahratie",
	"Brussels": "Brusel",
	"Bucharest": "Bukurešť",
	"Budapest": "Budapešť",
	"Bulgaria": "Bulharsko",
	"CANCEL": "ZRUŠIŤ",
	"CIS": "SNŠ",
	"COLOR TRANSPARENT LED": "FAREBNÉ TRANSPARENTNÉ LED",
	"Cairo": "Káhira",
	"Calibrate Unit": "Kalibrovať jednotku",
	"Calibrated": "Kalibrované",
	"Calibration": "Kalibrácia",
	"Cambodia": "Kambodža",
	"Cameroon": "Kamerun",
	"Canada": "Kanada",
	"Canary Islands": "Kanárske ostrovy",
	"Cancel": "Zrušiť ",
	"Cannot connect to the USB": "Nemožno sa pripojiť na USB",
	"Cannot start S/W update. Check xxx file please.": "Nemožno spustiť aktualizáciu S/W. Skontrolujte súbor xxx.",
	"Cape Verde": "Kapverdy",
	"Capture time Interval": "Interval času zaznamenávania",
	"Capture time interval": "Capture time interval",
	"Caracas": "Karakas",
	"Category": "Kategória",
	"Cayman Islands": "Kajmanské ostrovy",
	"Central African Republic": "Stredoafrická republika",
	"Chad": "Čad",
	"Change Password": "Zmeniť heslo",
	"Changing Time may cause you to be logged out.": "Zmena času môže spôsobiť, že budete odhlásený.",
	"Changing Time zone may cause you to be logged out.": "Zmena časovej zóny môže spôsobiť vaše odhlásenie.",
	"Charts": "Grafy",
	"Check Temperature sensors. -40 means errors when reading Temperature sensors": "Skontrolujte snímače teploty. Hodnota -40 znamená chybu pri čítaní snímačov teploty",
	"Check for Update": "Skontrolovať aktualizáciu",
	"Check whether two passwords are same": "Skontrolujte, či sú obidve heslá rovnaké",
	"Check your URL input": "Skontrolujte zadanú adresu URL",
	"CheckScreen": "Kontrola obrazovky",
	"Checking for update...": "Kontroluje sa aktualizácia…",
	"Chile": "Čile",
	"China": "Čína",
	"Chisinau": "Kišiňov",
	"Christmas Island": "Vianočný ostrov",
	"Cinema": "Kino",
	"City": "Mesto",
	"Close": "Zatvoriť",
	"Closed": "Uzavreté",
	"Closed Loop Fan": "Zatvorený slučkový ventilátor",
	"ClosedLoop": "Zatvoriť slučku",
	"Colombia": "Kolumbia",
	"Color": "Farba",
	"Color Temperature": "Teplota farieb",
	"ColorRead": "Čítanie farby",
	"Column": "Stĺpec",
	"Columns": "Stĺpce",
	"Component": "Komponent",
	"Confirm": "Potvrdiť",
	"Confirm Account Number": "Potvrdiť číslo účtu",
	"Confirm New Password": "Potvrdiť nové heslo",
	"Confirm the account number you entered.": "Potvrďte číslo účtu, ktoré ste zadali.",
	"Connected": "Pripojené",
	"Content Rotation": "Otáčanie obsahu",
	"Content Rotation Status": "Stav otočenia obsahu",
	"Content Rotation is ON": "Otáčanie obsahu je ZAPNUTÉ",
	"Content is rotated": "Obsah je otočený",
	"Contents rotation is ON": "Otáčanie obsahu je ZAPNUTÉ",
	"Continent": "Kontinent",
	"Contrast": "Kontrast",
	"Control": "Ovládanie",
	"Control Item": "Ovládacia položka",
	"Control Manager": "Riadiaci program",
	"Control Type": "Typ riadenia",
	"Cool": "Studená",
	"Copenhagen": "Kodaň",
	"Costa Rica": "Kostarika",
	"Country/Territory": "Krajina/oblasť",
	"Croatia": "Chorvátsko",
	"Cuba": "Kuba",
	"Current": "Aktuálne",
	"Current Fan RPM": "Aktuálne otáčky ventilátora",
	"Current Password": "Súčasné heslo",
	"Current Picture mode does not support changing color temperature. Please select \"Expert\" of \"Calibration\" mode to adjust the color temperature.": "Aktuálny režim obrazu nepodporuje zmenu teploty farieb. Ak chcete upraviť teplotu farieb, zvoľte v režime Kalibrácia možnosť Expert.",
	"Current Ver.": "Aktuálna verzia",
	"Cut Bottom Edge": "Odrezanie spodného okraja",
	"Cut Edge": "Orezať okraj",
	"Cut Left Edge": "Odrezanie ľavého okraja",
	"Cut Right Edge": "Odrezanie pravého okraja",
	"Cut Top Edge": "Odrezanie horného okraja",
	"Czech": "Česky",
	"Côte d'Ivoire": "Pobrežie slonoviny",
	"DHCP State": "Stav DHCP",
	"DNS Server": "DNS server",
	"DOWNLOAD LOG": "STIAHNUŤ DENNÍK",
	"DOWNLOAD LOG FILE": "PREVZIAŤ SÚBOR DENNÍKA",
	"Daisy Direction": "Smerovanie Daisy",
	"Daisy Start by": "Spustenie Daisy podľa",
	"Damascus": "Damask",
	"Dashboard": "Hlavný panel",
	"Data is not collected now. wait for maximum 60 seconds": "Dáta sa teraz nepodarilo získať, počkajte maximálne 60 sekúnd",
	"Date": "Dátum",
	"Day": "Deň",
	"Daylight Saving Time": "Letný čas",
	"Days": "Dni",
	"Default": "Predvolené",
	"Delete": "Vymazať",
	"Delete All": "Odstrániť všetko",
	"Delete Mini Module": "Odstrániť mini modul",
	"Delete Slave Controller": "Vymazať podradený ovládač",
	"Delete Unit": "Vymazať jednotku",
	"Delete?": "Odstrániť?",
	"Democratic Republic Of The Congo": "Demokratická republika Kongo",
	"Denmark": "Dánsko",
	"Details of Unit": "Podrobnosti o jednotke",
	"Device Control": "Riadenie zariadenia",
	"Dhaka": "Dháka",
	"Digital Board Reboot": "Reštartovanie digitálnej tabule",
	"Disconnected": "Odpojené",
	"Display": "Zobraziť",
	"Display & Sound": "Displej a zvuk",
	"Display & sound": "Displej a zvuk",
	"Distance to main screen": "Vzdialenosť od hlavnej obrazovky",
	"Do not reboot in Device page.": "Nereštartujte na stránke zariadenia.",
	"Do you want to delete all schedules?": "Chcete odstrániť všetky plány?",
	"Do you want to delete the schedule?": "Chcete odstrániť plán?",
	"Do you want to delete this LED FPGA Update file?": "Chce odstrániť tento súbor aktualizácie LED FPGA?",
	"Do you want to delete this S/W Update file?": "Naozaj chcete odstrániť tento súbor na aktualizáciu softvéru?",
	"Do you want to install this S/W Update file?": "Naozaj chcete inštalovať tento súbor na aktualizáciu softvéru?",
	"Do you want to proceed?": "Želáte si pokračovať?",
	"Do you want to process?": "Chcete to spracovať?",
	"Do you want to set the time or date automatically?": "Chcete automaticky nastaviť čas alebo dátum?",
	"Doha": "Dauha",
	"Dominica": "Dominické spoločenstvo",
	"Dominican Republic": "Dominikánska republika",
	"Done": "Hotovo",
	"Door": "Dvere",
	"Door Control": "Riadenie dverí",
	"Door Monitor": "Sledovanie dverí",
	"Door Open": "Otvorené dvere",
	"Door Sensor": "Snímač dvierok",
	"Door Sensor Status": "Stav snímača dverí",
	"Door xxx is opened": "Dvere xxx sú otvorené",
	"Download failed, try again.": "Sťahovanie zlyhalo. Skúste to znova.",
	"Draw": "Kreslenie",
	"Dubai": "Dubaj",
	"Duplicated Unit ID": "Duplikovať ID jednotky",
	"Duration": "Trvanie",
	"Dushanbe": "Dušanbe",
	"Dynamic Brightness": "Dynamický jas",
	"Dynamic Brightness Control": "Ovládanie dynamického jasu",
	"Easter Island": "Veľkonočný ostrov",
	"Ecuador": "Ekvádor",
	"Edit": "Upraviť",
	"El Salvador": "Salvádor",
	"Enable or disable Signage 365 Care services on this device": "Aktivovať alebo deaktivovať služby Signage 365 Care na tomto zariadení",
	"End": "Koniec",
	"End Time": "Čas skončenia",
	"Energy Saving": "Šetrenie energie",
	"Enter Account Number": "Zadajte Číslo Účtu",
	"Enter the account number to activate Signage 365 Care.": "Zadajte číslo účtu na aktiváciu služby 365-dňová starostlivosť Signage.",
	"Equatorial Guinea": "Rovníková Guinea",
	"Error": "Chyba",
	"Estonia": "Estónsko",
	"Ethiopia": "Etiópia",
	"Europe": "Európa",
	"Event": "Udalosť",
	"Exit": "Ukončiť",
	"Expert": "Odborník",
	"Export": "Exportovať",
	"External": "Externé",
	"External Input Rotation is ON": "Otáčanie externého vstupu je ZAPNUTÉ",
	"EyeQ sensor": "Snímač EyeQ",
	"FPGA Version": "Verzia FPGA",
	"Factory Reset": "Výrobné nastavenia",
	"Fail": "Zlyhanie",
	"Fail Over": "Opravný mechanizmus",
	"Fail to update. Check xxx file please.": "Aktualizácia zlyhala. Skontrolujte súbor xxx.",
	"Failed to update LED FPGA with xxx. Check the file please": "Nepodarilo sa aktualizovať LED FPGA prostredníctvom xxx. Skontrolujte súbor",
	"Failed to update LED FPGA with xxx. Check the status of the unit controller.": "Aktualizácia LED FPGA prostredníctvom xxx sa nepodarila. Skontrolujte stav ovládača jednotky.",
	"Failed to update fan micom with xxx. Check the file please": "Aktualizácia ventilátora micom prostredníctvom xxx zlyhala. Skontrolujte súbor",
	"Failed, try again.": "Neúspešný pokus, skúste to znova.",
	"Fan": "Ventilátor",
	"Fan Micom S/W Updating": "Prebieha aktualizácia softvéru ventilátora Micom",
	"Fan Micom Update?": "Aktualizovať ventilátor Micom?",
	"Fan Micom Version": "Verzia ventilátora Micom",
	"Fan RPM": "Otáčky ventilátora",
	"Fan RPM history is not yet collected": "Históriu otáčok ventilátora sa zatiaľ nepodarilo získať",
	"Fan Status": "Stav ventilátora",
	"February": "Február",
	"Fiji": "Fidži",
	"File Name": "Názov súboru",
	"File Select": "Výber súboru",
	"File Upload Progress": "Priebeh nahrávania súboru",
	"File upload via mobile devices does not support.": "Nahrávanie súborov cez mobilné zariadenie nie je podporované.",
	"Finland": "Fínsko",
	"First Use": "Prvé použitie",
	"Flash memory is not enough.": "Hodnota pamäte Flash je nedostatočná.",
	"For your security, you must change the default password.": "Kvôli bezpečnosti musíte zmeniť predvolené heslo.",
	"Frame": "Rám",
	"France": "Francúzsko",
	"French Polynesia": "Francúzska Polynézia",
	"Fri": "Pia",
	"Friday": "Piatok",
	"Full": "Plný",
	"Fully Qualified Domain Name": "Úplný kvalifikovaný názov domény",
	"Game": "Hra",
	"Gamma": "Gama",
	"Gamut Matrix": "Matica Gamut",
	"Gateway": "Brána",
	"Georgia": "Gruzínsko",
	"Germany": "Nemecko",
	"Gibraltar": "Gibraltár",
	"Go To First Use": "Prejsť k Sprievodcovi prvým použitím",
	"Greece": "Grécko",
	"Greenland": "Grónsko",
	"Guatemala City": "Guatemala",
	"H Sharpness": "Horizontálna ostrosť",
	"Height": "Výška",
	"High": "Vysoká",
	"High1": "Vysoká úroveň 1",
	"High2": "Vysoká úroveň 2",
	"History is not yet collected": "Históriu sa zatiaľ nepodarilo získať",
	"Ho Chi Minh": "Hočiminovo Mesto",
	"Home": "Domov",
	"Hong Kong": "Hongkong",
	"Horizontal": "Horizontálna",
	"Hour": "Hodina",
	"Hours": "Hodiny",
	"Humidity": "Vlhkosť",
	"Hungary": "Maďarsko",
	"IP Address": "Adresa IP",
	"Iceland": "Island",
	"If the pitch is changed, all of the configuration settings are initialized.": "Keď sa Výška zmení, všetky konfiguračné nastavenia sa inicializujú.",
	"Image": "Obrázok",
	"Impact": "Vplyv",
	"Incorrect Password entered. Please try again.": "Bolo zadané nesprávne heslo. Skúste to znovu.",
	"Indonesia": "Indonézia",
	"Information": "Informácie",
	"Input": "Vstup",
	"Input 6 or more characters": "Vložte 6 alebo viac znakov",
	"Input Direction": "Smer vstupu",
	"Input Password": "Zadajte heslo",
	"Input Priority": "Vstupná priorita",
	"Input Priority Setting": "Nastavenie priority vstupu",
	"Input Signage Name please.": "Zadajte svoje meno v Signage.",
	"Input Window": "Okno vstupu",
	"Install": "Inštalovať",
	"Install Failed.": "Inštalácia zlyhala.",
	"Install Succeeded": "Inštalácia prebehla úspešne",
	"Installation Failed": "Inštalácia zlyhala",
	"Installation Menu": "Ponuka inštalácie",
	"Installing…": "Inštalácia…",
	"Internet Not available": "Internet je nedostupný",
	"Internet available": "Internet je dostupný",
	"Invalid day value": "Neplatná hodnota pre deň",
	"Invalid hour value": "Neplatná hodnota pre hodinu",
	"Invalid minute value": "Neplatná hodnota pre minútu",
	"Invalid month value": "Neplatná hodnota pre mesiac",
	"Invalid new password. The password must be at least 8 characters.": "Neplatné nové heslo. Heslo musí mať aspoň 8 znakov.",
	"Invalid new password. You must use a mixture of characters, numbers and special characters.": "Neplatné nové heslo. Musíte použiť kombináciu znakov, čísel a špeciálnych znakov.",
	"Invalid schedule.": "Neplatný plán.",
	"Invalid value": "Neplatná hodnota",
	"Invalid year value": "Neplatná hodnota pre rok",
	"Iran": "Irán",
	"Iraq": "Irak",
	"Ireland": "Írsko",
	"Irregular": "Nepravidelné",
	"Israel": "Izrael",
	"Issue History": "História problémov",
	"Italy": "Taliansko",
	"Jamaica": "Jamajka",
	"January": "Január",
	"Japan": "Japonsko",
	"Jerusalem": "Jeruzalem",
	"Jordan": "Jordánsko",
	"July": "Júl",
	"June": "Jún",
	"Kabul": "Kábul",
	"Kamchatka": "Kamčatka",
	"Karachi": "Karáčí",
	"Katmandu": "Káthmandu",
	"Kazakhstan": "Kazachstan",
	"Kenya": "Keňa",
	"Khartoum": "Chartúm",
	"Kiev": "Kyjev",
	"Kolkata": "Kalkata",
	"Korea": "Kórea",
	"Korea, Republic of": "Kórejská ľudovodemokratická republika",
	"Krasnoyarsk": "Krasnojarsk",
	"Kuwait": "Kuvajt",
	"Kuwait City": "Kuvajt",
	"Kyrgyzstan": "Kirgizsko",
	"LED FPGA Update file list": "Aktualizácia zoznamu súborov LED FPGA",
	"LED FPGA Updating ......": "Prebieha aktualizácia LED FPGA...",
	"LED Features": "Funkcie LED jednotky",
	"LED Film Settings": "Nastavenia LED filmu",
	"LED Open Detection": "LED detekcia otvorenia",
	"LED Settings": "Nastavenia LED",
	"LED Unit": "LED jednotka",
	"LED Unit Status": "Stav LED jednotky",
	"LG Control Manager": "Správca riadenia LG",
	"Landscape": "Na šírku",
	"Language": "Jazyk",
	"Large": "Veľké",
	"Latvia": "Lotyšsko",
	"Layout": "Rozvrhnutie",
	"Layout Editor": "Editor rozloženia",
	"Lebanon": "Libanon",
	"Left": "Ľavý",
	"Left Port": "Ľavý port",
	"Liberia": "Libéria",
	"Libya": "Líbya",
	"Liechtenstein": "Lichtenštajnsko",
	"Lisbon": "Lisabon",
	"Lithuania": "Litva",
	"Ljubljana": "Ľubľana",
	"Loading": "Načítava sa",
	"Loading…": "Načítava sa…",
	"Local": "Miestne",
	"Local Application Upgrade": "Lokálna inovácia aplikácie",
	"Location": "Lokalita",
	"Log": "Denník",
	"Log Report": "Prehľad denníka",
	"Log after Power Up": "Denník po spustení",
	"Login": "Prihlásiť sa",
	"Login is required.": "Je povinné prihlásenie.",
	"Logout": "Odhlásiť sa",
	"London": "Londýn",
	"Low": "Nízke",
	"Luxembourg": "Luxembursko",
	"MAC Address": "Adresa MAC",
	"MONO TRANSPARENT LED": "ČIERNOBIELE TRANSPARENTNÉ LED",
	"Macedonia": "Macedónsko",
	"Madagascar": "Madagaskar",
	"Main": "Hlavný",
	"Malaysia": "Malajzia",
	"Maldives": "Maldivy",
	"Manage": "Spravovanie",
	"Manual": "Ručne",
	"March": "Marec",
	"Marquesas": "Markézy",
	"Marshall Islands": "Marshallove ostrovy",
	"Martinique": "Martinik",
	"Master": "Hlavný",
	"Mauritius": "Maurícius",
	"Max Backlight": "Max. podsvietenie",
	"May": "Máj",
	"Media": "Médiá",
	"Media Library": "Knižnica médií",
	"Media file List": "Zoznam súborov médií",
	"Media file Upload (XXX GB available)": "Nahratie súbora médií (XXX GB – dostupné)",
	"Medium": "Stredné",
	"Menu Language": "Jazyk ponuky",
	"Mexico": "Mexiko",
	"Micom Progress": "Priebeh Micom",
	"Micom Update": "Aktualizácia Micom",
	"Micom Version": "Verzia Micom",
	"Middle East": "Stredný východ",
	"Min Backlight": "Min. podsvietenie",
	"Mini Module": "Mini modul",
	"Mins": "min",
	"Model Name": "Názov modelu",
	"Module Calibration": "Kalibrácia modulu",
	"Module Calibration is modified. Exit without saving?": "Kalibrácia modulu bola upravená. Ukončiť bez uloženia?",
	"Module Size": "Veľkosť modulu",
	"Modules": "Moduly",
	"Mogadishu": "Mogadišo",
	"Moldova": "Moldavsko",
	"Mon": "Pon",
	"Monaco": "Monako",
	"Monday": "Pondelok",
	"Mongolia": "Mongolsko",
	"Mono": "Mono",
	"Montenegro": "Čierna Hora",
	"Month": "Mesiac",
	"More": "Viac",
	"Morocco": "Maroko",
	"Moscow": "Moskva",
	"Mozambique": "Mozambik",
	"Muscat": "Maskat",
	"Mute": "Stlmiť",
	"Myanmar": "Mjanmarsko",
	"NG": "ZLÝ",
	"NOT AVAILABLE": "NIE JE K DISPOZÍCII",
	"Name": "Meno",
	"Namibia": "Namíbia",
	"Natural Mode": "Prirodzený režim",
	"Natural Size": "Prirodzená veľkosť",
	"Ndjamena": "N'Djamena",
	"Nepal": "Nepál",
	"Netherlands": "Holandsko",
	"Network": "Sieť",
	"Network Settings": "Nastavenia siete",
	"New Caledonia": "Nová Kaledónia",
	"New Password": "Nové heslo",
	"New Zealand": "Nový Zéland",
	"Newer Ver.": "Novšia verzia",
	"Next": "Nasledujúce",
	"Next Day": "Ďalší deň",
	"Nicaragua": "Nikaragua",
	"Nicosia": "Nikózia",
	"Nigeria": "Nigéria",
	"No": "Nie",
	"No Signal": "Žiadny signál",
	"No backup files exist in storage device.": "V tomto pamäťovom zariadení sa nenachádzajú žiadne súbory zálohy.",
	"None": "Žiadne",
	"Normal": "Normálna",
	"North America": "Severná Amerika",
	"North Korea": "Severná Kórea",
	"Norway": "Nórsko",
	"Not Connected": "Nepripojené",
	"Number": "Číslo",
	"OSD Portrait Mode": "Režim na výšku OSD",
	"OSD Portrait Mode is ON": "Režim orientácie OSD na výšku je ZAPNUTÝ",
	"OSD Portrait Status": "Stav portrétu OSD",
	"OSD Portrait mode is xxx": "Režim portrétu OSD je xxx",
	"OSD Rotation is ON": "Otáčanie OSD je ZAPNUTÉ",
	"OVERWRITE": "PREPÍSAŤ",
	"Occurrence Time": "Čas výskytu",
	"Oceania": "Oceánia",
	"October": "Október",
	"Off": "Vypnuté",
	"Off Until Reset": "Vyp. do obnovenia",
	"Off When Open": "Vyp. pri otvorení",
	"Oman": "Omán",
	"On": "Zapnuté",
	"On When Open": "Zap. pri otvorení",
	"Open Loop Fan": "Otvorený slučkový ventilátor",
	"OpenLoop": "Otvoriť slučku",
	"Opened": "Otvorené",
	"Original": "Originál",
	"Output Window": "Okno výstupu",
	"OverHeat": "Prehriatie",
	"Overwrite": "Prepísať",
	"Overwrite xxx?": "Prepísať xxx?",
	"Overwrite?": "Prepísať?",
	"PM": "ODP",
	"PM Mode": "Režim PM",
	"Pacific": "Pacifik",
	"Papua New Guinea": "Papua Nová Guinea",
	"Paraguay": "Paraguaj",
	"Paris": "Paríž",
	"Password": "Heslo ",
	"Password is incorrect. Please Try Again": "Heslo je nesprávne Skúste to znovu",
	"Password is incorrect. Please try again.": "Heslo je nesprávne Skúste to znovu.",
	"Philippines": "Filipíny",
	"Phnom Penh": "Phnom Pénh",
	"Physical Layout": "Fyzické rozloženie",
	"Picture": "Obraz",
	"Picture Mode": "Režim obrazu",
	"Picture Settings": "Nastavenia obrazu",
	"Pitch": "Výška",
	"Pixel Pitch": "Rozstup pixelov",
	"Play": "Prehrať",
	"Play via URL": "Prehrať cez adresu URL",
	"Please Keep this Signage on.": "Nechajte toto zariadenie Signage zapnuté.",
	"Please check the installation file and try again.": "Skontrolujte inštalačný súbor a skúste to znova.",
	"Please check the schedule again.": "Opätovne skontrolujte plán.",
	"Please choose a file to upload": "Vyberte si súbor na nahratie",
	"Please choose a video file to upload": "Vyberte video súbor na nahratie",
	"Please don't turn off the device and wait until the installation is completed.": "Nevypínajte zariadenie a počkajte, kým sa inštalácia nedokončí.",
	"Please login again.": "Znovu sa prihláste.",
	"Please select city": "Vyberte mesto",
	"Please select country": "Vyberte krajinu",
	"Please upload S/W update file via PC browser.": "Cez prieskumníka v PC nahrajte aktualizačný súbor S/W.",
	"Poland": "Poľsko",
	"Port Number": "Číslo portu",
	"Port Selection": "Výber portu",
	"Port Settings": "Nastavenia portu",
	"Portrait": "Portrét",
	"Portrait Mode": "Režim portrétu",
	"Portugal": "Portugalsko",
	"Position": "Poloha",
	"Power": "Napájanie",
	"Power Off": "Vypnúť",
	"Power Off Management": "Správa vypínania",
	"Power Off(Default)": "Vypnutie(predvolené)",
	"Prague": "Praha",
	"Prev DAY": "Predchádzajúci deň",
	"Prev.": "Predch.",
	"Preview": "Ukážka",
	"Priority": "Priorita",
	"Property": "Vlastnosť",
	"Puerto Rico": "Portoriko",
	"Pyongyang": "Pchjongjang",
	"Qatar": "Katar",
	"REMOTE": "VZDIALENÝ",
	"REMOVE": "ODSTRÁNIŤ",
	"RESET": "VYNULOVAŤ",
	"RPM": "Otáčky",
	"Rearrange": "Usporiadať",
	"Reboot": "Reštartovať",
	"Reboot?": "Reštartovať?",
	"Rebooting": "Reštartuje sa",
	"Reference Resolution": "Referenčné rozlíšenie",
	"Refresh": "Obnoviť",
	"Regular": "Pravidelné",
	"Rejected": "Odmietnuté",
	"Remote": "Na diaľku",
	"Rename": "Premenovať",
	"Rename or Overwrite?": "Premenovať alebo prepísať?",
	"Rename to {{filename (2)}} or Overwrite?": "Premenovať na {{filename (2)}} alebo prepísať?",
	"Republic Of The Congo": "Konžská demokratická republika",
	"Require Network Settings": "Sú potrebné nastavenia siete",
	"Reset": "Vynulovať",
	"Reset All": "Obnoviť všetky",
	"Reset Mute": "Obnoviť stlmenie",
	"Reset Mute' is Needed": "Je potrebné obnovenie stlmenia",
	"Resolution": "Rozlíšenie",
	"Reykjavik": "Reykjavík",
	"Right": "Pravý",
	"Right Port": "Pravý port",
	"Riyadh": "Rijád",
	"Romania": "Rumunsko",
	"Rome": "Rím",
	"Row": "Riadok",
	"Rows": "Riadky",
	"Rows per Page": "Počet riadkov na stránku",
	"Run Time": "Doba prevádzky",
	"Run Time Since Last Power Up": "Čas prevádzky od posledného zapnutia",
	"Russia": "Rusko",
	"S/W Update": "Aktualizácia softvéru",
	"S/W Update File list": "Zoznam súboru aktualizácie softvéru",
	"S/W Update file list": "Zoznam súboru aktualizácie S/W",
	"S/W Updating": "Aktualizácia softvéru",
	"S/W Updating......": "Prebieha aktualizácia S/W...",
	"S/W Ver.": "Verzia softvéru",
	"S/W update file does not exist.": "Aktualizačný súbor S/W neexistuje.",
	"SCREEN": "OBRAZOVKA",
	"SELECT TRANSPARENT LED TYPE": "VYBERTE SI TYP TRANSPARENTNÉHO LED",
	"SETTING": "NASTAVENIA",
	"SI App / Play via URL": "SI aplikácia / prehrávanie prostredníctvom URL adresy",
	"Saint Lucia": "Svätá Lucia",
	"Sakhalin": "Sachalin",
	"Sat": "So",
	"Saturday": "Sobota",
	"Saudi Arabia": "Saudská Arábia",
	"Save": "Uložiť",
	"Save as PC Time": "uložiť ako čas v PC",
	"Schedule Time": "Čas plánu",
	"Screen": "Obrazovka",
	"Screen Configuration": "Konfigurácia obrazovky",
	"Screen Fault Detection": "Detekcia chýb obrazovky",
	"Screen OFF & Backlight(Outdoor Mode)": "VYPNUTIE obrazovky a podsvietenie (vonkajší režim)",
	"Screen Off": "Obrazovka vypnutá",
	"Screen Off & Backlight": "Vypnutie obrazovky",
	"Screen Off & Backlight On": "Obrazovka vypnutá a podsvietenie zapnuté",
	"Screen Off Always": "Obrazovka vždy vypnutá",
	"Screen Power Off": "Obrazovka vypnutá",
	"Screen Rotation is ON": "Otáčanie obrazovky je ZAPNUTÉ",
	"ScreenOn": "Obrazovka Zap.",
	"Secure Connection": "Zabezpečené pripojenie",
	"Select File": "Vyberte súbor",
	"Select Input Source": "Vybrať zdroj vstupu",
	"Select LED Film Pitch": "Vybrať LED Výška Filmu",
	"Select a file to upload": "Vyberte si súbor na nahratie",
	"Select media file": "Vyberte si súbor média",
	"Select the type of transparent LED Signage you installed. You can also change the type in [Control] Tab.": "Vyberte si typ transparentného LED Signage, ktorý ste si nainštalovali. Typ možno zmeniť aj na karte [Riadenie].",
	"Sender Position": "Poloha odosielateľa",
	"Sender Resolution": "Rozlíšenie odosielateľa",
	"Sensor": "Snímač",
	"Seoul": "Soul",
	"Serbia": "Srbsko",
	"Serial Number": "Sériové číslo",
	"Server Status": "Stav servera",
	"Set": "Nastaviť",
	"Set Automatically": "Nastaviť automaticky",
	"Set ID": "Nastaviť ID",
	"Set Master": "Nastaviť hlavný",
	"Set Slave": "Nastaviť podradený",
	"Set URL": "Nastaviť adresu URL",
	"Setting": "Nastavenie",
	"Sharpness": "Ostrosť",
	"Show Color": "Zobraziť farbu",
	"Sigane Name is Too Long": "Názov Signage je pridlhý",
	"Signage 365 Care App": "Aplikácia Signage 365 Care",
	"Signage Name": "Názov Signage",
	"Signal": "Signál",
	"Since Last Power Up": "Od posledného zapnutia",
	"Singapore": "Singapur",
	"Size": "Veľkosť",
	"Slave": "Vedľajší",
	"Slovakia": "Slovensko",
	"Slovenia": "Slovinsko",
	"Small": "Malé",
	"Software Version": "Verzia softvéru",
	"Solomon Islands": "Šalamúnove ostrovy",
	"Somalia": "Somálsko",
	"Sound Control": "Riadenie zvuku",
	"South Africa": "Južná Afrika",
	"South America": "Južná Amerika",
	"Spain": "Španielsko",
	"Sports": "Športy",
	"Sri Lanka": "Srí Lanka",
	"Standard": "Štandard",
	"Start": "Štart",
	"Start Time": "Čas začiatku",
	"State": "Stav",
	"Status": "Stav",
	"Stockholm": "Štokholm",
	"Subnet Mask": "Maska podsiete",
	"Subnet prefix length": "Dĺžka predpony podsiete",
	"Success": "Úspech",
	"Sudan": "Sudán",
	"Sun": "Ne",
	"Sunday": "Nedeľa",
	"SuperSign Content": "Obsah média SuperSign",
	"SuperSign Contents": "Obsah média SuperSign",
	"Suriname": "Surinam",
	"Sustain Aspect Ratio": "Zachovať pomer strán",
	"Swaziland": "Svazijsko",
	"Sweden": "Švédsko",
	"Switzerland": "Švajčiarsko",
	"Syria": "Sýria",
	"System Box": "Systémový box",
	"System Control": "Riadenie systému",
	"System Controller": "Systémový ovládač",
	"System Information": "Systémové informácie",
	"System Settings": "Nastavenia systému",
	"Tajikistan": "Tadžikistan",
	"Tanzania": "Tanzánia",
	"Tashkent": "Taškent",
	"Tehran": "Teherán",
	"Temperature": "Teplota",
	"Temperature Unit": "Jednotka teploty",
	"Temperature history is not yet collected": "Históriu teploty sa zatiaľ nepodarilo získať",
	"Test Color": "Test farby",
	"Test Pattern": "Testovací vzor",
	"Test Pattern On": "Testovací vzor zapnutý",
	"Thailand": "Thajsko",
	"The POWER remote controller key will not work during the update.": "Tlačidlo POWER na diaľkovom ovládači nebude funkčné počas aktualizácie.",
	"The Signage 365 care app has been deleted.": "Aplikácia Signage 365 Care bola odstránená.",
	"The Signage 365 care app has been successfully installed.": "Aplikácia Signage 365 Care bola úspešne nainštalovaná.",
	"The Signage 365 care app has been successfully updated.": "Aplikácia Signage 365 Care bola úspešne aktualizovaná.",
	"The URL format is invalid.": "Formát adresy URL je neplatný.",
	"The installation of the Signage 365 care app has failed.": "Zlyhala inštalácia aplikácie Signage 365 Care.",
	"The installation of the Signage 365 care app is in progress.": "Prebieha inštalácia aplikácie Signage 365 Care.",
	"The same file name already exists.": "Súbor s rovnakým názvom už existuje.",
	"The update of the Signage 365 care app has failed.": "Zlyhala aktualizácia aplikácie Signage 365 Care.",
	"The update of the Signage 365 care app is in progress.": "Prebieha aktualizácia aplikácie Signage 365 Care.",
	"There is a difference between your signage and the signage 365 care server in time and date.": "Medzi vaším zariadením Signage a serverom služby 365-dňová starostlivosť Signage je rozdiel v dátume a čase.",
	"There is no list.": "K dispozícii nie je žiaden zoznam.",
	"There's No Backup file": "Nie je žiadny záložný súbor",
	"This pop up will be closed automatically in 5 sec.": "Toto kontextové okno sa automaticky zatvorí za 5 sekúnd.",
	"Thu": "Štv",
	"Thursday": "Štvrtok",
	"Tile ID": "ID dlaždice",
	"Tile Mode": "Režim dlaždíc",
	"Tile Mode Setting": "Tile Mode Setting",
	"Tile Mode Settings": "Nastavenie režimu dlaždíc",
	"Time": "Čas",
	"Time & Date": "Čas a dátum",
	"Time Setting": "Nastavenie času",
	"Time Zone": "Časové pásmo",
	"Timor-Leste": "Východný Timor",
	"Tint": "Odtieň",
	"Tiranë": "Tirana",
	"To choose an AP, please use Settings App. with a remote controller.": "Ak chcete vybrať AP, použite aplikáciu Nastavenia pomocou diaľkového ovládača.",
	"To make your password more secure, use a mixture of characters, numbers and special characters.": "Aby bolo vaše heslo bezpečnejšie, použite kombináciu znakov, čísel a špeciálnych znakov.",
	"To use Signage 365 care, you need to connect the device to the network . Do you want to set the network connection?": "Na používanie Signage 365 Care musíte pripojiť zariadenie k sieti. Chcete nastaviť sieťové pripojenie?",
	"Tokyo": "Tokio",
	"Top": "Hore",
	"Top Left": "Vľavo hore",
	"Top Right": "Vpravo hore",
	"Trimming": "Orezávanie",
	"Trinidad And Tobago": "Trinidad a Tobago",
	"Tripoli": "Tripolis",
	"Tue": "Ut",
	"Tuesday": "Utorok",
	"Tunisia": "Tunisko",
	"Turkey": "Turecko",
	"Turkmenistan": "Turkménsko",
	"Type": "Typ",
	"URL Loader": "Zavádzač adresy URL",
	"URL Setting": "Nastavenie URL",
	"USB Application Upgrade": "Inovácia USB aplikácie",
	"Ukraine": "Ukrajina",
	"Ulaanbaatar": "Ulanbátar",
	"Unit": "Jednotka",
	"Unit Calibration": "Kalibrácia jednotky",
	"Unit Calibration is modified. Exit without saving?": "Kalibrácia zariadenia bola upravená. Ukončiť bez uloženia?",
	"Unit Configuration": "Konfigurácia jednotky",
	"Unit Position": "Poloha jednotky",
	"Unit Property": "Vlastnosť jednotky",
	"Unit Resolution": "Rozlíšenie jednotky",
	"Unit Settings": "Nastavenia jednotiek",
	"Unit Status": "Stav jednotky",
	"Unit Temperature": "Teplota jednotky",
	"United Arab Emirates": "Spojené arabské emiráty",
	"United Kingdom": "Veľká Británia",
	"United States of America": "Spojené štáty americké",
	"Units cut left edge can not be placed in the X:(Cut Pixel) positions.": "Jednotky odrezania ľavého okraja nie je možné umiestiť na pozíciu X:(Odrezať pixel).",
	"Units cut left edge can not be placed in the X:0 positions.": "Jednotky odrezania ľavého okraja nie je možné umiestiť na pozíciu X:0.",
	"Unsupported File type.": "Nepodporovaný typ súboru",
	"Unsupported File type. Only Image/Video files are allowed.": "Nepodporovaný typ súboru Sú povolené len súbory obrázkov a videí.",
	"Update": "Aktualizovať",
	"Update Failed": "Aktualizácia zlyhala",
	"Update LED FPGA micom with xxx done": "Aktualizácia micom LED FPGA prostredníctvom xxx bola dokončená",
	"Update LED FPGA with xxx done": "Aktualizácia LED FPGA prostredníctvom xxx bola dokončená",
	"Update Progress": "Priebeh aktualizácie",
	"Update Succeeded": "Aktualizácia prebehla úspešne",
	"Update completed. Set is rebooting now.": "Aktualizácia bola dokončená. Množina sa teraz reštartuje.",
	"Update completed. Signage is rebooting now.": "Aktualizácia dokončená. Signage sa reštartuje.",
	"Update fan micom with this S/W Update file?": "Aktualizovať ventilátor Micom pomocou tohto súboru aktualizácie softvéru?",
	"Update fan micom with xxx done": "Aktualizácia ventilátora micom prostredníctvom xxx bola dokončená",
	"Update?": "Aktualizovať?",
	"Updating…": "Aktualizácia…",
	"Upgrade Complete": "Inovácia dokončená",
	"Upload": "NAHRAŤ",
	"Upload FPGA Update file (XXX GB available)": "Nahrať aktualizačný súbor FPGA (k dispozícii XXX GB)",
	"Upload LED FPGA update file": "Nahrať súbor aktualizácie LED FPGA",
	"Upload secured S/W Update file": "Nahrať zabezpečený súbor aktualizácie softvéru",
	"Upload secured S/W Update file (XXX GB available)": "Nahrať zabezpečený súbor aktualizácie S/W (XXX GB – dostupné)",
	"Uploading": "Nahráva sa",
	"Uruguay": "Uruguaj",
	"User": "Používateľ",
	"User Name": "Používateľské meno",
	"Uzhhorod": "Užhorod",
	"V Sharpness": "Vertikálna ostrosť",
	"Validation error. The new password and the confirm password do not match.": "Chyba overenia. Nové heslo a jeho zopakovanie sa nezhodujú.",
	"Vatican City": "Vatikán",
	"Ver": "Verzia",
	"Version": "Verzia",
	"Vertical": "Vertikálna",
	"Video Scaler": "Videoškálovač",
	"Vienna": "Viedeň",
	"Vientiane": "Vientian",
	"Virtual Controller": "Virtuálny ovládač",
	"Vivid": "Živý",
	"Volume": "Hlasitosť",
	"Waiting for Approval": "Čaká sa na schválenie",
	"Warm": "Teplé",
	"Warsaw": "Varšava",
	"Wed": "Str",
	"Wednesday": "Streda",
	"Week": "Týždeň",
	"Weekday": "Deň v týždni",
	"Welcome to LG WebOS": "Víta vás LG WebOS",
	"Width": "Šírka",
	"Wired": "Káblové",
	"Working": "Pracuje",
	"X Units": "Jednotky: X",
	"XX GB free of XXGB": "XX GB voľného z XX GB",
	"XX of YY": "XX z YY",
	"Yakutsk": "Jakutsk",
	"Year": "Rok",
	"Yekaterinburg": "Jekaterinburg",
	"Yemen": "Jemen",
	"Yerevan": "Jerevan",
	"Yes": "Áno",
	"You changed IP address or DHCP status. Please reconnect to changed IP address": "Zmenili ste IP adresu alebo stav DHCP. Znova sa pripojte k zmenenej IP adrese",
	"You have failed to login 1/5 time.": "1-krát z 5 ste sa nesprávne prihlásili.",
	"You have failed to login 5 times. Please try again after {time}.": "Prihlásili ste sa 5 krát nesprávne. Skúste to znova po {time}.",
	"You may not be able to reconnect to web pages if you cannot find out new IP address.": "Ak sa vám nepodarí zistiť novú IP adresu, možno sa nebudete vedieť pripojiť k webovým stránkam.",
	"You've entered the same password as the current one. Please enter a different password.": "Zadali ste to isté heslo ako aktuálne. Zadajte iné heslo.",
	"Your Password has been changed.": "Vaše heslo bolo zmenené.",
	"Zagreb": "Záhreb",
	"Zaporozhye": "Záporožie",
	"Zoom": "Priblíženie",
	"Zoom In": "Priblíž.",
	"Zoom In/Out": "Priblížiť / Oddialiť",
	"Zoom Out": "Oddialiť",
	"align": "zarovnať",
	"available": "dostupné",
	"color": "farba",
	"details": "podrobnosti",
	"full aspect ratio": "úplný pomer strán",
	"general": "všeobecné",
	"hour": "hodina",
	"last": "Posl.",
	"original aspect ratio": "pôvodný pomer strán",
	"prev Day(prev DAY)": "predchádzajúci deň",
	"property": "vlastnosť",
	"reading": "čítanie",
	"save as PC Time": "uložiť ako čas v PC",
	"sharpness": "ostrosť",
	"upload": "nahrať",
	"version": "verzia",
	"warning": "varovanie",
	"webOS Version": "Verzia webOS",
	"year": "rok",
	"{apptitle} will be deleted.": "Aplikácia {apptitle} bude odstránená.",
	"{{filename}} already exists.": "{{filename}} už existuje."
}
