{
	"(30,60,120,180) Min": "(30,60,120,180) મિનિટ",
	"10 sec Auto Refresh": "10 સેકન્ડ ઓટો રિફ્રેશ કરો",
	"10Min": "10 મિનિટ",
	"15Min": "15 મિનિટ",
	"1Hour": "1કલાક",
	"30sec": "30સેકંડ",
	"5 min. Refresh": "5 મિનિટ. રિફ્રેશ કરો",
	"5Min": "5મિનિટ",
	"AC Current": "AC વર્તમાન",
	"ADD": "ઉમેરવું",
	"Abnormally High": "અસાધારણ રીતે ઉચ્ચ",
	"Account": "એકાઉન્ટ",
	"Accra": "અક્રા",
	"Adak": "અડક",
	"Add": "ઉમેરવું",
	"Add Media": "મીડિયા ઉમેરો",
	"Add Mini Module": "મીની મોડ્યુલ ઉમેરો",
	"Add Slave Controller": "સ્લેવ નિયંત્રક ઉમેરો",
	"Add Unit": "એકમ ઉમેરો",
	"Addis Ababa": "અદ્દીસ અબાબા",
	"Adelaide": "એડિલેડ",
	"Aden": "એડન",
	"Advanced Setting": "એડવાન્સ્ડ સેટિંગ",
	"Afghanistan": "અફઘાનિસ્તાન",
	"Albania": "અલ્બેનિયા",
	"Algeria": "અલજીર્યા",
	"Algiers": "આલ્જિયર્સ",
	"All": "તમામ",
	"All Units": "તમામ યુનિટ્સ",
	"All setting data will be deleted.": "તમામ સેટિંગ ડેટા કાઢી નાખવામાં આવશે.",
	"Almaty": "અલમાત્ય",
	"Amman": "અમ્માન",
	"Amsterdam": "એમસ્ટરડેમ",
	"An error occurred while submitting the form.": "ફોર્મ સબમિટ કરતી વખતે એક ભૂલ આવી.",
	"Anadyr": "અનાદ્ય્ર",
	"Anchorage": "એન્ચોર્ગ",
	"Angola": "અંગોલા",
	"Antananarivo": "આંટૅનેનૅરિવો",
	"Apia": "અપિયા",
	"Application Launch Mode": "એપ્લિકેશન લૉન્ચ મોડ",
	"Application Type": "એપ્લિકેશન પ્રકાર",
	"Application Upgrade": "એપ્લિકેશન અપગ્રેડ",
	"Applications will be upgraded from {text}": "{text} માંથી એપ્લિકેશન્સ અપગ્રેડ કરવામાં આવશે",
	"Apply": "લાગુ કરો",
	"Apply to All Units": "તમામ યુનિટ્સ પર લાગુ કરો",
	"Apply?": "લાગુ કરીએ?",
	"April": "એપ્રિલ",
	"Araguaína": "અરગુઈના",
	"Are you sure to change Settings?": "શું તમે ખરેખર સેટિંગ્સ બદલવા માંગો છો?",
	"Are you sure to change the calibration settings of this unit?": "શું તમે ખરેખર આ યુનિટના કૅલિબ્રેશન સેટિંગ્સ બદલવા માંગો છો?",
	"Are you sure to reboot?": "તમને રીબુટ કરવાની ખાતરી છે?",
	"Are you sure to use": "શું તમે ખરેખર ઉપયોગ કરવા માંગો છો",
	"Are you sure to use Wi-Fi DHCP?": "તમને Wi-Fi DHCP વાપરવાની ખાતરી છે?",
	"Are you sure to use Wired DHCP?": "શું તમને વાયર DHCP વાપરવાની ખાતરી છે?",
	"Are you sure you want to change type?": "શું તમે ખરેખર પ્રકારને કાઢી નાખવા માંગો છો?",
	"Argentina": "અર્જેન્ટીના",
	"Armenia": "આર્મીનિયા",
	"Aruba": "અરુબા",
	"Ashgabat": "અશ્ગબત",
	"Asmara": "અસમર",
	"Aspect Ratio when rotated": "રોટેટ કરવા પર સાપેક્ષ ગુણોત્તર",
	"Asunción": "આસુન્કિઓન",
	"Athens": "એથેન્સ",
	"Atikokan": "અતીકોકન",
	"Auckland": "ઔચ્ક્લંદ",
	"August": "ઑગસ્ટ",
	"Australia": "ઓસ્ટ્રેલિયા",
	"Austria": "ઓસ્ટ્રિયા",
	"Auto": "આપોઆપ",
	"Auto Detect": "સ્વત: ખોળો",
	"Auto Refresh": "સ્વત: રિફ્રેશ",
	"Auto Set": "ઓટો સેટ",
	"Available to Installation": "ઇન્સટોલ કરવા માટે ઉપલબ્ધ છે",
	"Azerbaijan": "અઝરબૈજાન",
	"Azores": "અઝોરેસ",
	"BLU Status": "BLU સ્થિતિ",
	"Back": "પાછળ",
	"Backlight": "બેકલાઈટ",
	"Backup Media Upload": "બૅકઅપ મીડિયા અપલોડ",
	"Backup file Thumbnail Image": "બેકઅપ ફાઈલની થમ્બનેઈલ ઈમેજ",
	"Backup via storage": "સંગ્રહ દ્વારા બેકઅપ",
	"Baghdad": "બઘ્ડળ",
	"Bahamas": "બહામાસ",
	"Bahrain": "બેહરીન",
	"Baku": "બકુ",
	"Bamako": "બામાકો",
	"Bangkok": "બેંગકોક",
	"Bangladesh": "બાંગ્લાદેશ",
	"Bangui": "બાન્ગુઈ",
	"Banjul": "બન્જુલ",
	"Barbados": "બાર્બાડોસ",
	"Basic Setting": "પ્રાથમિક સેટિંગ",
	"Beijing": "બેઈજીંગ",
	"Beirut": "બેરૂત",
	"Belarus": "બેલારુસ",
	"Belgium": "બેલ્જિયમ",
	"Belgrade": "બેલગ્રેડ",
	"Belize": "બેલીઝ",
	"Belém": "બેલેમ",
	"Benin": "બેનિન",
	"Berlin": "બર્લિન",
	"Bermuda": "બર્મુડા",
	"Bhutan": "ભૂટાન",
	"Bishkek": "બિશ્કેક",
	"Bissau": "બિસાઉ",
	"Black Level": "બ્લેક સ્તર",
	"Blanc-Sablon": "બ્લેન્ક-સબ્લોન",
	"Blantyre": "બ્લૅનટાઇ",
	"Boa Vista": "બોવા વિસ્ટા",
	"Bogotá": "બોગોટા",
	"Bolivia": "બોલિવિયા",
	"Bootloader Version": "બૂટલોડર આવૃત્તિ",
	"Bosnia": "બોસ્નિઆ",
	"Both": "બંન્ને",
	"Botswana": "બોત્સ્વાના",
	"Bottom": "તળિયું",
	"Bottom Left": "તળિયે ડાબે",
	"Bottom Light": "તળિયે જમણે",
	"Bottom Right": "નીચે જમણે",
	"Box Name": "બોક્સનો નામ",
	"Bratislava": "બરેટિસ્લાવા",
	"Brazil": "બ્રાઝીલ",
	"Brazzaville": "બ્રાઝાવિલ્લે",
	"Brightness": "ચળકાટ",
	"Brightness Scheduling": "બ્રાઇટનેસ નું શીડ્યુલ",
	"Brisbane": "બ્રિસ્બેન",
	"Browse": "બ્રાઉઝ કરો",
	"Browse a file to upload": "અપલોડ કરવા માટે કોઈ ફાઇલને બ્રાઉઝ કરો",
	"Brussels": "બ્રુસ્સેલ્સ",
	"Bucharest": "બુચારેસ્ત",
	"Budapest": "બુડાપેસ્ટ",
	"Buenos Aires": "બુએનોસ ઐરેસ",
	"Bujumbura": "બુજુમ્બુરા",
	"Bulgaria": "બુલ્ગારિયા",
	"Burkina Faso": "બુર્કીના ફાસો",
	"Burundi": "બુરુન્ડી",
	"CANCEL": "રદ કરો",
	"COLOR TRANSPARENT LED": "રંગ પારદર્શક LED",
	"Cairo": "ચઈરો",
	"Calibrate Unit": "યુનિટને કૅલિબ્રેટ કરો",
	"Calibrated": "માપાંકિત",
	"Cambodia": "કામ્બોડિયા",
	"Cameroon": "કામેરૂન",
	"Campo Grande": "ચંપો ગ્રાન્ડે",
	"Canada": "કાનડા",
	"Canary Islands": "કેનેરી ટાપુઓ",
	"Cancel": "રદ કરો",
	"Cancún": "કાન્કુન",
	"Cannot connect to the USB": "USB સાથે કનેક્ટ કરી શકાતું નથી",
	"Cannot start S/W update. Check xxx file please.": "S/W અપડેટ શરૂ કરી શકાતું નથી. કૃપા કરી xxx ફાઇલ તપાસો.",
	"Cape Verde": "કાપે વેર્ડે",
	"Capture time Interval": "સમય અંતરાલ કેપ્ચર કરો",
	"Capture time interval": "Capture time interval",
	"Caracas": "કારાકાસ",
	"Casablanca": "કાસાબ્લાન્કા",
	"Category": "વર્ગ",
	"Cayman Islands": "કાયમન ઇસ્લાન્દ્સ",
	"Central African Republic": "સેન્ટ્રલ આફ્રિકન રિપબ્લિક",
	"Chad": "ચાડ",
	"Change Password": "પાસવર્ડ બદલો",
	"Changing Time may cause you to be logged out.": "સમય બદલવું તમારા લૉગ આઉટ થવાનું કારણ બની શકે છે.",
	"Changing Time zone may cause you to be logged out.": "ટાઇમ ઝોન બદલવાથી તમે લૉગ આઉટ થઈ શકો છો.",
	"Charts": "ચાર્ટ્સ",
	"Check Temperature sensors. -40 means errors when reading Temperature sensors": "તાપમાન સેન્સર્સ તપાસો. -40 એટલે તાપમાન સેન્સર્સ વાંચવામાં ત્રુટિ",
	"Check for Update": "અપડેટ્સ માટે તપાસો",
	"Check whether two passwords are same": "તપાસો કે બે પાસવર્ડો એક જ છે કે કેમ",
	"Check your URL input": "તમારા URL ઈનપુટની તપાસ કરો",
	"CheckScreen": "સ્ક્રીન તપાસો",
	"Checking for update...": "અપડેટ માટે તપાસી રહ્યું છે...",
	"Chicago": "શિકાગો",
	"Chihuahua": "ચિહુઆહુઆ",
	"Chile": "ચીલી",
	"China": "ચીના",
	"Chisinau": "ચિસીણૌ",
	"Christmas Island": "ક્રિસમસ આઇલેન્ડ",
	"Cinema": "સિનેમા",
	"City": "શહેર",
	"Close": "બંધ",
	"Closed": "બંધ",
	"Closed Loop Fan": "બંધ લૂપ ફેન",
	"ClosedLoop": "બંધ લૂપ",
	"Colombia": "કોલોમ્બિયા",
	"Colombo": "કોલંબો",
	"Color": "રંગ",
	"Color Temperature": "રંગ તાપમાન",
	"ColorRead": "રંગ વાંચન",
	"Column": "હરોળ",
	"Columns": "સ્તંભો",
	"Component": "ઘટક",
	"Conakry": "કોનાક્રી",
	"Confirm": "પુષ્ટિ કરો",
	"Confirm Account Number": "એકાઉન્ટ નંબરની પુષ્ટિ કરો",
	"Confirm New Password": "નવા પાસવર્ડની પુષ્ટિ કરો",
	"Confirm the account number you entered.": "તમે દાખલ કરેલા એકાઉન્ટ નંબરની પુષ્ટિ કરો.",
	"Connected": "જોડાયેલું",
	"Content Rotation": "સામગ્રી પરિભ્રમણ",
	"Content Rotation Status": "સામગ્રી રોટેશન સ્થિતિ",
	"Content Rotation is ON": "સામગ્રીનું રોટેશન ચાલુ છે",
	"Content is rotated": "સામગ્રી ફેરવવામાં આવે છે",
	"Contents rotation is ON": "વિગતોનું રોટેશન ચાલુ છે",
	"Continent": "ખંડ",
	"Contrast": "કોનટ્રાસ્ટ",
	"Control Item": "નિયંત્રિત વસ્તુ",
	"Control Manager": "કન્ટ્રોલ મેનેજર",
	"Control Type": "નિયંત્રણ પ્રકાર",
	"Cool": "ઠંડુ",
	"Copenhagen": "કોપેન્હાગેન",
	"Costa Rica": "કોસતા રીચા",
	"Country/Territory": "દેશ/પ્રાંત",
	"Croatia": "રોઅતિઅ",
	"Cuba": "ક્યુબા",
	"Cuiabá": "ઉઇઅબ",
	"Current": "વીજ પ્રવાહ",
	"Current Fan RPM": "ચાલુ ફૅન RPM",
	"Current Password": "વર્તમાન પાસવર્ડ",
	"Current Picture mode does not support changing color temperature. Please select \"Expert\" of \"Calibration\" mode to adjust the color temperature.": "હાલનો ચિત્ર મોડ બદલતા રંગ તાપમાનને સમર્થિત કરતો નથી. રંગ તાપમાન સમાયોજિત કરવા માટે કૃપા કરી \"કૅલિબ્રેશન\" મોડના \"નિષ્ણાત\"ને પસંદ કરો.",
	"Current Ver.": "વર્તમાન આવૃતિ",
	"Cut Bottom Edge": "નીચેની કિનારી કાપો",
	"Cut Edge": "કિનારી કટ કરો",
	"Cut Left Edge": "ડાબો એજી કાપો",
	"Cut Right Edge": "જમણો કટ કાપો",
	"Cut Top Edge": "ટોચની કિનારી કાપો",
	"Cyprus": "સાયપ્રસ",
	"Czech": "ઝેક",
	"Côte d'Ivoire": "કોટકલ્વોઇરે",
	"DHCP State": "DHCP સ્ટેટ",
	"DNS Server": "DNS સર્વર",
	"DOWNLOAD LOG": "ડાઉનલોડ લૉગ",
	"DOWNLOAD LOG FILE": "ડાઉનલોડ લોગ ફાઈલ",
	"Daisy Direction": "ડેઇઝી દિશા",
	"Daisy Start by": "આના દ્વારા ડેઇઝી પ્રારંભ",
	"Dakar": "ડાકાર",
	"Damascus": "દમાંસ્ચુસ",
	"Danmarkshavn": "દાન્માંર્ક્ષવ્ન",
	"Darwin": "ડાર્વિન",
	"Dashboard": "ડેશબોર્ડ",
	"Data is not collected now. wait for maximum 60 seconds": "ડેટા હવે એકત્રિત થયેલ નથી. મહત્તમ 60 સેકન્ડ માટે રાહ જુઓ",
	"Date": "તારીખ",
	"Dawson": "દવ્સોન",
	"Dawson Creek": "દવ્સોન ક્રિક",
	"Day": "દિવસ",
	"Daylight Saving Time": "ડેલાઇટ સેવિંગ ટાઇમ",
	"Days": "દિવસો",
	"December": "ડિસેમ્બર",
	"Delete": "કાઢી નાખો",
	"Delete All": "તમામ હટાવો",
	"Delete Mini Module": "મીની મોડ્યુલ હટાવો",
	"Delete Slave Controller": "સ્લેવ નિયંત્રક હટાવો",
	"Delete Unit": "એકમ કાઢો",
	"Delete?": "કાઢી નાખીએ?",
	"Democratic Republic Of The Congo": "આ કોંગો, ડેમોક્રેટિક રિપબ્લિક",
	"Denmark": "ડેનમાર્ક",
	"Denver": "દેન્વેર",
	"Details of Unit": "યુનિટની વિગતો",
	"Detroit": "દેત્રોઈત",
	"Device Control": "ડિવાઇસ નિયંત્રણ",
	"Dhaka": "ઢાકા",
	"Digital Board Reboot": "ડિજિટલ બોર્ડ રીબુટ",
	"Dili": "દિલી",
	"Disconnected": "ડિસ્કનેક્ટ કરેલું",
	"Display": "ડિસ્પ્લે",
	"Display & Sound": "ડિસ્પ્લે અને અવાજ",
	"Display & sound": "ડિસ્પ્લે અને અવાજ",
	"Distance to main screen": "મૂળ સ્થાનનો અંતર",
	"Do not reboot in Device page.": "ડિવાઇસ પાનું રીબૂટ કરો.",
	"Do you want to delete all schedules?": "શું તમે તમામ શેડ્યૂલ કાઢી નાખવા માંગો છો?",
	"Do you want to delete the schedule?": "શું તમે શેડ્યૂલ કાઢી નાખવા માંગો છો?",
	"Do you want to delete this LED FPGA Update file?": "શું તમે આ LED FPGA અપડેટ ફાઇલ હટાવવા માંગો છો?",
	"Do you want to delete this S/W Update file?": "તમે પસંદ કરેલ ફાઇલ કાઢી નાખવા માંગો છો?",
	"Do you want to install this S/W Update file?": "તમે આ S/W અપડેટ ફાઇલ સ્થાપિત કરવા માંગો છો?",
	"Do you want to proceed?": "શું તમે આગળ વધવા માંગો છો?",
	"Do you want to process?": "શું તમે પ્રક્રિયા કરવા માંગો છો?",
	"Do you want to set the time or date automatically?": "તમે સમય અથવા તારીખ આપોઆપ સુયોજિત કરવા માંગો છો?",
	"Dodoma": "ડોડોમા",
	"Doha": "દોહા",
	"Dominica": "ડોમિનિકા",
	"Dominican Republic": "ડોમિનિકન રિપબ્લિક",
	"Done": "પૂર્ણ",
	"Door": "ડોર",
	"Door Control": "ડોર નિયંત્રણ",
	"Door Monitor": "ડોર મૉનિટર",
	"Door Open": "ડોર ખુલ્લું",
	"Door Sensor": "ડોર સેન્સર",
	"Door Sensor Status": "ડોર સેન્સર સ્થિતિ",
	"Door xxx is opened": "ડોર xxx ખુલ્લું છે",
	"Douala": "ડૌઅલ",
	"Download failed, try again.": "ડાઉનલોડ નિષ્ફળ થયું, ફરી પ્રયાસ કરો.",
	"Draw": "દોરો",
	"Dubai": "દુબઈ",
	"Dublin": "દુબ્લીન",
	"Duplicated Unit ID": "ડુપ્લિકેટ કરેલ યુનિટ ID",
	"Duration": "અવધી",
	"Dushanbe": "દુશાન્બે",
	"Dynamic Brightness": "ગતિશીલ ચમક",
	"Dynamic Brightness Control": "ગતિશીલ ચમક નિયંત્રણ",
	"Easter Island": "એઅસ્તેર ઇસ્લંદ",
	"Ecuador": "ઇક્વેડોર",
	"Edit": "ફેરફાર કરો",
	"Edmonton": "એડમોન્ટોન",
	"Egypt": "ઇજીપ્ટ",
	"El Salvador": "EI સાલ્વાડોર",
	"Enable or disable Signage 365 Care services on this device": "આ ઉપકરણ પર સાઈનેજ 365 કેર સેવાઓને સક્ષમ અથવા અક્ષમ કરો",
	"End": "સમાપ્ત",
	"Energy Saving": "ઊર્જા બચત",
	"Enter Account Number": "એકાઉન્ટ નંબર દાખલ કરો",
	"Enter the account number to activate Signage 365 Care.": "સાઈનેજ 365 કેરને સક્રિય કરવા માટે એકાઉન્ટ નંબર દાખલ કરો.",
	"Equatorial Guinea": "ઈક્વેટોરિયલ ગિની",
	"Eritrea": "એરિટ્રીયા",
	"Estonia": "એસ્ટોનિયા",
	"Ethiopia": "ઇથોપિયા",
	"Event": "ઘટના",
	"Exit": "બહાર નીકળો",
	"Export": "એક્સપોર્ટ કરો",
	"External": "બાહ્ય",
	"External Input Rotation is ON": "બાહ્ય ઇનપુટ પરિભ્રમણ ચાલુ છે",
	"EyeQ sensor": "EyeQ સેન્સર",
	"FPGA Version": "FPGA આવૃત્તિ",
	"Factory Reset": "ફેક્ટરી રીસેટ",
	"Fail": "નિષ્ફળ",
	"Fail Over": "ફેઇલ ઓવર",
	"Fail to update. Check xxx file please.": "અપડેટ નિષ્ફળ. કૃપા કરી xxx ફાઇલ તપાસો.",
	"Failed to update LED FPGA with xxx. Check the file please": "Xxx સાથે LED FPGA અપડેટ કરવામાં નિષ્ફળ. કૃપા કરી ફાઇલ તપાસો",
	"Failed to update LED FPGA with xxx. Check the status of the unit controller.": "Xxx સાથે LED FPGA અપડેટ કરવામાં નિષ્ફળ. યુનિટ નિયંત્રકની સ્થિતિ તપાસો.",
	"Failed to update fan micom with xxx. Check the file please": "Xxx સાથે ફૅન મિકૉમ અપડેટ કરવામાં નિષ્ફળ. કૃપા કરી ફાઇલ તપાસો",
	"Failed, try again.": "નિષ્ફળ, ફરીથી પ્રયાસ કરો.",
	"Fan": "ફૅન",
	"Fan Micom S/W Updating": "ફૅન Micom સોફ્ટવેર અપડેટ કરી રહ્યાં છે",
	"Fan Micom Update?": "ફૅન Micom અપડેટ કરવી છે?",
	"Fan Micom Version": "ફૅન મિકૉમ આવૃત્તિ",
	"Fan RPM": "ફૅન RPM",
	"Fan RPM history is not yet collected": "ફૅન RPM ઇતિહાસ હજુ સુધી એકત્રિત કરવામાં આવ્યો નથી",
	"Fan Status": "ફૅન સ્થિતિ",
	"February": "ફેબ્રુઆરી",
	"Fernando de Noronha": "ફેર્નાન્ડો દે નોરોન્હા",
	"Fiji": "ફીજી",
	"File Name": "ફાઇલ નામ",
	"File Select": "ફાઇલ પસંદ કરો",
	"File Upload Progress": "ફાઇલ અપલોડ પ્રગતિ",
	"File upload via mobile devices does not support.": "મોબાઇલ ડિવાસેસ દ્વારા ફાઇલ અપલોડ સમર્થિત નથી.",
	"Filter": "ફિલ્ટર કરો",
	"Finland": "ફિનલેન્ડ",
	"First Use": "પ્રથમ ઉપયોગ",
	"Flash memory is not enough.": "ફ્લૅશ મેમરી પૂરતી નથી.",
	"For your security, you must change the default password.": "તમારી સુરક્ષા માટે, તમારે ડિફોલ્ટ પાસવર્ડ બદલવો આવશ્યક છે.",
	"Fortaleza": "ફોર્તાલેઝા",
	"Frame": "ફ્રેમ",
	"France": "ફ્રાન્ચે",
	"Freetown": "ફ્રીતોવ્ન",
	"French Polynesia": "ફ્રેંચ પોલ્ય્નેસિયા",
	"Fri": "શુક્રવાર",
	"Friday": "શુક્રવાર",
	"Full": "સંપૂર્ણ",
	"Fully Qualified Domain Name": "સંપૂર્ણ ગુણવત્તાવાળું ડોમેઇન નામ",
	"Gabon": "ગબોન",
	"Gaborone": "ગબોરોને",
	"Gambia": "ગેમ્બિયા",
	"Gambier": "ગમ્બીએર",
	"Game": "રમત",
	"Gamma": "ગામા",
	"Gamut Matrix": "ગેમટ મેટ્રિક્સ",
	"Gateway": "પ્રવેશદ્વાર",
	"Georgia": "જ્યોર્જિયા",
	"Germany": "જર્મની",
	"Ghana": "ઘાના",
	"Gibraltar": "જીબ્રાલ્ટર",
	"Glace Bay": "ગ્લાચે બાય",
	"Go To First Use": "પહેલી વાર ઉપયોગમાં જાઓ",
	"Godthab": "ગોદ્થાબ",
	"Greece": "ગ્રીસ",
	"Greenland": "ગ્રીનલેન્ડ",
	"Guadalcanal": "ઉઅદલ્કનલ",
	"Guadeloupe": "ગ્વાડેલુપ",
	"Guam": "ગ્વામ",
	"Guatemala": "ગ્વાટેમાલા",
	"Guatemala City": "ગુઅતેમાંલા ચિત્ય",
	"Guayaquil": "ઉઅયકુઇલ",
	"Guernsey": "ગ્વર્નસે",
	"Guinea": "ગુનિયા",
	"Guinea Bissau": "ગુનિયા બિસૌ",
	"Guyana": "ગયાના",
	"H Sharpness": "એચ તીક્ષ્ણતા",
	"Haiti": "હૈતી",
	"Halifax": "હલીફક્ષ",
	"Harare": "હરારે",
	"Havana": "હવાના",
	"Height": "ઊંચાઈ",
	"Helsinki": "હેલસિંકી",
	"Hermosillo": "હેર્મોસીલ્લો",
	"High": "ઊંચા",
	"History is not yet collected": "ઇતિહાસ હજુ સુધી એકત્રિત કરવામાં આવ્યો નથી",
	"Ho Chi Minh": "હો ચી મિંહ",
	"Hobart": "હોબાર્ટ",
	"Home": "મુખ્ય પૃષ્ઠ",
	"Honduras": "હોન્ડુરાસ",
	"Hong Kong": "હોંગ કોંગ",
	"Honolulu": "હોનોલુલુ",
	"Horizontal": "આડું",
	"Hour": "કલાક",
	"Humidity": "ભેજ",
	"Hungary": "હંગેરી",
	"IP Address": "IP સરનામું",
	"Iceland": "આઇસલેન્ડ",
	"If the pitch is changed, all of the configuration settings are initialized.": "જો પિચ બદલવામાં આવે, તો તમામ કન્ફિગ્યુરેશન સેટિંગ્સ શરૂ કરવામાં આવે છે.",
	"Image": "છબી",
	"Impact": "અસર",
	"Incorrect Password entered. Please try again.": "ખોટો પાસવર્ડ દાખલ થયેલ છે. કૃપા કરીને ફરી પ્રયાસ કરો.",
	"India": "ભારત",
	"Indianapolis": "ઈન્દિઅનપોલિસ",
	"Indonesia": "ઇન્ડોનેશિયા",
	"Information": "માહિતી",
	"Input": "ઇનપુટ",
	"Input 6 or more characters": "6 કે વધુ અક્ષરો નાખો",
	"Input Direction": "દિશા નાખો",
	"Input Password": "પાસવર્ડ દાખલ કરો",
	"Input Priority": "ઇનપુટ પ્રાથમિકતા",
	"Input Priority Setting": "ઇનપુટ પ્રાથમિકતા સેટિંગ",
	"Input Signage Name please.": "કૃપયા ઇનપુટ Signage નામ.",
	"Input Window": "ઈનપુટ વિંડો",
	"Install": "ઇન્સ્ટોલ કરો",
	"Install Failed.": "સ્થાપન નિષ્ફળ.",
	"Install Succeeded": "સ્થાપન સફળ",
	"Installation Failed": "ઇન્સ્ટોલેશન નિષ્ફળ થયું",
	"Installation Menu": "ઇન્સ્ટૉલેશન મેનૂ",
	"Installing…": "ઇન્સ્ટોલ કરી રહ્યા છે…",
	"Internet Not available": "ઇન્ટરનેટ ઉપલબ્ધ નથી",
	"Internet available": "ઇન્ટરનેટ ઉપલબ્ધ છે",
	"Invalid day value": "અમાન્ય દિવસ વેલ્યૂ",
	"Invalid hour value": "અમાન્ય કલાક વેલ્યૂ",
	"Invalid minute value": "અમાન્ય મિનિટ વેલ્યૂ",
	"Invalid month value": "અમાન્ય મહિનાની વેલ્યૂ",
	"Invalid new password. The password must be at least 8 characters.": "અમાન્ય નવો પાસવર્ડ. પાસવર્ડમાં ઓછામાં ઓછાં 8 વર્ણો હોવા ફરજિયાત છે.",
	"Invalid new password. You must use a mixture of characters, numbers and special characters.": "અમાન્ય નવો પાસવર્ડ. તમારે અક્ષરો, સંખ્યાઓ અને વિશિષ્ટ અક્ષરોના સંયોજનનો ઉપયોગ કરવો આવશ્યક છે.",
	"Invalid schedule.": "અમાન્ય શેડ્યૂલ.",
	"Invalid value": "અમાન્ય મૂલ્ય",
	"Invalid year value": "અમાન્ય વર્ષ વેલ્યૂ",
	"Iran": "ઈરાન",
	"Iraq": "ઇરાક",
	"Ireland": "આયર્લેન્ડ",
	"Irkutsk": "ઈર્કુત્સક",
	"Irregular": "અનિયમિત",
	"Israel": "ઇઝરાયેલ",
	"Issue History": "અંક ઇતિહાસ",
	"Istanbul": "ઇસ્તન્બુલ",
	"Italy": "ઇતલ્ય",
	"Jakarta": "જાકાર્તા",
	"Jamaica": "જમૈકા",
	"January": "જાન્યુઆરી",
	"Japan": "જાપાન",
	"Jerusalem": "જેરુસલેમ",
	"Johannesburg": "જોહાન્નેસ્બુર્ગ",
	"Jordan": "જોર્ડન",
	"July": "જુલાઈ",
	"June": "જૂન",
	"Kabul": "કાબુલ",
	"Kaliningrad": "કલીનીન્ગ્રદ",
	"Kamchatka": "કામ્ચટકા",
	"Kampala": "કમ્પાલા",
	"Karachi": "કરાચી",
	"Katmandu": "કાઠમંડુ",
	"Kazakhstan": "કઝાખસ્તાન",
	"Kenya": "કેન્યા",
	"Khartoum": "ખર્તોઉમ",
	"Khovd": "ખોવ્દ",
	"Kiev": "કીએવ",
	"Kigali": "કિગાલી",
	"Kingston": "કીન્ગ્સ્તોન",
	"Kinshasa": "કિન્શાસા",
	"Kiribati": "કીરીબાતી",
	"Kiritimati": "કીરીતીમાંતી",
	"Kolkata": "કોલકાતા",
	"Korea": "કોરિયા",
	"Korea, Republic of": "કોરિયા, રિપબ્લિક ઓફ",
	"Krasnoyarsk": "ક્રાસનોયાર્સ્ક",
	"Kuala Lumpur": "કુઅલા લુમ્પુર",
	"Kuching": "કૂચીંગ",
	"Kuwait": "કુવૈત",
	"Kuwait City": "કુવૈત શહેર",
	"Kyrgyzstan": "ક્ય્ર્ગય્ઝ્સ્તાન",
	"LED FPGA Update file list": "LED FPGA અપડેટ ફાઇલ યાદી",
	"LED FPGA Updating ......": "LED FPGA અપડેટ કરી રહ્યાં છીએ ......",
	"LED Features": "LED સુવિધાઓ",
	"LED Film Settings": "LED ફિલ્મ સેટિંગ્સ",
	"LED Open Detection": "LED ખુલ્લી શોધ",
	"LED Settings": "LED સેટિંગ્સ",
	"LED Unit": "LED યૂનિટ",
	"LED Unit Status": "LED એકમ સ્થિતિ",
	"LG Control Manager": "LG કંટ્રોલ મેનેજર",
	"La Paz": "લા પાઝ",
	"Lagos": "લાગોસ",
	"Landscape": "લેન્ડસ્કેપ",
	"Language": "ભાષા",
	"Laos": "લોસ",
	"Large": "વિશાળ",
	"Latvia": "લાત્વિયા",
	"Layout": "લેઆઉટ",
	"Layout Editor": "લેઆઉટ સંપાદક",
	"Lebanon": "લેબનોન",
	"Left": "ડાબી",
	"Left Port": "ડાબો પોર્ટ",
	"Lesotho": "લેસોથો",
	"Liberia": "લિબેરિયા",
	"Libreville": "લિબ્રેવિલ",
	"Libya": "લિબ્યા",
	"Liechtenstein": "ળિએચ્તેન્સ્તેઇન",
	"Lima": "લિમા",
	"Lisbon": "લિસ્બન",
	"Lithuania": "ળિથુઅનિઅ",
	"Ljubljana": "લિયૂબ્લિયના",
	"Loading": "લોડ કરી રહ્યું છે",
	"Loading…": "લોડ કરી રહ્યું છે…",
	"Local": "સ્થાનિક",
	"Local Application Upgrade": "સ્થાનિક એપ્લિકેશન અપગ્રેડ",
	"Location": "સ્થાન",
	"Log": "લૉગ કરો",
	"Log Report": "લૉગ રિપોર્ટ",
	"Log after Power Up": "પાવર અપ પછી લૉગ કરો",
	"Login": "લૉગિન",
	"Login is required.": "લૉગિન જરૂરી છે.",
	"Logout": "લૉગઆઉટ",
	"Lome": "લોમ",
	"London": "લન્ડન",
	"Los Angeles": "લોસ એન્જલસ",
	"Louisville": "લુઇસવિલે",
	"Low": "નીચા",
	"Luanda": "લ્યૂવાંડા",
	"Lubumbashi": "લુબુમ્બાશી",
	"Lusaka": "લુસકા",
	"Luxembourg": "ળુક્ષેમ્બૌર્ગ",
	"MAC Address": "MAC સરનામું",
	"MONO": "મોનો",
	"MONO TRANSPARENT LED": "મોનો પારદર્શક LED",
	"Macao": "મચાઓ",
	"Macedonia": "મેસેડોનિયા",
	"Maceió": "મચેઈઓ",
	"Madagascar": "મેડાગાસ્કર",
	"Madeira": "અદેઇર",
	"Madrid": "માંદ્રીદ",
	"Magadan": "મગાદાન",
	"Main": "મુખ્ય",
	"Malabo": "મલબો",
	"Malawi": "મળવી",
	"Malaysia": "માંલાય્સિયા",
	"Maldives": "માંલ્દીવેસ",
	"Mali": "મળી",
	"Malta": "મળતા",
	"Manage": "પ્રબંધ કરો",
	"Managua": "માનાગુઆ",
	"Manaus": "માનુસ",
	"Manila": "મનીલા",
	"Manual": "જાતે",
	"Maputo": "માપટો",
	"March": "માર્ચ",
	"Marquesas": "અર્કુએસસ",
	"Marshall Islands": "માર્શાલ્લ ઇસ્લાન્દ્સ",
	"Martinique": "અર્તિનિકુએ",
	"Maseru": "માંસેરું",
	"Master": "માસ્ટર.",
	"Mauritius": "મૌરિશિયસ",
	"Max Backlight": "મહત્તમ બૅકલાઈટ",
	"Maximum": "વધુમાં વધુ",
	"May": "મે",
	"Mayotte": "મયોત્તે",
	"Mazatlán": "માંઝાત્લન",
	"Mbabane": "મ્બબને",
	"Media": "મીડિયા",
	"Media Library": "મીડિયા લાઇબ્રેરી",
	"Media file List": "મીડિયા ફાઇલ યાદી",
	"Media file Upload (XXX GB available)": "મીડિયા ફાઇલ અપલોડ કરો (XXX GB ઉપલબ્ધ)",
	"Medium": "મધ્યમ",
	"Melbourne": "મેલ્બોઉરને",
	"Menu Language": "મેનુ ભાષા",
	"Mexico": "એક્ષિકો",
	"Mexico City": "એક્ષિકો ચિત્ય",
	"Micom Progress": "Micom પ્રગતિ",
	"Micom Update": "મિકૉમ અપડેટ",
	"Micom Version": "મિકૉમ આવૃત્તિ",
	"Min Backlight": "ન્યૂનતમ બૅકલાઈટ",
	"Mini Module": "મીની મોડ્યુલ",
	"Minimum": "લઘુત્તમ",
	"Mins": "મિનિટ્સ",
	"Minsk": "મિન્સ્ક",
	"Model Name": "મોડલ નેમ",
	"Module Calibration": "મોડ્યુલ કૅલિબ્રેશન",
	"Module Calibration is modified. Exit without saving?": "મોડ્યુલ કૅલિબ્રેશન સંશોધિત કરવામાં આવ્યું છે. શું સાચવ્યા વગર બહાર નીકળવું છે?",
	"Module Size": "મોડ્યુલ કદ",
	"Mogadishu": "મોગદીશું",
	"Moldova": "મોલ્ડોવા",
	"Mon": "સોમવાર",
	"Monaco": "મોનાકો",
	"Moncton": "મોનકટોં",
	"Monday": "સોમવાર",
	"Mongolia": "મોંગોલિયા",
	"Mono": "મોનો",
	"Monrovia": "મનરોવીયા",
	"Montenegro": "મોન્ટેનેગ્રો",
	"Monterrey": "મોન્ટેરરી",
	"Montevideo": "મોન્ટેવિડિઓ",
	"Month": "મહિનો",
	"Montréal": "મોન્ટ્રીયલ",
	"More": "વધુ",
	"Morocco": "મોરોચ્ચો",
	"Moscow": "મોસ્કો",
	"Mozambique": "ઓઅમ્બિકુએ",
	"Muscat": "મસકૅટ",
	"Mute": "મ્યુટ",
	"Myanmar": "મ્યાનમાર",
	"Mérida": "મેરિડા",
	"NOT AVAILABLE": "ઉપલબ્ધ નથી",
	"Nairobi": "નૈરોબી",
	"Name": "નામ",
	"Namibia": "નામિબિયા",
	"Nassau": "નાસાઉ",
	"Natural Mode": "નેચરલ મોડ",
	"Natural Size": "સામાન્ય કદ",
	"Ndjamena": "ન્દ્જમેના",
	"Nepal": "નેપાળ",
	"Netherlands": "નેધરલેન્ડ",
	"Network": "નેટવર્ક",
	"Network Settings": "નેટવર્ક સેટિંગ્સ",
	"New Caledonia": "ન્યુ સેલેડોનિયા",
	"New Password": "નવો પાસવર્ડ",
	"New York": "ન્યૂ યોર્ક",
	"New Zealand": "ન્યુ ઝિલેન્ડ",
	"Newer Ver.": "નવી આવૃતિ",
	"Next": "આગામી",
	"Next Day": "આવતા દિવસે",
	"Niamey": "નીયમી",
	"Nicaragua": "નિકારાગુઆ",
	"Nicosia": "નિકોસિયા",
	"Niger": "નીગેર",
	"Nigeria": "નીગેરિયા",
	"Nipigon": "નીપીગોન",
	"No": "ના",
	"No Signal": "સિગ્નલ નહિ",
	"No backup files exist in storage device.": "સંગ્રાહક ઉપકરણમાં કોઈ બેકઅપ ફાઈલ્સનું અસ્તિત્વ નથી.",
	"None": "કોઈ નહીં",
	"Normal": "સામાન્ય",
	"North Korea": "ઉત્તર કોરિયા",
	"Norway": "નોર્વે",
	"Not Connected": "કનેક્ટેડ નથી",
	"Nouméa": "ણૌમેઅ",
	"November": "નવેમ્બર",
	"Novosibirsk": "નોવોસીબિર્સ્ક",
	"Number": "નંબર",
	"OK": "બરાબર",
	"OLED LIGHT": "OLED લાઇટ",
	"OLED Light": "OLED લાઇટ",
	"OSD Portrait Mode": "OSD પોટ્રેટ સ્થિતિ",
	"OSD Portrait Mode is ON": "OSD પોર્ટ્રેટ મોડ ચાલુ છે",
	"OSD Portrait Status": "OSD પોર્ટ્રેટ સ્થિતિ",
	"OSD Portrait mode is xxx": "OSD પોર્ટ્રેટ મોડ xxx છે",
	"OSD Rotation is ON": "OSD રોટેશન ચાલુ છે",
	"OVERWRITE": "પર ફરીથી લખો",
	"Occurrence Time": "ઉદ્ભવ સમય",
	"October": "ઓક્ટોબર",
	"Off": "બંધ",
	"Off Until Reset": "રીસેટ કરવા સુધી બંધ",
	"Off When Open": "ખોલવા પર બંધ",
	"Oman": "ઓમાન",
	"Omsk": "ઓમસ્ક",
	"On": "ચાલું",
	"On When Open": "ખોલવા પર ચાલુ",
	"Open Loop Fan": "ખુલ્લો લૂપ ફેન",
	"OpenLoop": "ખુલ્લું લૂપ",
	"Opened": "ખુલ્લું",
	"Oranjestad": "ઓરન્જેસ્તાદ",
	"Original": "મૂળ",
	"Oslo": "ઓસ્લો",
	"Ouagadougou": "ઉઅગદૌગૌ",
	"Output Window": "આઉટપુટ વિંડો",
	"OverHeat": "ઓવરહીટ",
	"Overwrite": "ઓવરરાઇટ કરો",
	"Overwrite xxx?": "XXX ફરી લખશો?",
	"Overwrite?": "ફરીથી લખીએ?",
	"PM Mode": "PM મોડ",
	"Pakistan": "પાકિસ્તાન",
	"Palau": "પલાઉ",
	"Panama": "પાનામાં",
	"Panama City": "પાનામાં સિટી",
	"Panel": "પેનલ",
	"Papua New Guinea": "પપુઆ ન્યુ ગીની",
	"Paraguay": "પેરાગ્વે",
	"Paramaribo": "પરમાંરીબો",
	"Paris": "પરીસ",
	"Password": "પાસવર્ડ",
	"Password is incorrect. Please Try Again": "પાસવર્ડ ખોટો છે. કૃપયા ફરી પ્રયાસ કરો",
	"Password is incorrect. Please try again.": "પાસવર્ડ ખોટો છે. કૃપા કરી ફરી પ્રયાસ કરો.",
	"Perth": "પેર્થ",
	"Peru": "પેરુ",
	"Philippines": "ફીલીપ્પીનેસ",
	"Phnom Penh": "ફ્નોમ પેન્હ",
	"Phoenix": "હોએનિક્ષ",
	"Physical Layout": "ભૌતિક રચના",
	"Picture": "ચિત્ર",
	"Picture Mode": "ચિત્ર સ્થિતિ",
	"Picture Settings": "ચિત્ર સેટિંગ્સ",
	"Pitch": "પિચ",
	"Pixel Pitch": "પિક્સેલ પિચ",
	"Play": "રમો",
	"Play via URL": "URL દ્વારા પ્લે કરો",
	"Please Keep this Signage on.": "કૃપા કરીને આ સાઈનેજ ચાલુ રાખો.",
	"Please check the installation file and try again.": "કૃપા કરીને ઇન્સ્ટોલેશન ફાઇલ ચકાસો અને ફરી પ્રયાસ કરો.",
	"Please check the schedule again.": "કૃપા કરીને તમારા શિડ્યુલ ની ચકાસણી કરોં.",
	"Please choose a file to upload": "કૃપા કરી અપલોડ કરવા માટે ફાઇલ પસંદ કરો",
	"Please choose a video file to upload": "કૃપા કરી અપલોડ કરવા માટે વીડિયો ફાઇલ પસંદ કરો",
	"Please don't turn off the device and wait until the installation is completed.": "કૃપા કરીને ઉપકરણને બંધ કરશો નહીં અને ઇન્સ્ટોલેશન પૂર્ણ થાય ત્યાં સુધી રાહ જુઓ.",
	"Please login again.": "ફરી પ્રવેશ કરો.",
	"Please select city": "કૃપા કરીને શહેર પસંદ કરો",
	"Please select country": "કૃપા કરીને દેશ પસંદ કરો",
	"Please upload S/W update file via PC browser.": "કૃપા કરી PC બ્રાઉઝર દ્વારા સોફ્ટવેર અપડેટ ફાઇલ અપલોડ કરો.",
	"Podgorica": "પોદ્ગોરીચા",
	"Poland": "પોલંદ",
	"Port": "પોર્ટ",
	"Port Louis": "પોર્ટ લુઇસ",
	"Port Moresby": "પોર્ટ મોરેસ્બ્ય",
	"Port Number": "પોર્ટ નંબર",
	"Port Selection": "પોર્ટ પસંદગી",
	"Port Settings": "પોર્ટ સેટિંગ્સ",
	"Port of Spain": "પોર્ટ ઓફ સ્પીન",
	"Port-au-Prince": "પોર્ટ-ઔ-પ્રીન્ચે",
	"Porto Novo": "પોર્ટો નોવો",
	"Porto Velho": "પોર્ટો વેલ્હો",
	"Portrait": "પોર્ટ્રેટ",
	"Portrait Mode": "પોર્ટ્રેટ મોડ",
	"Portugal": "પોર્ટુગલ",
	"Position": "સ્થિતિ",
	"Power": "પાવર",
	"Power Off": "પાવર બંધ",
	"Power Off Management": "પાવર ઑફ મેનેજમેન્ટ",
	"Power Off(Default)": "પાવર બંધ(ડિફૉલ્ટ)",
	"Prague": "પ્રગુએ",
	"Praia": "પ્રાઇયા",
	"Prev DAY": "પાછલા દિવસે",
	"Prev.": "પાછલું",
	"Preview": "પૂર્વાવલોકન",
	"Priority": "પ્રાથમિકતા",
	"Property": "મિલકત",
	"Proxy": "પ્રોક્સી",
	"Puerto Rico": "પ્યુર્ટો રિકો",
	"Pyongyang": "પ્યોન્ગ્યંગ",
	"Qatar": "કતાર",
	"REMOTE": "રિમોટ",
	"REMOVE": "દૂર",
	"RESET": "રીસેટ કરો",
	"Rainy River": "રેની નદી",
	"Rearrange": "પુન: ગોઠવણી",
	"Reboot": "રીબુટ",
	"Reboot?": "રીબુટ?",
	"Rebooting": "રીબુટ કરી રહ્યા છે",
	"Recife": "કૉર્ડોબા",
	"Reference Resolution": "સંદર્ભ રિઝોલ્યુશન",
	"Refresh": "રીફ્રેશ",
	"Regina": "રેગિના",
	"Regular": "નિયમિત",
	"Rejected": "નકારેલું",
	"Remote": "રિમોટ",
	"Rename": "નામ બદલો",
	"Rename or Overwrite?": "નામ બદલવું અથવા ઓવરરાઇટ કરવું છે?",
	"Rename to {{filename (2)}} or Overwrite?": "{{filename (2)}}માં બદલવું અથવા ઓવરવાઇટ કરવું છે?",
	"Republic Of The Congo": "એપુબ્લિક ઓફ થે કોન્ગો",
	"Require Network Settings": "નેટવર્ક સેટિંગ્સની જરૂર છે",
	"Reset": "રીસેટ કરો",
	"Reset All": "તમામ રીસેટ કરો",
	"Reset Mute": "મ્યુટ રીસેટ કરો",
	"Reset Mute' is Needed": "મ્યુટ રીસેટ કરવું જરૂરી છે",
	"Resolution": "રિઝોલ્યુશન",
	"Reykjavik": "રિકિયવિક",
	"Riga": "રીગા",
	"Right": "જમણી",
	"Right Port": "જમણો પોર્ટ",
	"Riyadh": "રિડ",
	"Romania": "રોમાનિયા",
	"Rome": "રોમ",
	"Row": "પંક્તિ",
	"Rows": "પંક્તિઓ",
	"Rows per Page": "પૃષ્ઠ દીઠ પંક્તિઓ",
	"Run Time": "રન ટાઈમ",
	"Run Time Since Last Power Up": "છેલ્લા પાવર અપથી રન ટાઇમ",
	"Russia": "રશિયા",
	"Rwanda": "રવાન્ડા",
	"S/W Update": "S/W અપડેટ",
	"S/W Update File list": "S/W અપડેટ ફાઇલ યાદી",
	"S/W Update file list": "S/W અપડેટ ફાઇલ યાદી",
	"S/W Updating": "S/W અપડેટ થઈ રહ્યું છે",
	"S/W Updating......": "સોફ્ટવેર અપડેટ કરી રહ્યાં છીએ......",
	"S/W Ver.": "S/W આવૃત્તિ",
	"S/W update file does not exist.": "સોફ્ટવેર અપડેટ ફાઇલ મોજૂદ નથી.",
	"SCREEN": "સ્ક્રીન",
	"SELECT TRANSPARENT LED TYPE": "પારદર્શક LED પ્રકાર પસંદ કરો",
	"SETTING": "સેટિંગ્સ",
	"SI App / Play via URL": "URL મારફતે SI App / પ્લે",
	"SI Server IP": "SI સર્વર IP",
	"Saint Lucia": "સૈન્ટ લુચિયા",
	"Sakhalin": "સખાલિન",
	"Samara": "સમારા",
	"Samarkand": "સમરકંદમાં",
	"Samoa": "સમોં",
	"San Luis": "સેન લ્યુઇસ",
	"San Salvador": "સાન સાલ્વાડોર",
	"Santiago": "સેન્ટિયાગો",
	"Santo Domingo": "સંતો ડોમિંગો",
	"Sarajevo": "સારાજેવો",
	"Sat": "શનિવાર",
	"Saturday": "શનિવાર",
	"Saudi Arabia": "સાઉદી અરેબિયા",
	"Save": "સાચવો",
	"Save as PC Time": "PC સમય તરીકે સાચવો",
	"Schedule Time": "શિડ્યુલ માટે નું સમય.",
	"Scoresbysund": "સ્કોર્સબાયસન્દ",
	"Screen": "સ્ક્રીન",
	"Screen Configuration": "સ્ક્રીન રૂપરેખાંકન",
	"Screen Fault Detection": "સ્ક્રીન ત્રુટિ શોધ",
	"Screen OFF & Backlight(Outdoor Mode)": "સ્ક્રીન બંધ અને બેકલાઇટ (આઉટડોર મોડ)",
	"Screen Off": "સ્ક્રીન બંધ",
	"Screen Off & Backlight": "સ્ક્રીન બંધ અને બૅકલાઇટ",
	"Screen Off & Backlight On": "સ્ક્રીન બંધ અને બૅકલાઇટ ચાલુ.",
	"Screen Off Always": "હમંશા સ્ક્રીન બંધ",
	"Screen Power Off": "સ્ક્રીન પાવર બંધ",
	"Screen Rotation is ON": "સ્ક્રીન પરિભ્રમણ ચાલુ છે",
	"ScreenOn": "સ્ક્રીન ચાલુ",
	"Secure Connection": "કનેક્શન સુરક્ષિત કરો",
	"Select File": "ફાઇલ પસંદ કરો",
	"Select Input Source": "ઇનપુટ સ્ત્રોત પસંદ કરો",
	"Select LED Film Pitch": "LED ફિલ્મ પિચ પસંદ કરો",
	"Select a file to upload": "અપલોડ કરવા માટે કોઈ ફાઇલ પસંદ કરો",
	"Select media file": "મીડિયા ફાઇલ પસંદ કરો",
	"Select the type of transparent LED Signage you installed. You can also change the type in [Control] Tab.": "તમે ઇનસ્ટોલ કરેલ પારદર્શક LED સાઈનેજ પ્રકાર પસંદ કરો. \nતમે [કંટ્રોલ] ટૅબમાં  પ્રકાર પણ બદલી શકો છો.",
	"Sender Position": "મોકલનારનો દરજ્જો",
	"Sender Resolution": "મોકલનારનો ઠરાવ",
	"Senegal": "સેનેગલ",
	"Sensor": "સેન્સર",
	"Seoul": "સોલ",
	"September": "સપ્ટેમ્બર",
	"Serbia": "સેર્બિયા",
	"Serial Number": "અનુક્રમ નંબર",
	"Server": "સર્વર",
	"Server Status": "સર્વર સ્થિતિ",
	"Set": "સેટ",
	"Set Automatically": "આપમેળે સેટ કરો",
	"Set ID": "સેટ ID",
	"Set Master": "માસ્ટર સેટ કરો",
	"Set Slave": "સ્લેવ સેટ કરો",
	"Set URL": "URL સેટ કરો",
	"Sharpness": "તીક્ષ્ણતા",
	"Show Color": "રંગ બતાવો",
	"Sierra Leone": "સીએર્રા લેઓને",
	"Sigane Name is Too Long": "સાઈનેજ નામ ઘણું લાંબુ છે",
	"Signage 365 Care": "સાઈનેજ 365 કેર",
	"Signage 365 Care App": "સાઈનેજ 365 કેર એપ",
	"Signage Name": "Signage નામ",
	"Signal": "સંકેત",
	"Simferopol": "સિંફેરોપોલ",
	"Since Last Power Up": "છેલ્લાં પાવર અપથી",
	"Singapore": "સિંગાપોરે",
	"Size": "કદ",
	"Skopje": "સ્કોપજે",
	"Slave": "સ્લેવ.",
	"Slovakia": "સ્લોવાકિયા",
	"Slovenia": "સ્લોવેનિયા",
	"Small": "નાનું",
	"Sofia": "સોફિયા",
	"Software Version": "સોફ્ટવેર આવૃત્તિ",
	"Solomon Islands": "સોલોમોન ઇસ્લાન્દ્સ",
	"Somalia": "સોમાલિયા",
	"Sound Control": "સાઉન્ડ નિયંત્રણ",
	"South Africa": "સોઉથ અફ્રીચા",
	"Spain": "સ્પેઇન",
	"Sports": "રમતગમત",
	"Srednekolymsk": "સ્રેડનેકોલિમ્સ્ક",
	"Sri Lanka": "સરી લંકા",
	"St. John's": "સેન્ટ જ્હોન",
	"Standard": "સ્ટાન્ડર્ડ",
	"Start": "આરંભ",
	"State": "રાજ્ય",
	"Status": "સ્થિતિ",
	"Stockholm": "સ્ટોકહોમ",
	"Subnet Mask": "સબનેટ માસ્ક",
	"Subnet prefix length": "સબનેટ પ્રિફિક્સ લંબાઇ",
	"Success": "સફળતા",
	"Sudan": "સુદાન",
	"Sun": "રવિવાર",
	"Sunday": "રવિવાર",
	"SuperSign Content": "SuperSign સામગ્રી",
	"SuperSign Contents": "SuperSign સામગ્રી",
	"Suriname": "સુરીનામે",
	"Sustain Aspect Ratio": "સાપેક્ષ ગુણોત્તર ટકાવી રાખો",
	"Swaziland": "સ્વીટઝરલેન્ડ",
	"Sweden": "સ્વેદેન",
	"Swift Current": "સ્વીફ્ટ અત્યારની",
	"Switzerland": "સ્વીત્ઝેર્લંદ",
	"Sydney": "સિડની",
	"Syria": "સિરિયા",
	"System Box": "સિસ્ટમ બોક્સ",
	"System Control": "સિસ્ટમ નિયંત્રણ",
	"System Controller": "સિસ્ટમ નિયંત્રક",
	"System Information": "સિસ્ટમ માહિતી",
	"System Settings": "સિસ્ટમ સેટિંગ્સ",
	"São Paulo": "સાઓ પાઉલો",
	"Tahiti": "તાહિતી",
	"Taipei": "તાઇપેઈ",
	"Taiwan": "તાઇવાન",
	"Tajikistan": "તાજીકિસ્તાન",
	"Tallinn": "તલ્લીન",
	"Tanzania": "ટાન્ઝાનીયા",
	"Tashkent": "તાશ્કંદ",
	"Tbilisi": "ટબાઇલીસી",
	"Tegucigalpa": "તેગુસિગાલ્પા",
	"Tehran": "તેહરાન",
	"Temperature": "તાપમાન",
	"Temperature Unit": "તાપમાન એકમ",
	"Temperature history is not yet collected": "તાપમાન ઇતિહાસ હજુ સુધી એકત્રિત કરવામાં આવ્યો નથી",
	"Test Color": "પરીક્ષણ રંગ",
	"Test Pattern": "પરીક્ષણ પેટર્ન",
	"Test Pattern On": "પરીક્ષણ પેટર્ન ચાલુ",
	"Thailand": "થાઇલેન્ડ",
	"The POWER remote controller key will not work during the update.": "અપડેટ દરમિયાન POWER દૂરસ્થ નિયંત્રક કી કામ કરશે નહિં.",
	"The Signage 365 care app has been deleted.": "સાઈનેજ 365 કેર એપ્લિકેશન હટાવવામાં આવી છે.",
	"The Signage 365 care app has been successfully installed.": "સાઈનેજ 365 કેર એપ્લિકેશન સફળતાપૂર્વક ઇન્સ્ટોલ થઇ છે.",
	"The Signage 365 care app has been successfully updated.": "સાઈનેજ 365 કેર એપ્લિકેશન સફળતાપૂર્વક અપડેટ થઇ છે.",
	"The URL format is invalid.": "URL ફોર્મેટ અમાન્ય છે.",
	"The installation of the Signage 365 care app has failed.": "સાઈનેજ 365 કેર એપ્લિકેશનનું ઇન્સ્ટોલેશન નિષ્ફળ થયું છે.",
	"The installation of the Signage 365 care app is in progress.": "સાઈનેજ 365 કેર એપ્લિકેશનનું ઇન્સ્ટોલેશન ચાલુ છે.",
	"The same file name already exists.": "સમાન ફાઇલ નામ પહેલાંથી જ મોજૂદ છે.",
	"The update of the Signage 365 care app has failed.": "સાઈનેજ 365 કેર એપ્લિકેશનનું અપડેટ નિષ્ફળ થયું છે.",
	"The update of the Signage 365 care app is in progress.": "સાઈનેજ 365 કેર એપ્લિકેશનનું અપડેટ ચાલુ છે.",
	"There is a difference between your signage and the signage 365 care server in time and date.": "તમારા સાઈનેજ અને સાઈનેજ 365 કેર સર્વર વચ્ચે સમય અને તારીખમાં તફાવત છે.",
	"There is no list.": "કોઈ સૂચિ નથી.",
	"There's No Backup file": "કોઈ બેકઅપ ફાઈલ નથી",
	"Thimphu": "થીમ્ફું",
	"This pop up will be closed automatically in 5 sec.": "આ પોપ અપ 5 સેંકન્ડમાં સ્વચાલિત રીતે પૂર્ણ થશે.",
	"Thu": "ગુરુવાર",
	"Thule": "થુલે",
	"Thursday": "ગુરુવાર",
	"Tijuana": "તીજુઅના",
	"Tile ID": "ટાઇલ ID",
	"Tile Mode": "ટાઇલ મોડ",
	"Tile Mode Setting": "Tile Mode Setting",
	"Tile Mode Settings": "ટાઇલ મોડ સેટિંગ્સ",
	"Time": "સમય",
	"Time & Date": "સમય અને તારીખ",
	"Time Setting": "સમય સેટિંગ",
	"Time Zone": "ટાઈમ ઝોન",
	"Timor-Leste": "ટીમોર",
	"Tint": "ટીંટ",
	"Tiranë": "તીરને",
	"To choose an AP, please use Settings App. with a remote controller.": "કોઈ AP પસંદ કરવા માટે, કૃપા કરી રિમોટ કંટ્રોલ વાળા સેટિંગ્સ ઍપનો ઉપયોગ કરો.",
	"To make your password more secure, use a mixture of characters, numbers and special characters.": "તમારો પાસવર્ડ વધુ સુરક્ષિત બનાવવા માટે, અક્ષરો, સંખ્યાઓ અને વિશિષ્ટ અક્ષરોના સંયોજનનો ઉપયોગ કરો.",
	"To use Signage 365 care, you need to connect the device to the network . Do you want to set the network connection?": "સાઈનેજ 365 કેરનો ઉપયોગ કરવા માટે, તમારે ઉપકરણને નેટવર્કથી કનેક્ટ કરવાની જરૂર છે. તમે નેટવર્ક જોડાણ સુયોજિત કરવા માંગો છો?",
	"Togo": "ટોગો",
	"Tokyo": "ટોક્યો",
	"Tonga": "રેગિના",
	"Top": "ટોચ",
	"Top Left": "ઉપર ડાબે",
	"Top Right": "ઉપર જમણે",
	"Toronto": "ટોરોન્ટો",
	"Trimming": "આનુષંગિક બાબતો",
	"Trinidad And Tobago": "ટ્રીનીડાડ એન્ડ ટોબેગો",
	"Tripoli": "ત્રિપોલી",
	"Tue": "મંગળવાર",
	"Tuesday": "મંગળવાર",
	"Tunis": "તુનીસ",
	"Tunisia": "ટ્યુનિશિયા",
	"Turkey": "તુર્કી",
	"Turkmenistan": "તુર્કમેનિસ્તાન",
	"Type": "પ્રકાર",
	"URL Loader": "URL લોડર",
	"URL Setting": "URL સેટિંગ",
	"USB Application Upgrade": "USB એપ્લીકેશન અપગ્રેડ",
	"Uganda": "યુગાન્ડા",
	"Ukraine": "યુક્રેન",
	"Ulaanbaatar": "ઉલાન્બાતર",
	"Unit": "એકમ",
	"Unit Calibration": "યુનિટ કૅલિબ્રેશન",
	"Unit Calibration is modified. Exit without saving?": "યુનિટ કૅલિબ્રેશન સંશોધિત કરવામાં આવ્યું છે. શું સાચવ્યા વગર બહાર નીકળવું છે?",
	"Unit Configuration": "યુનિટ રૂપરેખાંકન",
	"Unit Position": "એકમ દરજ્જો",
	"Unit Property": "એકમ મિલકત",
	"Unit Resolution": "યુનિટ રિઝોલ્યુશન",
	"Unit Settings": "એકમ સેટિંગ્સ",
	"Unit Status": "યુનિટ સ્થિતિ",
	"Unit Temperature": "યુનિટ તાપમાન",
	"United Arab Emirates": "સંયુક્ત આરબ અમીરાત",
	"United Kingdom": "યુનાઇટેડ કિંગડમ",
	"United States of America": "અમેરિકા યુનાઈટેડ સ્ટેટ્સ",
	"Units cut left edge can not be placed in the X:(Cut Pixel) positions.": "ડાબી બાજુ કાપેલા એકમોને X:(કટ પિક્સેલ) માં મૂકી શકાતી નથી.",
	"Units cut left edge can not be placed in the X:0 positions.": "ડાબી બાજુના કિનારાના કાપેલા  યુનિટને ડાબી બાજુએ X:0 માં મૂકી શકાતી નથી.",
	"Unsupported File type.": "અસમર્થિત ફાઇલ પ્રકાર.",
	"Unsupported File type. Only Image/Video files are allowed.": "અસમર્થિત ફાઇલ પ્રકાર. માત્ર છબી/વીડિયો ફાઇલ્સની જ મંજૂરી છે.",
	"Update": "અપડેટ",
	"Update Failed": "અપડેટ નિષ્ફળ થયી",
	"Update LED FPGA micom with xxx done": "xxx પૂરું કરવા સાથે LED FPGA મિકૉમ અપડેટ કરો",
	"Update LED FPGA with xxx done": "xxx પૂરું કરવા સાથે LED FPGA અપડેટ કરો",
	"Update Progress": "અપડેટ પ્રગતિ",
	"Update Succeeded": "અદ્યતન સફળ",
	"Update completed. Set is rebooting now.": "અપડેટ પૂર્ણ થયું. સેટ હવે રીબુટ થઈ રહ્યું છે",
	"Update completed. Signage is rebooting now.": "અપડેટ પૂર્ણ થયું. સાઈનેજ હવે રીબૂટ થાય છે.",
	"Update fan micom with this S/W Update file?": "આ સોફ્ટવેર અપડેટ કરેલ ફાઇલ સાથે ફૅન micom અપડેટ કરીએ?",
	"Update fan micom with xxx done": "xxx પૂરું કરવા સાથે ફૅન મિકૉમ અપડેટ કરો",
	"Update?": "અપડેટ",
	"Updating…": "અપડેટ થાય છે…",
	"Upgrade Complete": "અપગ્રેડ પૂર્ણ",
	"Upload": "અપલોડ કરો",
	"Upload FPGA Update file (XXX GB available)": "FPGA ફાઇલ ઉપલોડ કરો (XXX GB ઉપલબ્ધ છે)",
	"Upload LED FPGA update file": "LED FPGA અપડેટ ફાઇલ અપલોડ કરો",
	"Upload secured S/W Update file": "સુરક્ષિત કરેલ S/W અપડેટ ફાઇલ અપલોડ કરો",
	"Upload secured S/W Update file (XXX GB available)": "સુરક્ષિત કરેલ S/W અપડેટ ફાઇલ (XXX GB ઉપલબ્ધ) અપલોડ કરો",
	"Uploading": "અપલોડ થઈ રહ્યું છે",
	"Uruguay": "ઉરુગ્વે",
	"User": "વપરાશકર્તા",
	"User Name": "વપરાશકર્તા નામ",
	"Uzbekistan": "ઉઝબેકિસ્તાન",
	"Uzhhorod": "ઉઝ્હ્હોરોડ",
	"V Sharpness": "વી તીક્ષ્ણતા",
	"Vaduz": "વાદુઝ",
	"Validation error. The new password and the confirm password do not match.": "માન્યતા ભૂલ. નવો પાસવર્ડ અને પુષ્ટિ પાસવર્ડ મેળ ખાતો નથી.",
	"Vancouver": "વાનકુવર",
	"Vatican City": "વેટિકન સિટી",
	"Venezuela": "વેનેઝુએલા",
	"Ver": "સંસ્કરણ",
	"Version": "વર્ઝન",
	"Vertical": "વર્ટિકલ",
	"Video": "વિડિઓ",
	"Video Scaler": "વીડિયો સ્કેલર",
	"Vienna": "વિયેના",
	"Vientiane": "વિયેટિએન",
	"Vietnam": "વિયેટનામ",
	"Vilnius": "વિલ્નીયસ",
	"Virtual Controller": "વર્ચ્યુઅલ કંટ્રોલર",
	"Vivid": "ચમક",
	"Vladivostok": "વ્લૅડિવૉસ્ટૉક",
	"Volgograd": "વોલ્ગગ્રૅડ",
	"Volume": "વોલ્યુંમ",
	"Waiting for Approval": "મંજૂરીની પ્રતીક્ષા કરવામાં આવે છે",
	"Warm": "હૂંફાળું",
	"Warsaw": "વોર્સો",
	"Wed": "બુધવાર",
	"Wednesday": "બુધવાર",
	"Week": "સપ્તાહ",
	"Welcome to LG WebOS": "LG WebOS માં સ્વાગત છે",
	"Width": "પહોળાઈ",
	"Windhoek": "વિનઢોક",
	"Winnipeg": "વિનિપગ",
	"Wired": "વાઈર્ડ",
	"Working": "કાર્યરત",
	"X Units": "X એકમો",
	"XX GB free of XXGB": "XX GBનો XX GB ખાલી",
	"XX of YY": "YY નું XX",
	"Yakutsk": "યાકુત્સક",
	"Yamoussoukro": "યામૌસોયુક્રો",
	"Yangon": "યાંગોન",
	"Year": "વર્ષ",
	"Yekaterinburg": "યેકાતેરીન્બુર્ગ",
	"Yellowknife": "યેલ્લોવ્ક્નીફે",
	"Yemen": "યેમેન",
	"Yerevan": "યેરેવન",
	"Yes": "હા",
	"You changed IP address or DHCP status. Please reconnect to changed IP address": "તમે IP સરનામું અથવા DHCP સ્થિતિ બદલી છે. બદલેલ IP સરનામા સાથે કૃપા કરી પુનઃકનેક્ટ કરો",
	"You have failed to login 1/5 time.": "તમે 1/5 વાર લૉગિન કરવામાં નિષ્ફળ થયા.",
	"You have failed to login 5 times. Please try again after {time}.": "તમે 5 વાર લૉગિન કરવામાં નિષ્ફળ થયા. કૃપા કરી {time} પછી ફરી પ્રયાસ કરો.",
	"You may not be able to reconnect to web pages if you cannot find out new IP address.": "જો તમે નવું IP સરનામું નહીં શોધી શકો તો તમે વેબ પૃષ્ઠો સાથે પુનઃકનેક્ટ નહીં કરી શકો.",
	"You've entered the same password as the current one. Please enter a different password.": "તમે વર્તમાન તરીકે સમાન પાસવર્ડ દાખલ કર્યો છે. કૃપા કરીને અન્ય પાસવર્ડ દાખલ કરો.",
	"Your Password has been changed.": "તમારું પાસવર્ડ બદલવામાં આવ્યું.",
	"Zagreb": "ઝાગ્રેબ",
	"Zambia": "ઝામ્બિયા",
	"Zaporozhye": "ઝાપોરોઝ્હ્યે",
	"Zimbabwe": "ઝિમ્બાબ્વે",
	"Zoom": "ઝુમ",
	"Zoom In": "ઝૂમ ઇન",
	"Zoom In/Out": "ઝુમ ઇન/ આઉટ",
	"Zoom Out": "ઝૂમ આઉટ",
	"Zürich": "ઝુરીચ",
	"align": "રેખાંકિત",
	"available": "ઉપલબ્ધ",
	"color": "રંગ",
	"details": "વિગતો",
	"full aspect ratio": "સંપૂર્ણ સાપેક્ષ ગુણોત્તર",
	"general": "જનરલ",
	"hour": "કલાક",
	"last": "છેલ્લું",
	"min": "મિનિટ",
	"original aspect ratio": "મૂળ સાપેક્ષ ગુણોત્તર",
	"prev Day(prev DAY)": "આગલા દિવસ",
	"property": "મિલકત",
	"reading": "વાંચન",
	"save as PC Time": "PC સમય તરીકે સાચવો",
	"sharpness": "તીક્ષ્ણતા",
	"upload": "અપલોડ કરો",
	"version": "સંસ્કરણ",
	"warning": "ચેતવણી",
	"webOS Version": "webOS આવૃત્તિ",
	"year": "વર્ષ",
	"{apptitle} will be deleted.": "{apptitle} કાઢી નાખવામાં આવશે.",
	"{{filename}} already exists.": "{{filename}} પહેલાંથી જ મોજૂદ છે."
}
