{
	"(30,60,120,180) Min": "（30、60、120、180）分钟",
	"10 sec Auto Refresh": "10 秒自动刷新",
	"10Min": "10 分钟",
	"15Min": "15 分钟",
	"1Hour": "1 小时",
	"1st": "第一",
	"2nd": "第二",
	"30sec": "30 秒",
	"3rd": "第三",
	"4th": "第四",
	"5 min. Refresh": "5 分钟刷新",
	"5Min": "5 分钟",
	"AC Current": "交流电流",
	"ADD": "添加",
	"AM": "上午",
	"Abnormally High": "异常高",
	"Account": "账",
	"Accra": "阿克拉",
	"Adak": "艾德克",
	"Add": "添加",
	"Add Media": "添加媒体",
	"Add Mini Module": "添加迷你模块",
	"Add Sender": "添加发件人",
	"Add Slave Controller": "添加从控制器",
	"Add Unit": "添加装置",
	"Addis Ababa": "亚的斯亚贝巴",
	"Adelaide": "阿德莱德",
	"Aden": "亚丁",
	"Advanced Setting": "高级设置",
	"Afghanistan": "阿富汗",
	"Africa": "非洲",
	"Albania": "阿尔巴尼亚",
	"Algeria": "阿尔及利亚",
	"Algiers": "阿尔及尔",
	"All": "全部",
	"All Units": "所有装置",
	"All setting data will be deleted.": "所有设置数据将被删除。",
	"Almaty": "阿拉木图",
	"Amman": "安曼",
	"Amsterdam": "阿姆斯特丹",
	"An error occurred while submitting the form.": "提交表单时出现错误。",
	"Anadyr": "阿纳德尔",
	"Anchorage": "安克雷奇",
	"Angola": "安哥拉",
	"Antananarivo": "安塔那那利佛",
	"Apia": "阿皮亚",
	"Application Launch Mode": "应用程序启动模式",
	"Application Type": "应用程序类型",
	"Application Upgrade": "应用程序升级",
	"Applications will be upgraded from {text}": "应用程序将从 {text} 升级",
	"Apply": "应用",
	"Apply to All Units": "应用到所有装置",
	"Apply?": "是否应用？",
	"April": "四月",
	"Araguaína": "阿拉瓜伊纳",
	"Are you sure to change Settings?": "是否确定更改设置？",
	"Are you sure to change the calibration settings of this unit?": "是否确定要更改此装置的校准设置？",
	"Are you sure to reboot?": "是否确定重启？",
	"Are you sure to use": "是否确定使用",
	"Are you sure to use Wi-Fi DHCP?": "是否确定使用 Wi-Fi DHCP？",
	"Are you sure to use Wired DHCP?": "是否确定使用有线 DHCP？",
	"Are you sure you want to change type?": "是否确定要更改类型？",
	"Argentina": "阿根廷",
	"Armenia": "亚美尼亚",
	"Aruba": "阿鲁巴",
	"Ashgabat": "阿什哈巴德",
	"Asia": "亚洲",
	"Asmara": "阿斯马拉",
	"Aspect Ratio when rotated": "旋转时的画面比率",
	"Asunción": "亚松森",
	"Athens": "雅典",
	"Atikokan": "阿蒂科肯",
	"Auckland": "奥克兰",
	"August": "八月",
	"Australia": "澳大利亚",
	"Austria": "奥地利",
	"Auto": "自动",
	"Auto Detect": "自动检测",
	"Auto Refresh": "自动刷新",
	"Auto Set": "自动设置",
	"Available to Installation": "可用于安装",
	"Azerbaijan": "阿塞拜疆",
	"Azores": "亚述尔群岛",
	"BLU Status": "BLU 状态",
	"Back": "返回",
	"Backlight": "背光",
	"Backup Media Upload": "备份媒体上传",
	"Backup file Thumbnail Image": "备份文件缩略图",
	"Backup via storage": "通过存储设备备份",
	"Baghdad": "巴格达",
	"Bahamas": "巴哈马",
	"Bahrain": "巴林",
	"Baku": "巴库",
	"Bamako": "巴马科",
	"Bangkok": "曼谷",
	"Bangladesh": "孟加拉",
	"Bangui": "班吉",
	"Banjul": "班珠尔",
	"Barbados": "巴巴多斯",
	"Basic Setting": "基本设置",
	"Beijing": "北京",
	"Beirut": "贝鲁特",
	"Belarus": "白俄罗斯",
	"Belgium": "比利时",
	"Belgrade": "贝尔格莱德",
	"Belize": "伯利兹",
	"Belém": "贝莱姆",
	"Benin": "贝宁",
	"Berlin": "柏林",
	"Bermuda": "百慕大",
	"Bhutan": "不丹",
	"Bishkek": "比什凯克",
	"Bissau": "比绍",
	"Black Level": "黑电平",
	"Blanc-Sablon": "勃朗峰萨伯隆",
	"Blantyre": "布兰太尔",
	"Boa Vista": "博阿维斯塔",
	"Bogotá": "波哥大",
	"Bolivia": "玻利维亚",
	"Bootloader Version": "引导加载程序版本",
	"Bosnia": "波斯尼亚",
	"Both": "两者",
	"Botswana": "博茨瓦纳",
	"Bottom": "底部",
	"Bottom Left": "左下角",
	"Bottom Light": "右下角",
	"Bottom Right": "右下角",
	"Box Name": "盒名称",
	"Bratislava": "布拉迪斯拉发",
	"Brazil": "巴西",
	"Brazzaville": "布拉柴维尔",
	"Brightness": "亮度",
	"Brightness Scheduling": "亮度预约",
	"Brisbane": "布里斯班",
	"Browse": "浏览",
	"Browse a file to upload": "浏览要上传的文件",
	"Brussels": "布鲁塞尔",
	"Bucharest": "雅典",
	"Budapest": "布达佩斯",
	"Buenos Aires": "布宜诺斯艾利斯",
	"Bujumbura": "布琼布拉",
	"Bulgaria": "保加利亚",
	"Burkina Faso": "布基纳法索",
	"Burundi": "布隆迪",
	"CANCEL": "取消",
	"CIS": "独联体",
	"COLOR TRANSPARENT LED": "彩色透明 LED",
	"Cairo": "开罗",
	"Calibrate Unit": "校准装置",
	"Calibrated": "已校准",
	"Calibration": "校准",
	"Cambodia": "柬埔寨",
	"Cameroon": "喀麦隆",
	"Campo Grande": "大坎普",
	"Canada": "加拿大",
	"Canary Islands": "加那利群岛",
	"Cancel": "取消",
	"Cancún": "坎昆市",
	"Cannot connect to the USB": "无法连接到 USB",
	"Cannot start S/W update. Check xxx file please.": "无法启动 S/W 更新。请检查 xxx 文件。",
	"Cape Verde": "佛得角",
	"Capture time Interval": "捕获时间间隔",
	"Capture time interval": "Capture time interval",
	"Caracas": "加拉加斯",
	"Casablanca": "卡萨布兰卡",
	"Category": "类别",
	"Cayman Islands": "开曼群岛",
	"Central African Republic": "中非共和国",
	"Chad": "乍得",
	"Change Password": "更改密码",
	"Changing Time may cause you to be logged out.": "更改时间可能导致您被登出。",
	"Changing Time zone may cause you to be logged out.": "更改时区可能导致您被注销。",
	"Charts": "图表",
	"Check Temperature sensors. -40 means errors when reading Temperature sensors": "检查温度传感器。读取温度传感器时，-40 意味着错误",
	"Check for Update": "检查更新",
	"Check whether two passwords are same": "检查两次输入的密码是否相同",
	"Check your URL input": "检查您的 URL 输入",
	"CheckScreen": "检查屏幕",
	"Checking for update...": "正在检查更新...",
	"Chicago": "芝加哥",
	"Chihuahua": "奇瓦瓦",
	"Chile": "智利",
	"China": "中国",
	"Chisinau": "基希讷乌",
	"Christmas Island": "圣诞岛",
	"Cinema": "影院",
	"City": "城市",
	"Close": "关闭",
	"Closed": "已关闭",
	"Closed Loop Fan": "环形风扇已关闭",
	"ClosedLoop": "闭环",
	"Colombia": "哥伦比亚",
	"Colombo": "科伦坡",
	"Color": "色彩",
	"Color Temperature": "色温",
	"ColorRead": "颜色读取",
	"Column": "列",
	"Columns": "列",
	"Component": "分量",
	"Conakry": "科纳克里",
	"Confirm": "确认",
	"Confirm Account Number": "确认账号",
	"Confirm New Password": "确认新密码",
	"Confirm the account number you entered.": "确认您输入的账号。",
	"Connected": "已连接",
	"Content Rotation": "内容旋转",
	"Content Rotation Status": "内容旋转状态",
	"Content Rotation is ON": "内容旋转已开启",
	"Content is rotated": "内容已旋转",
	"Contents rotation is ON": "内容旋转已开启",
	"Continent": "洲",
	"Contrast": "对比度",
	"Control": "控制",
	"Control Item": "控制项目",
	"Control Manager": "控制管理器",
	"Control Type": "控制类型",
	"Cool": "冷色",
	"Copenhagen": "哥本哈根",
	"Costa Rica": "哥斯达黎加",
	"Country/Territory": "国家/地区",
	"Croatia": "克罗地亚",
	"Cuba": "古巴",
	"Cuiabá": "库亚巴",
	"Current": "电流",
	"Current Fan RPM": "当前的风扇 RPM",
	"Current Password": "当前密码",
	"Current Picture mode does not support changing color temperature. Please select \"Expert\" of \"Calibration\" mode to adjust the color temperature.": "当前画面模式不支持更改色温。请选择“校准”模式的“专家”以调节色温。",
	"Current Ver.": "当前版本",
	"Cut Bottom Edge": "裁切底部边缘",
	"Cut Edge": "裁剪边缘",
	"Cut Left Edge": "裁切左边缘",
	"Cut Right Edge": "裁切右边缘",
	"Cut Top Edge": "裁切顶部边缘",
	"Cyprus": "塞浦路斯",
	"Czech": "捷克语",
	"Côte d'Ivoire": "科特迪瓦",
	"DHCP State": "DHCP 状态",
	"DNS Server": "DNS 服务器",
	"DOWNLOAD LOG": "下载日志",
	"DOWNLOAD LOG FILE": "下载日志文件",
	"Daisy Direction": "菊花方向",
	"Daisy Start by": "菊花开始位置",
	"Dakar": "达喀尔",
	"Damascus": "大马士革",
	"Danmarkshavn": "丹麦港",
	"Darwin": "达尔文",
	"Dashboard": "仪表板",
	"Data is not collected now. wait for maximum 60 seconds": "现在未收集数据。最多等待 60 秒",
	"Date": "日期",
	"Dawson": "道森",
	"Dawson Creek": "道森克里克",
	"Day": "天",
	"Daylight Saving Time": "夏时制时间",
	"Days": "天",
	"December": "十二月",
	"Default": "默认",
	"Delete": "删除",
	"Delete All": "全部删除",
	"Delete Mini Module": "删除迷你模块",
	"Delete Slave Controller": "删除从控制器",
	"Delete Unit": "删除装置",
	"Delete?": "是否删除？",
	"Democratic Republic Of The Congo": "刚果民主共和国",
	"Denmark": "丹麦",
	"Denver": "丹佛",
	"Details of Unit": "装置详情",
	"Detroit": "底特律",
	"Device Control": "设备控制",
	"Dhaka": "达卡",
	"Digital Board Reboot": "数字板重启",
	"Dili": "帝力",
	"Disconnected": "已断开连接",
	"Display": "显示",
	"Display & Sound": "显示和声音",
	"Display & sound": "显示和声音",
	"Distance to main screen": "与主屏幕的距离",
	"Do not reboot in Device page.": "请勿在“设备”页重启。",
	"Do you want to delete all schedules?": "是否要删除所有预约？",
	"Do you want to delete the schedule?": "是否要删除该预约？",
	"Do you want to delete this LED FPGA Update file?": "是否删除该 LED FPGA 更新文件？",
	"Do you want to delete this S/W Update file?": "是否要删除此 S/W 更新文件？",
	"Do you want to install this S/W Update file?": "是否要安装此 S/W 更新文件？",
	"Do you want to proceed?": "是否要继续？",
	"Do you want to process?": "是否要处理？",
	"Do you want to set the time or date automatically?": "是否要自动设置时间或日期？",
	"Dodoma": "多多马",
	"Doha": "多哈",
	"Dominica": "多米尼加",
	"Dominican Republic": "多米尼加共和国",
	"Done": "完成",
	"Door": "开门",
	"Door Control": "门控制",
	"Door Monitor": "门监视器",
	"Door Open": "门打开",
	"Door Sensor": "门感应器",
	"Door Sensor Status": "门传感器状态",
	"Door xxx is opened": "门 xxx 已打开",
	"Douala": "杜阿拉",
	"Download failed, try again.": "下载失败，请重试。",
	"Draw": "绘制",
	"Dubai": "迪拜",
	"Dublin": "都柏林",
	"Duplicated Unit ID": "装置 ID 重复",
	"Duration": "时长",
	"Dushanbe": "杜尚别",
	"Dynamic Brightness": "动态亮度",
	"Dynamic Brightness Control": "动态亮度控制",
	"Easter Island": "复活岛",
	"Ecuador": "厄瓜多尔",
	"Edit": "编辑",
	"Edmonton": "埃德蒙顿",
	"Egypt": "埃及",
	"El Salvador": "萨尔瓦多",
	"Enable or disable Signage 365 Care services on this device": "在该设备上启用或禁用“显示器 365 天关怀服务”",
	"End": "结束",
	"End Time": "结束时间",
	"Energy Saving": "节能模式",
	"Enter Account Number": "输入账号",
	"Enter the account number to activate Signage 365 Care.": "输入账号以激活“显示器 365 天关怀”。",
	"Equatorial Guinea": "赤道几内亚",
	"Eritrea": "厄立特里亚",
	"Error": "错误",
	"Estonia": "爱沙尼亚",
	"Ethiopia": "埃塞俄比亚",
	"Europe": "欧洲",
	"Event": "事件",
	"Exit": "退出",
	"Expert": "专家",
	"Export": "导出",
	"External": "外部",
	"External Input Rotation is ON": "外部输入旋转已打开",
	"EyeQ sensor": "EyeQ 传感器",
	"FPGA Version": "FPGA 版本",
	"Factory Reset": "恢复出厂设置",
	"Fail": "失败",
	"Fail Over": "故障恢复",
	"Fail to update. Check xxx file please.": "无法更新。请检查 xxx 文件。",
	"Failed to update LED FPGA with xxx. Check the file please": "无法使用 xxx 更新风扇 LED FPGA。请检查文件",
	"Failed to update LED FPGA with xxx. Check the status of the unit controller.": "无法使用 xxx 更新 LED FPGA。查看单元控制器的状态。",
	"Failed to update fan micom with xxx. Check the file please": "无法使用 xxx 更新风扇 micom。请检查文件",
	"Failed, try again.": "失败，请重试。",
	"Fan": "风扇",
	"Fan Micom S/W Updating": "风扇 Micom S/W 更新",
	"Fan Micom Update?": "是否更新风扇 Micom？",
	"Fan Micom Version": "风扇 Micom 版本",
	"Fan RPM": "风扇 RPM",
	"Fan RPM history is not yet collected": "尚未收集风扇 RPM 历史记录",
	"Fan Status": "风扇状态",
	"February": "二月",
	"Fernando de Noronha": "费尔南多迪诺罗尼亚",
	"Fiji": "斐济",
	"File Name": "文件名",
	"File Select": "文件选择",
	"File Upload Progress": "文件上传进度",
	"File upload via mobile devices does not support.": "不支持通过手机设备上传文件。",
	"Filter": "筛选",
	"Finland": "芬兰",
	"First Use": "初次使用",
	"Flash memory is not enough.": "闪存空间不足。",
	"For your security, you must change the default password.": "出于安全考虑，必须更改默认密码。",
	"Fortaleza": "福塔雷萨",
	"Frame": "框架",
	"France": "法国",
	"Freetown": "弗里敦",
	"French Polynesia": "法属玻利尼西亚",
	"Fri": "星期五",
	"Friday": "星期五",
	"Full": "完整",
	"Fully Qualified Domain Name": "完全限定域名",
	"Gabon": "加蓬",
	"Gaborone": "哈博罗内",
	"Gambia": "冈比亚",
	"Gambier": "甘比尔",
	"Game": "游戏",
	"Gamut Matrix": "色域矩阵",
	"Gateway": "网关",
	"Georgia": "佐治亚州",
	"Germany": "德国",
	"Ghana": "加纳",
	"Gibraltar": "直布罗陀",
	"Glace Bay": "格莱斯贝",
	"Go To First Use": "前往“首次使用”",
	"Godthab": "戈德霍普",
	"Greece": "希腊",
	"Greenland": "格陵兰",
	"Guadalcanal": "瓜达尔卡纳尔",
	"Guadeloupe": "瓜德罗普岛",
	"Guam": "关岛",
	"Guatemala": "危地马拉",
	"Guatemala City": "危地马拉",
	"Guayaquil": "瓜亚基尔",
	"Guernsey": "根西",
	"Guinea": "几内亚",
	"Guinea Bissau": "几内亚比绍",
	"Guyana": "圭亚那",
	"H Sharpness": "水平清晰度",
	"Haiti": "海地",
	"Halifax": "哈利法克斯",
	"Harare": "哈拉雷",
	"Havana": "哈瓦那",
	"Height": "高度",
	"Helsinki": "赫尔辛基",
	"Hermosillo": "埃莫西约",
	"High": "高",
	"High1": "高 1",
	"High2": "高 2",
	"History is not yet collected": "尚未收集历史记录",
	"Ho Chi Minh": "胡志明",
	"Hobart": "霍巴特",
	"Home": "家用",
	"Honduras": "洪都拉斯",
	"Hong Kong": "中国香港特别行政区",
	"Honolulu": "火奴鲁鲁",
	"Horizontal": "水平",
	"Hour": "时",
	"Hours": "小时",
	"Humidity": "湿度",
	"Hungary": "匈牙利",
	"IP Address": "IP 地址",
	"Iceland": "冰岛",
	"If the pitch is changed, all of the configuration settings are initialized.": "如果更改了提案，则所有配置设置都会被初始化。",
	"Image": "图像",
	"Impact": "撞击",
	"Incorrect Password entered. Please try again.": "输入的密码不正确。请重试。",
	"India": "印度",
	"Indianapolis": "印第安纳波利斯",
	"Indonesia": "印度尼西亚",
	"Information": "信息",
	"Input": "输入",
	"Input 6 or more characters": "输入 6 个或以上字符",
	"Input Direction": "输入方向",
	"Input Password": "输入密码",
	"Input Priority": "输入优先级",
	"Input Priority Setting": "输入优先级设置",
	"Input Signage Name please.": "请输入显示器名称。",
	"Input Window": "输入窗口",
	"Install": "安装",
	"Install Failed.": "安装失败。",
	"Install Succeeded": "安装成功",
	"Installation Failed": "安装已失败",
	"Installation Menu": "安装菜单",
	"Installing…": "正在安装…",
	"Internet Not available": "互联网不可用",
	"Internet available": "互联网可用",
	"Invalid day value": "无效日值",
	"Invalid hour value": "无效小时值",
	"Invalid minute value": "无效分钟值",
	"Invalid month value": "无效月值",
	"Invalid new password. The password must be at least 8 characters.": "新密码无效。密码必须至少为 8 个字符。",
	"Invalid new password. You must use a mixture of characters, numbers and special characters.": "新密码无效。必须混合使用字符、数字和特殊字符。",
	"Invalid schedule.": "无效预约。",
	"Invalid value": "无效值",
	"Invalid year value": "无效年值",
	"Iran": "伊朗",
	"Iraq": "伊拉克",
	"Ireland": "爱尔兰",
	"Irkutsk": "伊尔库次克",
	"Irregular": "不规则",
	"Israel": "以色列",
	"Issue History": "问题历史记录",
	"Istanbul": "伊斯坦布尔",
	"Italy": "意大利",
	"Jakarta": "雅加达",
	"Jamaica": "牙买加",
	"January": "一月",
	"Japan": "日本",
	"Jerusalem": "耶路撒冷",
	"Johannesburg": "约翰内斯堡",
	"Jordan": "约旦",
	"July": "七月",
	"June": "六月",
	"Kabul": "喀布尔",
	"Kaliningrad": "加里宁格勒",
	"Kamchatka": "堪察加",
	"Kampala": "坎帕拉",
	"Karachi": "卡拉奇",
	"Katmandu": "加德满都",
	"Kazakhstan": "哈萨克斯坦",
	"Kenya": "肯尼亚",
	"Khartoum": "喀土穆",
	"Khovd": "科布多",
	"Kiev": "基辅",
	"Kigali": "基加利",
	"Kingston": "金斯敦",
	"Kinshasa": "金沙萨",
	"Kiribati": "基里巴斯",
	"Kiritimati": "圣诞岛",
	"Kolkata": "加尔各答",
	"Korea": "韩国",
	"Korea, Republic of": "韩国",
	"Krasnoyarsk": "克拉斯诺亚尔斯克",
	"Kuala Lumpur": "吉隆坡",
	"Kuching": "古晋",
	"Kuwait": "科威特",
	"Kuwait City": "科威特",
	"Kyrgyzstan": "吉尔吉斯斯坦",
	"LED FPGA Update file list": "LED FPGA 更新文件列表",
	"LED FPGA Updating ......": "正在更新 LED FPGA ......",
	"LED Features": "LED 功能",
	"LED Film Settings": "LED 胶片设置",
	"LED Open Detection": "LED 打开检测",
	"LED Settings": "LED 设置",
	"LED Unit": "LED显示模块",
	"LED Unit Status": "LED 装置状态",
	"LG Control Manager": "LG 控制管理器",
	"La Paz": "拉巴斯",
	"Lagos": "拉戈斯",
	"Landscape": "风景",
	"Language": "语言",
	"Laos": "老挝",
	"Large": "大",
	"Last": "最后",
	"Latvia": "拉脱维亚",
	"Layout": "布局",
	"Layout Editor": "布局编辑器",
	"Lebanon": "黎巴嫩",
	"Left": "左",
	"Left Port": "左端口",
	"Lesotho": "莱索托",
	"Liberia": "利比里亚",
	"Libreville": "利伯维尔",
	"Libya": "利比亚",
	"Liechtenstein": "列支敦士登",
	"Lima": "利马",
	"Lisbon": "里斯本",
	"Lithuania": "立陶宛",
	"Ljubljana": "卢布尔雅那",
	"Loading": "加载",
	"Loading…": "正在加载…",
	"Local": "本地",
	"Local Application Upgrade": "本地应用程序升级",
	"Location": "位置",
	"Log": "日志",
	"Log Report": "日志报告",
	"Log after Power Up": "开机后日志记录",
	"Login": "登录",
	"Login is required.": "需要登录。",
	"Logout": "登出",
	"Lome": "洛美",
	"London": "伦敦",
	"Los Angeles": "洛杉矶",
	"Louisville": "路易斯维尔",
	"Low": "低",
	"Luanda": "罗安达",
	"Lubumbashi": "卢本巴希",
	"Lusaka": "卢萨卡",
	"Luxembourg": "卢森堡",
	"MAC Address": "MAC 地址",
	"MONO": "单色",
	"MONO TRANSPARENT LED": "单色透明 LED",
	"Macao": "澳门",
	"Macedonia": "马其顿",
	"Maceió": "马塞约贸 ",
	"Madagascar": "马达加斯加",
	"Madeira": "马德拉",
	"Madrid": "马德里",
	"Magadan": "马加丹",
	"Main": "主要",
	"Malabo": "马拉博",
	"Malawi": "马拉维",
	"Malaysia": "马来西亚",
	"Maldives": "马尔代夫",
	"Mali": "马里",
	"Malta": "马耳他",
	"Manage": "管理",
	"Managua": "马那瓜",
	"Manaus": "马瑙斯",
	"Manila": "马尼拉",
	"Manual": "手动",
	"Maputo": "马普托",
	"March": "三月",
	"Marquesas": "玛贵斯",
	"Marshall Islands": "马绍尔群岛",
	"Martinique": "马提尼克",
	"Maseru": "马塞卢",
	"Master": "主",
	"Mauritius": "毛里求斯",
	"Max Backlight": "最大背光",
	"Maximum": "最大值",
	"May": "五月",
	"Mayotte": "马约特",
	"Mazatlán": "马萨特兰",
	"Mbabane": "姆巴巴纳",
	"Media": "媒体",
	"Media Library": "媒体库",
	"Media file List": "媒体文件列表",
	"Media file Upload (XXX GB available)": "媒体文件上传（XXX GB 可用）",
	"Medium": "中",
	"Melbourne": "墨尔本",
	"Menu Language": "菜单语言",
	"Mexico": "墨西哥",
	"Mexico City": "墨西哥市",
	"Micom Progress": "Micom 进度",
	"Micom Update": "Micom 更新",
	"Micom Version": "Micom 版本",
	"Middle East": "中东",
	"Min Backlight": "最小背光",
	"Mini Module": "迷你模块",
	"Minimum": "最小值",
	"Mins": "分钟",
	"Minsk": "明斯克",
	"Model Name": "型号名称",
	"Module Calibration": "模块校准",
	"Module Calibration is modified. Exit without saving?": "模块校准已修改。退出但不保存？",
	"Module Size": "模块大小",
	"Modules": "模块",
	"Mogadishu": "摩加迪沙",
	"Moldova": "摩尔多瓦",
	"Mon": "星期一",
	"Monaco": "摩纳哥",
	"Moncton": "蒙克顿",
	"Monday": "星期一",
	"Mongolia": "蒙古",
	"Mono": "单色",
	"Monrovia": "蒙罗维亚",
	"Montenegro": "黑山",
	"Monterrey": "蒙特雷",
	"Montevideo": "蒙得维的亚",
	"Month": "月",
	"Montréal": "蒙特利尔",
	"More": "更多",
	"Morocco": "摩洛哥",
	"Moscow": "莫斯科",
	"Mozambique": "莫桑比克",
	"Muscat": "马斯喀特",
	"Mute": "静音",
	"Myanmar": "缅甸",
	"Mérida": "梅里达",
	"NG": "异常",
	"NOT AVAILABLE": "不可用",
	"Nairobi": "奈洛比",
	"Name": "名称",
	"Namibia": "纳米比亚",
	"Nassau": "拿骚",
	"Natural Mode": "自然模式",
	"Natural Size": "自然尺寸",
	"Ndjamena": "恩贾梅纳",
	"Nepal": "尼泊尔",
	"Netherlands": "荷兰",
	"Network": "网络",
	"Network Settings": "网络设置",
	"New Caledonia": "新喀里多尼亚",
	"New Password": "新密码",
	"New York": "纽约",
	"New Zealand": "新西兰",
	"Newer Ver.": "较新版本",
	"Next": "下一个",
	"Next Day": "次日",
	"Niamey": "尼亚美",
	"Nicaragua": "尼加拉瓜",
	"Nicosia": "尼科西亚",
	"Niger": "尼日尔",
	"Nigeria": "尼日利亚",
	"Nipigon": "尼皮贡",
	"No": "否",
	"No Signal": "无信号",
	"No backup files exist in storage device.": "存储设备中不存在备份文件。",
	"None": "无",
	"Normal": "正常",
	"North America": "北美",
	"North Korea": "北朝鲜",
	"Norway": "挪威",
	"Not Connected": "未连接",
	"Nouméa": "努美阿",
	"November": "十一月",
	"Novosibirsk": "新西伯利亚",
	"Number": "编号",
	"OK": "确定",
	"OLED LIGHT": "OLED 光",
	"OLED Light": "OLED 光",
	"OSD Portrait Mode": "OSD 竖置模式",
	"OSD Portrait Mode is ON": "OSD：纵向模式已开启",
	"OSD Portrait Status": "OSD 纵向状态",
	"OSD Portrait mode is xxx": "OSD 纵向模式为 xxx",
	"OSD Rotation is ON": "OSD 旋转已开启",
	"OVERWRITE": "覆盖",
	"Occurrence Time": "发生时间",
	"Oceania": "大洋洲",
	"October": "十月",
	"Off": "关闭",
	"Off Until Reset": "关闭直至重置",
	"Off When Open": "打开时关闭",
	"Oman": "阿曼",
	"Omsk": "鄂木斯克",
	"On": "打开",
	"On When Open": "打开时开启",
	"Open Loop Fan": "环形风扇已打开",
	"OpenLoop": "开环",
	"Opened": "已打开",
	"Oranjestad": "奥拉涅斯塔德",
	"Original": "原始",
	"Oslo": "奥斯陆",
	"Ouagadougou": "瓦加杜古",
	"Output Window": "输出窗口",
	"OverHeat": "过热",
	"Overwrite": "覆盖",
	"Overwrite xxx?": "是否覆盖 xxx？",
	"Overwrite?": "是否覆盖？",
	"PM": "下午",
	"PM Mode": "PM 模式",
	"Pacific": "太平洋",
	"Pakistan": "巴基斯坦",
	"Palau": "帕劳",
	"Panama": "巴拿马",
	"Panama City": "巴拿马城",
	"Panel": "画面",
	"Papua New Guinea": "巴布亚新几内亚",
	"Paraguay": "巴拉圭",
	"Paramaribo": "帕拉马里博",
	"Paris": "巴黎",
	"Password": "密码",
	"Password is incorrect. Please Try Again": "密码错误。请重试",
	"Password is incorrect. Please try again.": "密码错误。请重试。",
	"Perth": "珀斯",
	"Peru": "秘鲁",
	"Philippines": "菲律宾",
	"Phnom Penh": "金边",
	"Phoenix": "菲尼克斯",
	"Physical Layout": "物理布局",
	"Picture": "画面",
	"Picture Mode": "画面模式",
	"Picture Settings": "画面设置",
	"Pitch": "提案",
	"Pixel Pitch": "像素间距",
	"Play": "播放",
	"Play via URL": "通过 URL 播放",
	"Please Keep this Signage on.": "请保持显示器为打开状态。",
	"Please check the installation file and try again.": "请检查安装文件，然后重试。",
	"Please check the schedule again.": "请重新检查预约。",
	"Please choose a file to upload": "请选择要上传的文件",
	"Please choose a video file to upload": "请选择要上传的视频文件",
	"Please don't turn off the device and wait until the installation is completed.": "请勿关闭设备，并等待安装完成。",
	"Please login again.": "请重新登录。",
	"Please select city": "请选择城市",
	"Please select country": "请选择国家/地区",
	"Please upload S/W update file via PC browser.": "通过 PC 浏览器上传 S/W 更新文件。",
	"Podgorica": "波德戈里察",
	"Poland": "波兰",
	"Port": "端口",
	"Port Louis": "路易港",
	"Port Moresby": "莫尔兹比港",
	"Port Number": "端口号",
	"Port Selection": "端口选择",
	"Port Settings": "端口设置",
	"Port of Spain": "西班牙港",
	"Port-au-Prince": "太子港",
	"Porto Novo": "波多诺伏",
	"Porto Velho": "波多韦柳",
	"Portrait": "纵向",
	"Portrait Mode": "纵向模式",
	"Portugal": "葡萄牙",
	"Position": "位置",
	"Power": "电源",
	"Power Off": "电源关闭",
	"Power Off Management": "关机管理",
	"Power Off(Default)": "关机（默认）",
	"Prague": "布拉格",
	"Praia": "普拉亚",
	"Prev DAY": "前一日",
	"Prev.": "上一个",
	"Preview": "预览",
	"Priority": "优先级",
	"Property": "属性",
	"Proxy": "代理",
	"Puerto Rico": "波多黎各",
	"Pyongyang": "平壤",
	"Qatar": "卡塔尔",
	"REMOTE": "远程",
	"REMOVE": "移除",
	"RESET": "重置",
	"Rainy River": "雷尼里弗",
	"Rearrange": "重新安排",
	"Reboot": "重启",
	"Reboot?": "是否重启？",
	"Rebooting": "正在重启",
	"Recife": "累西腓",
	"Reference Resolution": "参考分辨率",
	"Refresh": "刷新",
	"Regina": "雷日纳",
	"Regular": "规则",
	"Rejected": "已拒绝",
	"Remote": "远程",
	"Rename": "重命名",
	"Rename or Overwrite?": "重命名还是覆盖？",
	"Rename to {{filename (2)}} or Overwrite?": "重命名为 {{filename (2)}} 还是覆盖？",
	"Republic Of The Congo": "刚果民主共和国",
	"Require Network Settings": "需要进行网络设置",
	"Reset": "重置",
	"Reset All": "全部重置",
	"Reset Mute": "重置静音",
	"Reset Mute' is Needed": "需要重置静音",
	"Resolution": "分辨率",
	"Reykjavik": "雷克雅末克",
	"Riga": "里加",
	"Right": "右",
	"Right Port": "右端口",
	"Riyadh": "利雅得",
	"Romania": "罗马尼亚",
	"Rome": "罗马",
	"Row": "行",
	"Rows": "行",
	"Rows per Page": "每页行数",
	"Run Time": "运行时间",
	"Run Time Since Last Power Up": "自上次开机后的运行时间",
	"Russia": "俄罗斯",
	"Rwanda": "卢旺达",
	"S/W Update": "S/W 更新",
	"S/W Update File list": "S/W 更新文件列表",
	"S/W Update file list": "S/W 更新文件列表",
	"S/W Updating": "S/W 正在更新",
	"S/W Updating......": "正在更新 S/W ......",
	"S/W Ver.": "S/W 版本",
	"S/W update file does not exist.": "S/W 更新文件不存在。",
	"SCREEN": "屏幕",
	"SELECT TRANSPARENT LED TYPE": "选择透明 LED 类型",
	"SETTING": "设置",
	"SI App / Play via URL": "SI App / 通过 URL 播放",
	"SI Server IP": "SI 服务器 IP",
	"Saint Lucia": "圣卢西亚",
	"Sakhalin": "库页岛",
	"Samara": "萨马拉",
	"Samarkand": "撒马尔罕",
	"Samoa": "萨摩亚",
	"San Salvador": "圣萨尔瓦多",
	"Santiago": "圣地亚哥",
	"Santo Domingo": "圣多明各",
	"Sarajevo": "萨拉热窝",
	"Sat": "星期六",
	"Saturday": "星期六",
	"Saudi Arabia": "沙特阿拉伯",
	"Save": "保存",
	"Save as PC Time": "另存为 PC 时间",
	"Schedule Time": "预约时间",
	"Scoresbysund": "斯科斯比松",
	"Screen": "屏幕",
	"Screen Configuration": "屏幕配置",
	"Screen Fault Detection": "屏幕故障检测",
	"Screen OFF & Backlight(Outdoor Mode)": "屏幕关闭和背光（室外模式）",
	"Screen Off": "关闭屏幕",
	"Screen Off & Backlight": "屏幕关闭和背光",
	"Screen Off & Backlight On": "屏幕关闭和背光打开",
	"Screen Off Always": "始终关闭屏幕",
	"Screen Power Off": "屏幕关闭",
	"Screen Rotation is ON": "屏幕旋转已打开",
	"ScreenOn": "屏幕开启",
	"Secure Connection": "安全连接",
	"Select File": "选择文件",
	"Select Input Source": "选择输入源",
	"Select LED Film Pitch": "选择 LED 电影提案",
	"Select a file to upload": "选择要上传的设备",
	"Select media file": "选择媒体文件",
	"Select the type of transparent LED Signage you installed. You can also change the type in [Control] Tab.": "选择已安装的透明 LED 显示器类型。您还可以更改 [控制] 选项卡中的类型。",
	"Sender": "发件人",
	"Sender Position": "发件人位置",
	"Sender Resolution": "发件人分辨率",
	"Senegal": "塞内加尔",
	"Sensor": "传感器",
	"Seoul": "首尔",
	"September": "九月",
	"Serbia": "塞尔维亚",
	"Serial Number": "序列号",
	"Server": "服务器",
	"Server Status": "服务器 状态",
	"Set": "设置",
	"Set Automatically": "自动设置",
	"Set ID": "设置 ID",
	"Set Master": "设置主控制器",
	"Set Slave": "设置从控制器",
	"Set URL": "设置 URL",
	"Setting": "设置",
	"Sharpness": "清晰度",
	"Show Color": "显示颜色",
	"Sierra Leone": "塞拉利昂",
	"Sigane Name is Too Long": "显示器名称过长",
	"Signage 365 Care": "显示器 365 天关怀",
	"Signage 365 Care App": "“显示器 365 天关怀”应用",
	"Signage Name": "显示器名称",
	"Signal": "信号",
	"Simferopol": "辛菲罗波尔",
	"Since Last Power Up": "自上次开机后",
	"Singapore": "新加坡",
	"Size": "大小",
	"Skopje": "斯科普里",
	"Slave": "从",
	"Slovakia": "斯洛伐克",
	"Slovenia": "斯洛文尼亚",
	"Small": "小",
	"Sofia": "索非亚",
	"Software Version": "软件版本",
	"Solomon Islands": "所罗门群岛",
	"Somalia": "索马里",
	"Sound Control": "声音控制",
	"South Africa": "南非",
	"South America": "南非",
	"Spain": "西班牙",
	"Sports": "运动",
	"Srednekolymsk": "中科雷姆斯克",
	"Sri Lanka": "斯里兰卡",
	"St. John's": "圣约翰",
	"Standard": "标准",
	"Start": "开始",
	"Start Time": "开始时间",
	"State": "省/自治区/直辖市",
	"Status": "状态",
	"Stockholm": "斯德哥尔摩",
	"Storage": "存储",
	"Subnet Mask": "子网掩码",
	"Subnet prefix length": "子网前缀长度",
	"Success": "成功",
	"Sudan": "苏丹",
	"Sun": "星期日",
	"Sunday": "星期日",
	"SuperSign Content": "SuperSign 内容",
	"SuperSign Contents": "SuperSign 内容",
	"Suriname": "苏里南",
	"Sustain Aspect Ratio": "保持画面比率",
	"Swaziland": "斯威士兰",
	"Sweden": "瑞典",
	"Swift Current": "斯威夫特卡伦特",
	"Switzerland": "瑞士",
	"Sydney": "悉尼",
	"Syria": "叙利亚",
	"System Box": "系统盒",
	"System Control": "系统控制",
	"System Controller": "系统控制器",
	"System Information": "系统信息",
	"System Settings": "系统设置",
	"São Paulo": "圣保罗",
	"Tahiti": "塔希提岛",
	"Taipei": "台北",
	"Taiwan": "中国台湾",
	"Tajikistan": "塔吉克斯坦",
	"Tallinn": "塔林",
	"Tanzania": "坦桑尼亚",
	"Tashkent": "塔什干",
	"Tbilisi": "第比利斯",
	"Tegucigalpa": "特古西加尔巴",
	"Tehran": "德黑兰",
	"Temperature": "温度",
	"Temperature Unit": "温度单位",
	"Temperature history is not yet collected": "尚未收集温度历史记录",
	"Test Color": "测试颜色",
	"Test Pattern": "测试模式",
	"Test Pattern On": "打开测试模式",
	"Thailand": "泰国",
	"The POWER remote controller key will not work during the update.": "“POWER”遥控器键在更新期间将不工作。",
	"The Signage 365 care app has been deleted.": "Signage 365 Care 应用已删除。",
	"The Signage 365 care app has been successfully installed.": "Signage 365 Care 应用已安装成功。",
	"The Signage 365 care app has been successfully updated.": "Signage 365 Care 应用已更新成功。",
	"The URL format is invalid.": "URL 格式无效。",
	"The installation of the Signage 365 care app has failed.": "Signage 365 Care 应用已安装失败。",
	"The installation of the Signage 365 care app is in progress.": "Signage 365 Care 应用正在安装。",
	"The same file name already exists.": "已存在同名文件。",
	"The update of the Signage 365 care app has failed.": "Signage 365 Care 应用已更新失败。",
	"The update of the Signage 365 care app is in progress.": "Signage 365 Care 应用正在更新。",
	"There is a difference between your signage and the signage 365 care server in time and date.": "您的显示器与显示器 365 天关怀服务器在时间和日期上有所不同。",
	"There is no list.": "无列表。",
	"There's No Backup file": "无备份文件",
	"Thimphu": "廷布",
	"This pop up will be closed automatically in 5 sec.": "该弹出窗口将在 5 秒后自动关闭。",
	"Thu": "星期四",
	"Thule": "图勒",
	"Thursday": "星期四",
	"Tijuana": "提华纳",
	"Tile ID": "拼接ID",
	"Tile Mode": "拼接模式",
	"Tile Mode Setting": "Tile Mode Setting",
	"Tile Mode Settings": "磁贴模式设置",
	"Time": "时间",
	"Time & Date": "时间和日期",
	"Time Setting": "时间设置",
	"Time Zone": "时区",
	"Timor-Leste": "东帝汶",
	"Tint": "色调",
	"Tiranë": "地拉那",
	"To choose an AP, please use Settings App. with a remote controller.": "要选择 AP，请通过遥控器使用设置应用。",
	"To make your password more secure, use a mixture of characters, numbers and special characters.": "为确保密码更安全，请混合使用字符、数字和特殊字符。",
	"To use Signage 365 care, you need to connect the device to the network . Do you want to set the network connection?": "要使用 Signage 365 Care，需要将设备连接至网络。是否要设置网络连接？",
	"Togo": "多哥",
	"Tokyo": "东京",
	"Tonga": "汤加",
	"Top": "顶部",
	"Top Left": "左上角",
	"Top Right": "右上角",
	"Toronto": "多伦多",
	"Trimming": "微调",
	"Trinidad And Tobago": "特立尼达和多巴哥",
	"Tripoli": "的黎波里",
	"Tue": "星期二",
	"Tuesday": "星期二",
	"Tunis": "突尼斯",
	"Tunisia": "突尼斯",
	"Turkey": "土耳其",
	"Turkmenistan": "土库曼斯坦",
	"Type": "类型",
	"URL Loader": "URL 加载程序",
	"URL Setting": "URL 设置",
	"USB Application Upgrade": "USB 应用程序升级",
	"Uganda": "乌干达",
	"Ukraine": "乌克兰",
	"Ulaanbaatar": "乌兰巴托",
	"Unit": "装置",
	"Unit Calibration": "装置校准",
	"Unit Calibration is modified. Exit without saving?": "装置校准已修改。退出但不保存？",
	"Unit Configuration": "装置配置",
	"Unit Position": "单位位置",
	"Unit Property": "单位属性",
	"Unit Resolution": "装置分辨率",
	"Unit Settings": "单位设置",
	"Unit Status": "装置状态",
	"Unit Temperature": "装置温度",
	"United Arab Emirates": "阿拉伯联合酋长国",
	"United Kingdom": "英国",
	"United States of America": "美国",
	"Units cut left edge can not be placed in the X:(Cut Pixel) positions.": "裁切左边缘的单位不能置于 X：（裁切像素）位置。",
	"Units cut left edge can not be placed in the X:0 positions.": "裁切左边缘的单位不能置于 X:0 位置。",
	"Unsupported File type.": "不支持的文件类型。",
	"Unsupported File type. Only Image/Video files are allowed.": "不支持的文件类型。只允许图像/视频文件。",
	"Update": "更新",
	"Update Failed": "更新已失败",
	"Update LED FPGA micom with xxx done": "使用 xxx 更新 LED FPGA micom 已完成",
	"Update LED FPGA with xxx done": "使用 xxx 更新风扇 LED FPGA 已完成",
	"Update Progress": "更新进度",
	"Update Succeeded": "更新成功",
	"Update completed. Set is rebooting now.": "更新已完成。设置正在重启。",
	"Update completed. Signage is rebooting now.": "更新成功。正在重启显示器。",
	"Update fan micom with this S/W Update file?": "使用此 S/W 更新文件更新风扇 Micom？",
	"Update fan micom with xxx done": "使用 xxx 更新风扇 micom 已完成。",
	"Update?": "是否更新？",
	"Updating…": "正在更新…",
	"Upgrade Complete": "升级完成",
	"Upload": "上传",
	"Upload FPGA Update file (XXX GB available)": "上传 FPGA 更新文件（XXX GB 可用）",
	"Upload LED FPGA update file": "上传 LED FPGA 更新文件",
	"Upload secured S/W Update file": "上传安全的 S/W 更新文件",
	"Upload secured S/W Update file (XXX GB available)": "上传安全的 S/W 更新文件（XXX GB 可用）",
	"Uploading": "正在上传",
	"Uruguay": "乌拉圭",
	"User": "用户",
	"User Name": "用户姓名",
	"Uzbekistan": "乌兹别克斯坦",
	"Uzhhorod": "乌日霍罗德",
	"V Sharpness": "垂直清晰度",
	"Vaduz": "瓦杜兹",
	"Validation error. The new password and the confirm password do not match.": "验证错误。新密码与确认密码不匹配。",
	"Vancouver": "温哥华",
	"Vatican City": "梵蒂冈城",
	"Venezuela": "委内瑞拉",
	"Ver": "版本",
	"Version": "版本",
	"Vertical": "垂直",
	"Video": "视频",
	"Video Scaler": "图像控制器",
	"Vienna": "维也纳",
	"Vientiane": "万象",
	"Vietnam": "越南",
	"Vilnius": "维尔纽斯",
	"Virtual Controller": "虚拟控制器",
	"Vivid": "生动",
	"Vladivostok": "符拉迪沃斯托克",
	"Volgograd": "伏尔加格勒",
	"Volume": "音量",
	"Waiting for Approval": "等待批准",
	"Warm": "暖色",
	"Warsaw": "华沙",
	"Wed": "星期三",
	"Wednesday": "星期三",
	"Week": "周",
	"Weekday": "星期",
	"Welcome to LG WebOS": "欢迎使用 LG WebOS",
	"Width": "宽度",
	"Windhoek": "温得和克",
	"Winnipeg": "温尼伯",
	"Wired": "有线",
	"Working": "正在工作",
	"X Units": "X 单位",
	"XX GB free of XXGB": "XX GB 可用/共 XX GB",
	"XX of YY": "YY 的 XX",
	"Yakutsk": "雅库茨克",
	"Yamoussoukro": "亚穆苏克罗",
	"Yangon": "仰光",
	"Year": "年",
	"Yekaterinburg": "叶卡捷琳堡",
	"Yellowknife": "耶洛奈夫",
	"Yemen": "也门",
	"Yerevan": "埃里温",
	"Yes": "是",
	"You changed IP address or DHCP status. Please reconnect to changed IP address": "您已更改 IP 地址或 DHCP 状态。请重新连接到更改后的 IP 地址",
	"You have failed to login 1/5 time.": "1 次登录失败，共 5 次。",
	"You have failed to login 5 times. Please try again after {time}.": "5 次登录失败。请在 {time} 后重试。",
	"You may not be able to reconnect to web pages if you cannot find out new IP address.": "如果您无法找到新的 IP 地址，则可能无法重新连接网页。",
	"You've entered the same password as the current one. Please enter a different password.": "您输入的密码与当前密码相同。请输入其他密码。",
	"Your Password has been changed.": "您的密码已更改。",
	"Zagreb": "萨格勒布",
	"Zambia": "赞比亚",
	"Zaporozhye": "扎波罗热",
	"Zimbabwe": "津巴布韦",
	"Zoom": "放大",
	"Zoom In": "放大",
	"Zoom In/Out": "放大/缩小",
	"Zoom Out": "缩小",
	"Zürich": "苏黎世",
	"align": "对齐",
	"available": "可用",
	"color": "色彩",
	"details": "详细信息",
	"full aspect ratio": "全屏画面比率",
	"general": "常规",
	"hour": "小时",
	"last": "最后",
	"min": "分钟",
	"original aspect ratio": "原始画面比率",
	"prev Day(prev DAY)": "前一天",
	"property": "属性",
	"reading": "读取",
	"save as PC Time": "另存为 PC 时间",
	"sharpness": "清晰度",
	"upload": "上传",
	"version": "版本",
	"warning": "警告",
	"webOS Version": "webOS 版本",
	"year": "年",
	"{apptitle} will be deleted.": "{apptitle} 将被删除。",
	"{{filename}} already exists.": "{{filename}} 已存在。"
}
