<svg xmlns="http://www.w3.org/2000/svg" width="24" height="24">
    <path fill="#949494" fill-opacity="0" fill-rule="evenodd" d="M0 0h24v24H0V0z"/>
    <path fill="#949494" fill-rule="evenodd" d="M21.163 10.974H2.824c-.461 0-.835.448-.835 1.001 0 .553.374 1.001.835 1.001h18.339c.461 0 .835-.448.835-1.001 0-.553-.374-1.001-.835-1.001z"/>
    <path fill="#949494" fill-rule="evenodd" d="M13.026 21.163V2.824c0-.461-.448-.835-1.001-.835-.553 0-1.001.374-1.001.835v18.339c0 .461.448.835 1.001.835.553 0 1.001-.374 1.001-.835z"/>
</svg>
