<svg xmlns="http://www.w3.org/2000/svg" width="47" height="47">
    <path fill="#EFEFEF" fill-rule="evenodd" stroke="#DCDCDC" d="M8.5 3.5h30c2.761 0 5 2.239 5 5v30c0 2.761-2.239 5-5 5h-30c-2.762 0-5-2.239-5-5v-30c0-2.761 2.238-5 5-5z"/>
    <path fill="#999" fill-rule="evenodd" d="M23.498 17.487l10.997 13H12.5l10.998-13"/>
</svg>
