<svg xmlns="http://www.w3.org/2000/svg" width="40" height="40">
    <path fill="#383838" fill-rule="evenodd" d="M20 21.969c-1.105 0-2-.889-2-1.985S18.895 18 20 18s2 .888 2 1.984-.895 1.985-2 1.985zM20 14c-1.105 0-2-.895-2-2s.895-2 2-2 2 .895 2 2-.895 2-2 2zm0 11.969c1.105 0 2 .895 2 2 0 1.104-.895 2-2 2s-2-.896-2-2c0-1.105.895-2 2-2z"/>
</svg>
