<svg xmlns="http://www.w3.org/2000/svg" width="13" height="21">
    <path fill="#383838" fill-rule="evenodd" d="M11.1 10.983l-7.888 7.098-1.315-1.183 7.006-6.304L1.897 4.29l1.315-1.183 7.888 7.099-.431.388.431.389z"/>
</svg>
