<svg xmlns="http://www.w3.org/2000/svg" width="48.5" height="48.5">
    <path fill="#F0F" fill-opacity="0" fill-rule="evenodd" d="M0 0h48v48H0V0z"/>
    <path fill="#383838" fill-rule="evenodd" d="M24 0c13.255 0 24 10.745 24 24S37.255 48 24 48 0 37.255 0 24 10.745 0 24 0z"/>
    <path fill="#FFF" fill-rule="evenodd" stroke="#FFF" stroke-linecap="round" stroke-linejoin="round" d="M29.018 33.164l-1.719 1.644-10.311-9.859.564-.539-.564-.54 10.311-9.858 1.719 1.643-9.158 8.754 9.158 8.755z"/>
</svg>
