<svg xmlns="http://www.w3.org/2000/svg" width="18" height="18">
    <defs>
        <filter id="09ky341aya">
            <feFlood flood-color="#757575" flood-opacity="1" result="floodOut"/>
            <feComposite in="floodOut" in2="SourceGraphic" operator="atop" result="compOut"/>
            <feBlend in="compOut" in2="SourceGraphic"/>
        </filter>
    </defs>
    <g filter="url(#09ky341aya)">
        <path fill="#A2A2A2" fill-rule="evenodd" d="M15.488 2.482c3.322 3.322 3.322 8.708 0 12.029-3.322 3.322-8.707 3.322-12.029 0-3.321-3.321-3.321-8.707 0-12.028 3.322-3.322 8.707-3.322 12.029-.001z"/>
    </g>
    <path fill="#FFF" fill-rule="evenodd" d="M13.079 10.888l-1.214 1.213-2.408-2.408-2.404 2.404-1.195-1.195 2.404-2.404-2.404-2.404L7.072 4.88l2.404 2.404 2.389-2.39 1.195 1.195-2.389 2.39 2.408 2.409z"/>
</svg>
