<svg xmlns="http://www.w3.org/2000/svg" width="40" height="40">
    <path fill="#F0F" fill-opacity="0" fill-rule="evenodd" d="M0 0h40v40H0V0z"/>
    <path fill="#FFF" fill-rule="evenodd" d="M34 33H7c-1.655 0-3-1.346-3-3V10c0-1.654 1.345-3 3-3h27c1.654 0 3 1.346 3 3v20c0 1.654-1.346 3-3 3zM7 31h20.806c-1.081-7.282-7.158-12.881-14.498-12.881-2.661 0-5.154.741-7.308 2.025V30c0 .552.448 1 1 1zm28-21c0-.552-.448-1-1-1H7c-.552 0-1 .448-1 1v7.997c2.205-1.134 4.682-1.783 7.308-1.783 5.26 0 9.935 2.567 12.96 6.54 1.709-.93 3.585-1.445 5.496-1.445 1.123 0 2.203.184 3.236.493V10zm0 13.79c-1.021-.361-2.103-.577-3.236-.577-1.536 0-3.048.389-4.439 1.097 1.2 1.997 2.028 4.259 2.347 6.69H34c.552 0 1-.448 1-1v-6.21zm-6.75-5.415c-2.344 0-4.25-1.906-4.25-4.25 0-2.344 1.906-4.25 4.25-4.25 2.344 0 4.25 1.906 4.25 4.25 0 2.344-1.906 4.25-4.25 4.25zm0-6.5c-1.24 0-2.25 1.01-2.25 2.25s1.01 2.25 2.25 2.25 2.25-1.01 2.25-2.25-1.01-2.25-2.25-2.25z" opacity=".502"/>
</svg>
