<svg 
 xmlns="http://www.w3.org/2000/svg"
 xmlns:xlink="http://www.w3.org/1999/xlink"
 width="120px" height="120px">
<defs>
<filter id="Filter_0">
    <feFlood flood-color="rgb(239, 239, 239)" flood-opacity="1" result="floodOut" />
    <feComposite operator="atop" in="floodOut" in2="SourceGraphic" result="compOut" />
    <feBlend mode="normal" in="compOut" in2="SourceGraphic" />
</filter>

</defs>
<path fill-rule="evenodd"  fill-opacity="0" fill="rgb(255, 0, 255)"
 d="M-0.000,-0.000 L120.000,-0.000 L120.000,120.000 L-0.000,120.000 L-0.000,-0.000 Z"/>
<path fill-rule="evenodd"  fill="rgb(56, 56, 56)"
 d="M60.000,15.000 C84.853,15.000 105.000,35.147 105.000,60.000 C105.000,84.853 84.853,105.000 60.000,105.000 C35.147,105.000 15.000,84.853 15.000,60.000 C15.000,35.147 35.147,15.000 60.000,15.000 Z"/>
<g filter="url(#Filter_0)">
<path fill-rule="evenodd"  fill="rgb(255, 255, 255)"
 d="M76.978,63.002 L63.005,63.002 L63.005,76.976 C63.005,78.637 61.657,79.984 59.996,79.984 C58.334,79.984 56.987,78.637 56.987,76.976 L56.987,63.002 L43.013,63.002 C41.352,63.002 40.005,61.655 40.005,59.993 C40.005,58.332 41.352,56.985 43.013,56.985 L56.987,56.985 L56.987,43.011 C56.987,41.349 58.334,40.002 59.996,40.002 C61.657,40.002 63.005,41.349 63.005,43.011 L63.005,56.985 L76.978,56.985 C78.639,56.985 79.987,58.332 79.987,59.993 C79.987,61.655 78.639,63.002 76.978,63.002 Z"/>
</g>
</svg>