<svg xmlns="http://www.w3.org/2000/svg" width="24" height="24">
    <path fill="none" d="M0 0h24v24H0V0z"/>
    <path fill-rule="evenodd" fill="#FFF" d="M21.042 21.794H3.793a.75.75 0 0 1-.745-.756v-7.704c0-.418.334-.757.745-.757a.75.75 0 0 1 .744.757v6.947h15.76v-6.947c0-.418.334-.757.745-.757s.745.339.745.757v7.704a.75.75 0 0 1-.745.756zm-8.082-3.989a.74.74 0 0 1-1.085 0L7.411 12.97a.765.765 0 0 1 .034-1.069.736.736 0 0 1 1.052.034l3.176 3.44V3.786a.75.75 0 0 1 .744-.756.75.75 0 0 1 .745.756v11.589l3.176-3.44a.735.735 0 0 1 1.052-.034c.3.286.315.765.033 1.069l-4.463 4.835z"/>
</svg>
