<svg xmlns="http://www.w3.org/2000/svg" width="28" height="28">
    <path fill="#383838" fill-rule="evenodd" d="M23.678 18.655h-.408c-.217 0-.421.123-.495.321-.037.099-.078.196-.124.29-.092.192-.038.42.116.57l.288.281c.21.204.21.535 0 .738l-.429.418c-.209.204-.549.204-.758 0l-.289-.281c-.154-.15-.389-.203-.585-.112-.097.044-.197.084-.298.12-.204.072-.331.271-.331.482v.397c0 .288-.24.522-.536.522h-.607c-.296 0-.536-.234-.536-.522v-.397c0-.211-.127-.41-.33-.482-.102-.036-.202-.076-.299-.12-.196-.091-.431-.038-.585.112l-.289.281c-.209.204-.549.204-.758 0l-.429-.418c-.21-.203-.21-.534 0-.738l.289-.281c.153-.15.208-.378.115-.57-.046-.094-.087-.191-.124-.29-.074-.198-.278-.321-.495-.321h-.408c-.296 0-.536-.234-.536-.522v-.591c0-.288.24-.522.536-.522h.408c.217 0 .421-.123.495-.321.037-.099.078-.196.124-.291.093-.191.038-.42-.115-.569l-.289-.282c-.21-.203-.21-.534 0-.738l.429-.417c.209-.204.549-.204.758 0l.289.281c.154.149.389.202.585.112.097-.045.197-.085.299-.12.203-.072.33-.271.33-.482v-.397c0-.289.24-.522.536-.522h.607c.296 0 .536.233.536.522v.397c0 .211.127.41.331.482.101.035.201.075.298.12.196.09.431.037.585-.112l.289-.281c.209-.204.549-.204.758 0l.429.417c.21.204.21.535 0 .738l-.288.282c-.154.149-.208.378-.116.569.046.095.087.192.124.291.074.198.278.321.495.321h.408c.296 0 .536.234.536.522v.591c0 .288-.24.522-.536.522zm-5.27-2.044c-.054.037-.105.086-.143.138-1.202 1.655.678 3.485 2.379 2.315.053-.037.104-.086.142-.139 1.202-1.655-.678-3.485-2.378-2.314zm2.717-4.012h-.137c-.296 0-.536-.233-.536-.522V10.55h-2.069c-1.001 0-1.813-.79-1.813-1.764V6.771h-3.403c-.333 0-.603.263-.603.588v9.614c0 .325.27.588.603.588h.256c.297 0 .537.233.537.522v.132c0 .288-.24.522-.537.522h-.256c-1.001 0-1.812-.79-1.812-1.764V7.359c0-.974.811-1.764 1.812-1.764h4.782c.16 0 .314.062.428.173l3.107 3.024c.113.111.177.26.177.416v2.869c0 .289-.24.522-.536.522zM17.779 6.85v1.936c0 .324.271.587.604.587h1.988L17.779 6.85zM9.855 8.575h-.297c-.282 0-.512.224-.512.499v8.165c0 .275.23.499.512.499h.252c.284 0 .513.224.513.5 0 .275-.229.499-.513.499h-.252c-.849 0-1.539-.672-1.539-1.498V9.074c0-.826.69-1.498 1.539-1.498h.297c.284 0 .513.224.513.5s-.229.499-.513.499zm-3.358 9.301c.244 0 .442.193.442.431 0 .237-.198.43-.442.43-.731 0-1.325-.579-1.325-1.29v-6.51c0-.711.594-1.29 1.325-1.29.244 0 .442.192.442.43s-.198.43-.442.43-.442.193-.442.43v6.51c0 .237.198.429.442.429z"/>
</svg>
