<svg xmlns="http://www.w3.org/2000/svg" width="28" height="28">
    <path fill="#383838" fill-rule="evenodd" d="M13.794 23.792c-5.514 0-9.999-4.486-9.999-10 0-5.513 4.485-9.999 9.999-9.999s10 4.486 10 9.999c0 5.514-4.486 10-10 10zm0-18.675c-4.784 0-8.675 3.891-8.675 8.675 0 4.784 3.891 8.676 8.675 8.676 4.784 0 8.676-3.892 8.676-8.676 0-4.784-3.892-8.675-8.676-8.675zm0 5.886c-.859 0-1.556-.697-1.556-1.556 0-.86.697-1.556 1.556-1.556.86 0 1.556.696 1.556 1.556 0 .859-.696 1.556-1.556 1.556zm-.756.706h1.512c.344 0 .622.278.622.622v6.741c0 .344-.278.622-.622.622h-1.512c-.343 0-.622-.278-.622-.622v-6.741c0-.344.279-.622.622-.622z"/>
</svg>
