<svg xmlns="http://www.w3.org/2000/svg" width="40" height="40">
    <path fill="gray" fill-rule="evenodd" d="M33.916 31.017c.602.599.602 1.571 0 2.17l-.726.724c-.601.599-1.577.599-2.178 0l-7.78-7.752c-.056-.056-.08-.127-.126-.188-1.796 1.225-3.966 1.945-6.302 1.945-6.168 0-11.186-5-11.186-11.145 0-6.146 5.018-11.145 11.186-11.145S27.99 10.625 27.99 16.771c0 2.372-.754 4.57-2.027 6.379.056.042.122.064.173.115l7.78 7.752zM16.804 7.767c-4.983 0-9.036 4.039-9.036 9.004 0 4.964 4.053 9.003 9.036 9.003s9.036-4.039 9.036-9.003c0-4.965-4.053-9.004-9.036-9.004zm4.74 10.075h-9.48c-.593 0-1.075-.48-1.075-1.071 0-.592.482-1.071 1.075-1.071h9.48c.593 0 1.075.479 1.075 1.071 0 .591-.482 1.071-1.075 1.071z"/>
</svg>
