<svg xmlns="http://www.w3.org/2000/svg" width="28" height="28">
    <defs>
        <filter id="8b2gb722sa">
            <feFlood flood-color="#A50034" flood-opacity="1" result="floodOut"/>
            <feComposite in="floodOut" in2="SourceGraphic" operator="atop" result="compOut"/>
            <feBlend in="compOut" in2="SourceGraphic"/>
        </filter>
    </defs>
    <g fill-rule="evenodd" filter="url(#8b2gb722sa)">
        <path fill="#383838" d="M24.271 15.224l-2.915 2.109c-.251.181-.544.274-.84.274-.227 0-.455-.055-.665-.164-.486-.253-.781-.751-.772-1.298l.077-4.319c.009-.547.322-1.034.816-1.27.493-.235 1.069-.174 1.501.163l2.839 2.211c.36.28.562.702.553 1.157-.007.456-.224.871-.594 1.137zm-3.677-3.377l-.724-.009.715.013-.076 4.319 2.925-2.104-2.84-2.219zm-6.72 6.349l-.078-.001c-2.38-.042-4.283-2.012-4.241-4.391.021-1.153.489-2.229 1.319-3.03.83-.8 1.922-1.231 3.075-1.21 2.38.043 4.283 2.013 4.24 4.392-.02 1.153-.489 2.229-1.318 3.029-.811.783-1.873 1.211-2.997 1.211zm.049-7.202l-.052-.001c-.752 0-1.462.286-2.004.81-.556.535-.868 1.255-.882 2.026-.028 1.591 1.244 2.909 2.836 2.937l.052.001c.753 0 1.462-.286 2.005-.81.555-.536.868-1.255.882-2.026.028-1.592-1.244-2.909-2.837-2.937zm2.242-2.319h-.026l-4.322-.077c-.546-.01-1.033-.323-1.269-.816-.236-.494-.174-1.069.162-1.5l2.212-2.84c.279-.359.669-.578 1.158-.552.456.007.87.224 1.137.593l2.11 2.915c.321.444.362 1.021.109 1.506-.249.477-.735.771-1.271.771zm-2.106-4.354l-2.22 2.839-.009.723.013-.715 4.321.077-2.105-2.924zM7.773 17.204c-.199.095-.411.141-.621.141-.313 0-.622-.104-.88-.305l-2.839-2.211c-.36-.279-.562-.701-.553-1.157.007-.456.224-.87.593-1.137l2.916-2.108c.443-.321 1.02-.363 1.506-.11.485.253.78.75.77 1.297l-.076 4.32c-.009.547-.323 1.034-.816 1.27zm-.537-5.615l-2.925 2.104 2.839 2.22.725.008-.715-.012.076-4.32zm4.37 7.496l4.321.077c.548.01 1.034.323 1.269.816.237.494.174 1.069-.163 1.5l-2.21 2.839c-.275.353-.686.553-1.132.553h-.026c-.456-.008-.87-.225-1.137-.594l-2.11-2.915c-.321-.443-.363-1.02-.11-1.505.254-.485.743-.765 1.298-.771zm2.08 4.354l2.22-2.839.009-.723-.013.714-4.321-.076 2.105 2.924z"/>
    </g>
</svg>
