<svg xmlns="http://www.w3.org/2000/svg" width="28" height="28">
    <path fill="#A50034" fill-rule="evenodd" d="M23.161 22.149h-5.51V17.56h6.297v3.824c0 .423-.352.765-.787.765zm-3.148-6.119h-2.362V11.441h5.51c.435 0 .787.342.787.765V16.03h-3.935zm-6.298 6.119h-3.148c-.435 0-.787-.342-.787-.765V17.56h6.297V22.149h-2.362zm1.575-6.119H5.844c-.435 0-.787-.342-.787-.765V7.616c0-.422.352-.764.787-.764h9.446c.435 0 .787.342.787.764v7.649c0 .423-.352.765-.787.765zm-.787-7.649H6.631V14.5h7.872V8.381z"/>
</svg>
