<svg xmlns="http://www.w3.org/2000/svg" width="40" height="40">
    <path fill="gray" fill-rule="evenodd" d="M28.468 18.076l-12.219-7.229c-1.439-.851-3.238.213-3.238 1.916V27.22c0 1.703 1.799 2.767 3.238 1.916l12.219-7.229c1.439-.851 1.439-2.98 0-3.831z"/>
</svg>
