<svg xmlns="http://www.w3.org/2000/svg" width="240" height="240">
    <path fill="#383838" fill-opacity="0" fill-rule="evenodd" d="M0 0h240v240H0V0z"/>
    <path fill="#767676" fill-rule="evenodd" d="M139.008 142.61c-6.676 0-12.087-5.395-12.087-12.05 0-6.655 5.411-12.051 12.087-12.051 6.675 0 12.086 5.396 12.086 12.051s-5.411 12.05-12.086 12.05zm6.267-9.478l-5.425-1.658.124-7.587c.012-.734-.574-1.338-1.31-1.35h-.022c-.726 0-1.321.58-1.332 1.307l-.141 8.586c-.009.592.375 1.118.942 1.292l6.383 1.951c.13.039.262.058.391.058.57 0 1.097-.367 1.273-.939.216-.701-.18-1.445-.883-1.66zm-39.905-13.741c-2.488 0-4.505-2.011-4.505-4.492s2.017-4.492 4.505-4.492 4.505 2.011 4.505 4.492-2.017 4.492-4.505 4.492zm0 11.678c-2.488 0-4.505-2.011-4.505-4.492 0-2.48 2.017-4.491 4.505-4.491s4.505 2.011 4.505 4.491c0 2.481-2.017 4.492-4.505 4.492zm11.714-11.678c-2.489 0-4.506-2.011-4.506-4.492s2.017-4.492 4.506-4.492c2.488 0 4.505 2.011 4.505 4.492s-2.017 4.492-4.505 4.492zm0 11.678c-2.489 0-4.506-2.011-4.506-4.492 0-2.48 2.017-4.491 4.506-4.491 2.488 0 4.505 2.011 4.505 4.491 0 2.481-2.017 4.492-4.505 4.492zm18.312-16.704v-7.577H98.771v24.729c0 1.161.946 2.105 2.11 2.105h22.324c.256.717.554 1.414.917 2.074h-23.241c-2.311 0-4.191-1.874-4.191-4.179V99.209c0-2.304 1.88-4.178 4.191-4.178h2.403v4.253c0 1.678 1.365 3.038 3.048 3.038s3.048-1.36 3.048-3.038v-4.253h15.407v4.253c0 1.678 1.365 3.038 3.048 3.038s3.049-1.36 3.049-3.038v-4.253h2.402c2.311 0 4.191 1.874 4.191 4.178v15.113c-.205-.008-.406-.03-.614-.03-.495 0-.984.025-1.467.073zm-7.695-14.098c-.842 0-1.524-.68-1.524-1.519v-7.504c0-.839.682-1.519 1.524-1.519s1.524.68 1.524 1.519v7.504c0 .839-.682 1.519-1.524 1.519zm-21.504 0c-.842 0-1.523-.68-1.523-1.519v-7.504c0-.839.681-1.519 1.523-1.519.842 0 1.524.68 1.524 1.519v7.504c0 .839-.682 1.519-1.524 1.519zm22.6 10.14c2.488 0 4.505 2.011 4.505 4.492s-2.017 4.492-4.505 4.492-4.505-2.011-4.505-4.492 2.017-4.492 4.505-4.492z"/>
    <path fill="#767676" fill-rule="evenodd" d="M199.789 164.017H41.208c-3.981 0-7.208-3.218-7.208-7.187V74.183c0-3.969 3.227-7.187 7.208-7.187h158.581c3.981 0 7.208 3.218 7.208 7.187v82.647c0 3.969-3.227 7.187-7.208 7.187zm1.403-88.834c0-1.321-1.078-2.395-2.403-2.395H42.208c-1.325 0-2.403 1.074-2.403 2.395v80.647c0 1.321 1.078 2.396 2.403 2.396h156.581c1.325 0 2.403-1.075 2.403-2.396V75.183zM72.443 169.011h96.11c1.659 0 3.003 1.341 3.003 2.995 0 1.654-1.344 2.994-3.003 2.994h-96.11c-1.659 0-3.003-1.34-3.003-2.994 0-1.654 1.344-2.995 3.003-2.995z"/>
</svg>
