<svg xmlns="http://www.w3.org/2000/svg" width="240" height="240">
    <path fill="#383838" fill-opacity="0" fill-rule="evenodd" d="M0 0h240v240H0V0z"/>
    <path fill="#767676" fill-rule="evenodd" d="M207.2 193.979h-49.6c-2.209 0-4-1.795-4-4.01v-24.46c0-2.214 1.791-4.009 4-4.009h49.6c2.209 0 4 1.795 4 4.009v24.46c0 2.215-1.791 4.01-4 4.01zm-.8-27.668h-48v22.856h48v-22.856zm-23.9-12.521c-.662 0-1.2-.539-1.2-1.203v-2.284c0-.664.538-1.203 1.2-1.203.662 0 1.2.539 1.2 1.203v2.284c0 .664-.538 1.203-1.2 1.203zm-.192 2.161c.662 0 1.2.539 1.2 1.203v1.136c0 .664-.538 1.203-1.2 1.203-.663 0-1.2-.539-1.2-1.203v-1.136c0-.664.537-1.203 1.2-1.203zm.192-9.011c-.662 0-1.2-.539-1.2-1.203v-2.284c0-.664.538-1.203 1.2-1.203.662 0 1.2.539 1.2 1.203v2.284c0 .664-.538 1.203-1.2 1.203zm-.782-6.707c-.406 0-.802-.208-1.028-.582-.305-.506-.721-.953-1.206-1.295-.541-.382-.672-1.132-.29-1.676.381-.542 1.13-.673 1.672-.291.764.539 1.396 1.218 1.878 2.02.343.568.161 1.307-.407 1.65-.194.117-.407.174-.619.174zm-5.893-5.057c.663 0 1.2.539 1.2 1.203s-.537 1.203-1.2 1.203h-2.277c-.663 0-1.2-.539-1.2-1.203s.537-1.203 1.2-1.203h2.277zm-6.834 0c.663 0 1.2.539 1.2 1.203s-.537 1.203-1.2 1.203h-2.278c-.662 0-1.2-.539-1.2-1.203s.538-1.203 1.2-1.203h2.278zm-6.833 0c.662 0 1.2.539 1.2 1.203s-.538 1.203-1.2 1.203h-2.278c-.663 0-1.2-.539-1.2-1.203s.537-1.203 1.2-1.203h2.278zm10.642-31.017H67.2c-2.651 0-4.8-2.154-4.8-4.812V44.012c0-2.658 2.149-4.812 4.8-4.812h105.6c2.651 0 4.8 2.154 4.8 4.812v55.335c0 2.658-2.149 4.812-4.8 4.812zm0-60.147H67.2v55.335h105.6V44.012zM59.323 139.629c-.226.371-.621.575-1.024.575-.214 0-.429-.057-.625-.177-.566-.347-.743-1.087-.398-1.653.487-.798 1.124-1.474 1.891-2.008.543-.379 1.292-.244 1.67.302.378.545.243 1.294-.301 1.673-.485.339-.905.783-1.213 1.288zm-.623 3.791v2.284c0 .664-.538 1.203-1.2 1.203-.663 0-1.2-.539-1.2-1.203v-2.284c0-.664.537-1.203 1.2-1.203.662 0 1.2.539 1.2 1.203zm-1.2 10.337c-.663 0-1.2-.539-1.2-1.203v-2.284c0-.664.537-1.203 1.2-1.203.662 0 1.2.539 1.2 1.203v2.284c0 .664-.538 1.203-1.2 1.203zm-.192 2.194c.662 0 1.2.539 1.2 1.203v1.136c0 .664-.538 1.203-1.2 1.203-.663 0-1.2-.539-1.2-1.203v-1.136c0-.664.537-1.203 1.2-1.203zm6.899-18.369c-.662 0-1.2-.539-1.2-1.203s.538-1.203 1.2-1.203h2.278c.663 0 1.2.539 1.2 1.203s-.537 1.203-1.2 1.203h-2.278zm6.834 0c-.662 0-1.2-.539-1.2-1.203s.538-1.203 1.2-1.203h2.278c.662 0 1.2.539 1.2 1.203s-.538 1.203-1.2 1.203h-2.278zm6.834 0c-.663 0-1.2-.539-1.2-1.203s.537-1.203 1.2-1.203h2.277c.663 0 1.2.539 1.2 1.203s-.537 1.203-1.2 1.203h-2.277zm8.525 27.927v24.46c0 2.215-1.791 4.01-4 4.01H32.8c-2.209 0-4-1.795-4-4.01v-24.46c0-2.214 1.791-4.009 4-4.009h49.6c2.209 0 4 1.795 4 4.009zm-4.8.802h-48v22.856h48v-22.856zm-40 29.673h32c1.326 0 2.4 1.077 2.4 2.406 0 1.329-1.074 2.406-2.4 2.406h-32c-1.326 0-2.4-1.077-2.4-2.406 0-1.329 1.074-2.406 2.4-2.406zm41.909-59.605c0-.664.537-1.203 1.2-1.203h2.278c.662 0 1.2.539 1.2 1.203s-.538 1.203-1.2 1.203h-2.278c-.663 0-1.2-.539-1.2-1.203zm8.033-1.203h2.278c.663 0 1.2.539 1.2 1.203s-.537 1.203-1.2 1.203h-2.278c-.662 0-1.2-.539-1.2-1.203s.538-1.203 1.2-1.203zM95.2 161.5h49.6c2.209 0 4 1.795 4 4.009v24.46c0 2.215-1.791 4.01-4 4.01H95.2c-2.209 0-4-1.795-4-4.01v-24.46c0-2.214 1.791-4.009 4-4.009zm.8 27.667h48v-22.856H96v22.856zm8 6.817h32c1.326 0 2.4 1.077 2.4 2.406 0 1.329-1.074 2.406-2.4 2.406h-32c-1.326 0-2.4-1.077-2.4-2.406 0-1.329 1.074-2.406 2.4-2.406zm42.212-58.402c-.662 0-1.2-.539-1.2-1.203s.538-1.203 1.2-1.203h2.279c.662 0 1.2.539 1.2 1.203s-.538 1.203-1.2 1.203h-2.279zm-4.556-2.406c.663 0 1.2.539 1.2 1.203s-.537 1.203-1.2 1.203h-2.277c-.663 0-1.2-.539-1.2-1.203s.537-1.203 1.2-1.203h2.277zm-6.833 0c.662 0 1.2.539 1.2 1.203s-.538 1.203-1.2 1.203h-2.279c-.662 0-1.2-.539-1.2-1.203s.538-1.203 1.2-1.203h2.279zm-6.834 0c.663 0 1.2.539 1.2 1.203s-.537 1.203-1.2 1.203h-2.278c-.663 0-1.2-.539-1.2-1.203s.537-1.203 1.2-1.203h2.278zm-9.189-21.393c0-.664.538-1.203 1.2-1.203.663 0 1.2.539 1.2 1.203v1.136c0 .664-.537 1.203-1.2 1.203-.662 0-1.2-.539-1.2-1.203v-1.136zm0 5.36c0-.664.538-1.203 1.2-1.203.663 0 1.2.539 1.2 1.203v2.111c0 .664-.537 1.203-1.2 1.203-.662 0-1.2-.539-1.2-1.203v-2.111zm0 6.335c0-.664.538-1.203 1.2-1.203.663 0 1.2.539 1.2 1.203v2.112c0 .664-.537 1.203-1.2 1.203-.662 0-1.2-.539-1.2-1.203v-2.112zm0 6.335c0-.664.538-1.203 1.2-1.203.663 0 1.2.539 1.2 1.203v2.112c0 .664-.537 1.203-1.2 1.203-.662 0-1.2-.539-1.2-1.203v-2.112zm0 6.336c0-.665.538-1.203 1.2-1.203.663 0 1.2.538 1.2 1.203v2.111c0 .664-.537 1.203-1.2 1.203-.662 0-1.2-.539-1.2-1.203v-2.111zm0 6.335c0-.665.538-1.203 1.2-1.203.663 0 1.2.538 1.2 1.203v2.111c0 .664-.537 1.203-1.2 1.203-.662 0-1.2-.539-1.2-1.203v-2.111zm1.2 11.467c.663 0 1.2.539 1.2 1.203v1.136c0 .664-.537 1.203-1.2 1.203-.662 0-1.2-.539-1.2-1.203v-1.136c0-.664.538-1.203 1.2-1.203zm-1.2-5.132c0-.664.538-1.203 1.2-1.203.663 0 1.2.539 1.2 1.203v2.111c0 .664-.537 1.203-1.2 1.203-.662 0-1.2-.539-1.2-1.203v-2.111zm-4.479-15.643c.663 0 1.2.539 1.2 1.203s-.537 1.203-1.2 1.203h-2.277c-.663 0-1.2-.539-1.2-1.203s.537-1.203 1.2-1.203h2.277zm-6.834 0c.663 0 1.2.539 1.2 1.203s-.537 1.203-1.2 1.203h-2.277c-.662 0-1.2-.539-1.2-1.203s.538-1.203 1.2-1.203h2.277zm-6.833 0c.662 0 1.2.539 1.2 1.203s-.538 1.203-1.2 1.203h-2.278c-.663 0-1.2-.539-1.2-1.203s.537-1.203 1.2-1.203h2.278zM85.6 108.971c0-1.329 1.074-2.406 2.4-2.406h64c1.326 0 2.4 1.077 2.4 2.406 0 1.329-1.074 2.406-2.4 2.406H88c-1.326 0-2.4-1.077-2.4-2.406zm67.446 26.205h2.278c.663 0 1.2.539 1.2 1.203s-.537 1.203-1.2 1.203h-2.278c-.662 0-1.2-.539-1.2-1.203s.538-1.203 1.2-1.203zm13.354 60.808h32c1.326 0 2.4 1.077 2.4 2.406 0 1.329-1.074 2.406-2.4 2.406h-32c-1.326 0-2.4-1.077-2.4-2.406 0-1.329 1.074-2.406 2.4-2.406z"/>
</svg>
