<svg xmlns="http://www.w3.org/2000/svg" width="260" height="260">
    <path fill="#F0F" fill-opacity="0" fill-rule="evenodd" d="M0 0h260v260H0V0z"/>
    <path fill="gray" fill-rule="evenodd" d="M196 140.526h-4.354l-9.559 16.484c-1.074 1.851-3.051 2.99-5.191 2.99H83.103c-2.14 0-4.118-1.139-5.19-2.99l-9.561-16.484H64c-3.314 0-6-2.686-6-6V106c0-3.314 2.686-6 6-6h132c3.313 0 6 2.686 6 6v28.526c0 3.314-2.687 6-6 6zm-6.008-28.519H70.008v16.512h5.262l3.47 5.983 7.824 13.49h86.872l7.824-13.49 3.47-5.983h5.262v-16.512zm-95.117 10.485h70.248v12.012H94.875v-12.012z"/>
</svg>
