<svg xmlns="http://www.w3.org/2000/svg" width="24" height="24">
    <path fill="#9D0025" fill-rule="evenodd" d="M12.01-.015c4.441 0 8.318 2.417 10.393 6.008H1.616C3.691 2.402 7.568-.015 12.01-.015zm0 24.029c-4.442 0-8.319-2.416-10.394-6.007h20.787c-2.075 3.591-5.952 6.007-10.393 6.007z"/>
    <path fill="#F4C327" fill-rule="evenodd" d="M.011 12c0 2.188.584 4.24 1.604 6.007h20.772c1.02-1.767 1.604-3.819 1.604-6.007 0-2.188-.584-4.24-1.604-6.007H1.615C.595 7.76.011 9.812.011 12z"/>
    <path fill="#CACACA" fill-rule="evenodd" d="M11.847 15.282v-3.804h.774v3.804h-.774zm-1.393.834c-.522.255-1.128.408-1.754.408-.627 0-1.245-.153-1.765-.408-.381-.191-.638-.574-.638-1.013v-1.591h4.792v1.591c0 .439-.256.822-.635 1.013zm-1.768-5.269h2.403v2.663H8.686v-2.663zm-3.944.631h.777v3.804h-.777v-3.804z"/>
    <path fill="#9D0025" fill-rule="evenodd" d="M12.637 13.377V13c.067 0 .132-.008.192-.014.131.071.201.153.189.227-.019.09-.163.149-.381.164zm.094-2.86l-.03.013-.036.038-.028.019s-.015.007-.026.003c-.023-.011-.035-.029-.035-.029s-.031.019-.057.011c-.025-.011-.053-.054-.053-.054s-.044.043-.069.037c-.033-.007-.056-.033-.056-.033s-.036.03-.067.025c-.023-.004-.061-.044-.061-.044s-.039.04-.067.044c-.025.005-.058-.025-.058-.025s-.023.026-.057.033c-.03.006-.071-.037-.071-.037s-.028.043-.056.054c-.023.008-.059-.011-.059-.011s-.008.018-.031.029c-.007.004-.023-.003-.023-.003l-.033-.019-.036-.038-.028-.013s-.013-.043-.013-.052l-.005-.027c-.007-.035.041-.073.115-.09.041-.01.077-.007.105-.001.028-.024.087-.042.164-.042.066 0 .122.014.153.037.03-.023.089-.037.156-.037.069 0 .133.018.163.042.026-.006.059-.009.105.001.071.017.123.055.112.09l-.002.027-.016.052zm-.868 2.942c-.199-.115-.319-.22-.295-.269l.005-.009c.055-.041.151-.074.288-.095l.002.373zM9.891 16.24c-.663 0-1.2-.512-1.2-1.14 0 .628-.532 1.14-1.196 1.14-.663 0-1.2-.512-1.2-1.14v-1.59H6.29v-2.663h2.396v2.66h2.408V15.1c0 .628-.539 1.14-1.203 1.14zm1.083-7.003l-.141.059-.164.176-.13.088s-.07.03-.117.012c-.106-.053-.165-.135-.165-.135s-.141.088-.258.053c-.118-.053-.247-.247-.247-.247s-.2.194-.318.17c-.153-.035-.258-.153-.258-.153s-.165.136-.306.112c-.106-.017-.282-.2-.282-.2s-.176.183-.306.2c-.117.024-.27-.112-.27-.112s-.106.118-.259.153c-.141.024-.329-.17-.329-.17s-.129.194-.258.247c-.106.035-.271-.053-.271-.053s-.035.082-.141.135c-.035.018-.106-.012-.106-.012l-.153-.088-.164-.176-.129-.059s-.059-.2-.059-.241c-.012-.036-.024-.124-.024-.124-.035-.159.188-.335.529-.412.188-.047.353-.035.482-.006.13-.112.4-.194.753-.194.305 0 .564.065.705.17.141-.105.412-.17.717-.17.318 0 .611.082.752.194.118-.029.271-.041.482.006.329.077.565.253.518.412 0 0-.012.088-.012.124l-.071.241zm-5.455 4.222l.002-.373c.134.021.232.054.285.095l.005.009c.022.049-.096.154-.292.269zm.109-2.942l-.031.013-.036.038-.028.019s-.015.007-.025.003c-.023-.011-.036-.029-.036-.029s-.031.019-.056.011c-.026-.011-.054-.054-.054-.054s-.043.043-.069.037c-.033-.007-.056-.033-.056-.033s-.036.03-.067.025c-.023-.004-.061-.044-.061-.044s-.038.04-.066.044c-.026.005-.059-.025-.059-.025s-.023.026-.056.033c-.031.006-.072-.037-.072-.037s-.028.043-.056.054c-.023.008-.059-.011-.059-.011s-.007.018-.03.029c-.008.004-.023-.003-.023-.003l-.034-.019-.035-.038-.029-.013s-.012-.043-.012-.052c-.003-.008-.005-.027-.005-.027-.008-.035.04-.073.115-.09.04-.01.076-.007.104-.001.028-.024.087-.042.164-.042.066 0 .123.014.153.037.031-.023.09-.037.156-.037.069 0 .133.018.163.042.026-.006.059-.009.105.001.072.017.123.055.113.09l-.003.027-.015.052zm-.886 2.86c-.218-.015-.364-.073-.378-.162-.015-.073.057-.154.187-.224.057.005.124.014.191.014v.372z"/>
    <path fill="#C1B020" fill-rule="evenodd" d="M12.757 10.494l-.033.036-.002-.004c0 .006.003.013-.003.017-.007.006-.013.003-.019.002-.004.008-.022.039-.043.049-.015.008-.035.015-.051.015l-.002-.002-.003.006-.079.178c-.049.013-.184.03-.309.03-.123 0-.261-.017-.312-.03-.033-.009-.083-.15-.083-.15-.005.003-.015-.002-.017-.009-.003-.005.002-.013.007-.016l.024-.005-.005-.009c-.003.002-.003.006-.008.007-.015 0-.035-.007-.048-.015-.02-.01-.042-.039-.049-.048v.001c-.005.005-.015.005-.023-.004-.01-.007-.012-.018-.005-.026h.007l.001-.001.053-.046.034.021-.005.034-.052.003c.008.007.019.017.034.027.025.024.046.021.046.021.015-.003.025-.019.025-.038v-.004c-.005-.001-.011-.002-.013-.009-.005-.009 0-.018.008-.022.005 0 .013.005.018.014 0 .008-.002.013-.006.016l.001.002c.01.014.028.024.046.024.031 0 .056-.024.056-.051 0-.01 0-.017-.005-.023l.001-.002c-.003-.001-.002-.004-.005-.005l-.057.029-.026-.026.013-.036.061.006.003-.004-.039-.05.034-.031.048.015-.014.066h.001l.054-.028.028.026-.013.032-.064-.007-.002.002.005.005v.009c0 .03.021.054.051.054.028 0 .054-.022.059-.046v-.007c-.003-.003-.008-.004-.008-.01-.002-.01.003-.019.008-.02.008 0 .015.006.018.019 0 .007-.005.01-.009.013l.001.005c.008.019.026.035.051.035.033 0 .062-.022.062-.053 0-.008-.003-.013-.003-.019l.013-.005.015.005c-.002.006-.002.011-.002.019 0 .031.025.053.053.053.026 0 .049-.016.057-.035l.002-.005c-.004-.003-.008-.006-.008-.013 0-.013.008-.019.016-.019.007.001.01.01.01.02 0 .006-.006.009-.01.011v.006c.002.024.03.046.056.046.031 0 .056-.024.056-.054v-.009l.006-.004-.003-.003-.064.007-.016-.032.026-.026.06.028-.017-.066.049-.015.033.031-.037.051.002.003.061-.006.01.036-.023.026-.053-.027-.009.004.001.001c-.005.006-.005.013-.005.023 0 .027.025.051.056.051.018 0 .033-.01.043-.024l.003-.004c-.003-.003-.005-.007-.005-.014.002-.009.012-.014.02-.014.005.004.01.013.005.022 0 .007-.007.007-.012.008l-.001.005c0 .019.011.035.026.038 0 0 .023.003.049-.021l.028-.026-.057-.004-.007-.034.033-.021.05.045h.006s-.005-.021.003-.036c.005-.014.015-.016.015-.016l.005.011c.005-.009.013-.013.026-.013.012 0 .028.013.028.016 0 0-.026.009-.036.017zm-.539-.045l-.005-.011-.008.011-.071.021-.018-.03.018-.03.067.019-.032-.068h.001c-.017-.018-.029-.042-.029-.073 0-.04.018-.067.04-.084-.005-.005-.006-.012-.009-.02h-.026v-.029h.028c.004-.009.011-.016.021-.02v-.046h-.028v-.029h.028v-.03h.033v.03h.031v.029h-.031v.044c.011.005.019.012.024.022h.027v.029h-.026c-.002.008-.004.015-.01.021.021.016.036.043.036.083 0 .03-.01.054-.024.072l.001.001-.031.067.062-.018.023.03-.023.03-.069-.021zm.564.433v.279c-.077 0-.135.056-.135.127 0 .008.003.018.005.029-.007-.003-.012-.003-.021-.003.028 0 .05.016.05.036 0 .022-.022.04-.05.04h-.796c-.028 0-.05-.018-.05-.04 0-.02.022-.036.05-.036-.005 0-.014 0-.019.003.002-.011.005-.021.005-.029 0-.071-.06-.127-.134-.127h.002v-.279h1.093zm-1.843-1.586c-.006-.004-.004-.009-.009-.016.002.027.015.056-.015.075-.031.027-.057.015-.085.011-.02.036-.103.177-.197.224-.07.035-.164.07-.235.07-.006-.001-.006-.009-.012-.011l-.011.03-.365.817c-.223.059-.846.141-1.422.141-.564 0-1.199-.082-1.434-.141-.153-.041-.381-.688-.381-.688-.023.011-.07-.012-.082-.041-.012-.024.012-.06.035-.077.031-.009.076-.013.108-.022l-.019-.042c-.015.009-.017.03-.038.034-.07 0-.164-.035-.223-.07-.091-.046-.192-.177-.223-.218-.024.024-.071.024-.106-.017-.047-.03-.058-.083-.023-.118.007-.006.022.004.033.002l.002-.008.247-.212.153.1-.024.153-.238.017c.037.032.09.076.156.124.117.106.212.094.212.094.07-.011.117-.088.117-.176v-.017c-.023-.005-.05-.008-.059-.042-.024-.041 0-.082.036-.1.023 0 .058.024.082.065 0 .037-.011.058-.028.073l.004.009c.047.065.129.112.212.112.141 0 .259-.112.259-.235 0-.047 0-.077-.024-.106l.004-.01c-.011-.003-.01-.018-.02-.023l-.266.133-.118-.118.059-.165.283.025c.004-.006.004-.014.01-.019l-.175-.229.153-.141.223.07-.066.299.003.003.251-.131.129.123-.059.147-.298-.032-.008.01.025.022v.042c0 .135.093.247.234.247.13 0 .247-.1.27-.212V9.1c-.015-.015-.034-.021-.034-.046-.013-.047.011-.088.034-.094.036 0 .071.03.083.089 0 .033-.023.046-.042.059l.007.023c.035.088.117.159.235.159.153 0 .282-.1.282-.241 0-.036-.012-.059-.012-.089l.059-.023.07.023c-.011.03-.011.053-.011.089 0 .141.117.241.247.241.117 0 .223-.071.258-.159.003 0 .007-.015.01-.024-.016-.013-.034-.025-.034-.058 0-.059.036-.089.071-.089.035.006.047.047.047.094 0 .028-.026.038-.047.051v.026c.012.112.141.212.259.212.141 0 .258-.112.258-.247v-.042l.026-.02c-.004-.005-.01-.007-.013-.012l-.295.032-.07-.147.117-.123.276.132.001-.001-.077-.302.224-.07.152.141-.17.235c.004.003.004.008.007.012l.281-.024.047.165-.106.118-.244-.122c-.012.01-.026.013-.039.017l.001.005c-.024.029-.024.059-.024.106 0 .123.118.235.259.235.083 0 .153-.047.2-.112l.013-.016c-.012-.017-.025-.033-.025-.066.012-.041.059-.065.094-.065.024.018.047.059.024.1 0 .033-.031.034-.057.04l-.002.019c0 .088.047.165.117.176 0 0 .106.012.224-.094.052-.046.098-.089.132-.121l-.261-.02-.036-.153.153-.1.231.208c.011-.001.017.001.028.002-.001-.002-.023-.099.011-.169.024-.064.071-.07.071-.07l.023.047c.024-.041.059-.059.118-.059s.13.059.13.076c0 0-.118.042-.165.077-.059.059-.153.165-.153.165zm-2.328-.371l-.023-.053-.036.053-.328.094-.083-.135.083-.141.309.088-.145-.312.002-.001c-.076-.082-.131-.194-.131-.335 0-.185.082-.309.184-.386-.025-.023-.031-.058-.042-.09h-.119v-.135h.127c.021-.044.051-.073.097-.095v-.211h-.13v-.13h.13v-.141h.152v.141H8.8v.13h-.142v.206c.052.021.086.052.109.1h.127v.135h-.119c-.011.034-.02.069-.046.092.093.078.165.201.165.384 0 .139-.046.25-.113.332l.007.004-.143.308.284-.084.106.141-.106.135-.318-.094zM5.62 10.53l-.002-.004c.001.006.003.013-.003.017-.007.006-.013.003-.019.002-.004.008-.022.039-.042.049-.016.008-.036.015-.051.015-.002 0-.002-.002-.003-.002l-.002.006-.08.178c-.048.013-.184.03-.309.03-.122 0-.26-.017-.312-.03-.033-.009-.082-.15-.082-.15-.005.003-.016-.002-.018-.009-.003-.005.002-.013.007-.016l.024-.005-.004-.009c-.004.002-.004.006-.008.007-.016 0-.036-.007-.049-.015-.02-.01-.042-.039-.048-.048v.001c-.006.005-.016.005-.023-.004-.011-.007-.013-.018-.006-.026h.008v-.001l.054-.046.033.021-.005.034-.052.003.034.027c.026.024.046.021.046.021.015-.003.026-.019.026-.038v-.004c-.005-.001-.011-.002-.013-.009-.005-.009 0-.018.007-.022.006 0 .013.005.018.014 0 .008-.002.013-.006.016l.001.002c.01.014.028.024.046.024.031 0 .056-.024.056-.051 0-.01 0-.017-.005-.023l.001-.002-.004-.005-.058.029-.026-.026.013-.036.062.006.002-.004-.038-.05.033-.031.049.015-.015.066h.001l.054-.028.029.026-.013.032-.065-.007-.002.002.005.005v.009c0 .03.021.054.052.054.028 0 .053-.022.058-.046v-.007c-.003-.003-.007-.004-.007-.01-.003-.01.002-.019.007-.02.008 0 .016.006.018.019 0 .007-.005.01-.009.013l.002.005c.007.019.025.035.051.035.033 0 .061-.022.061-.053 0-.008-.003-.013-.003-.019l.013-.005.015.005c-.002.006-.002.011-.002.019 0 .031.025.053.054.053.025 0 .048-.016.056-.035l.002-.005c-.004-.003-.007-.006-.007-.013 0-.013.007-.019.015-.019.008.001.01.01.01.02 0 .006-.005.009-.01.011v.006c.003.024.031.046.056.046.031 0 .056-.024.056-.054v-.009l.006-.004-.003-.003-.064.007-.015-.032.025-.026.06.028-.016-.066.048-.015.033.031-.036.051.001.003.061-.006.01.036-.023.026-.053-.027-.008.004v.001c-.005.006-.005.013-.005.023 0 .027.025.051.056.051.018 0 .033-.01.044-.024l.002-.004c-.002-.003-.005-.007-.005-.014.003-.009.013-.014.02-.014.006.004.011.013.006.022 0 .007-.007.007-.013.008v.005c0 .019.01.035.025.038 0 0 .023.003.049-.021l.028-.026-.056-.004-.008-.034.033-.021.05.045h.006s-.004-.021.003-.036c.005-.014.015-.016.015-.016l.005.011c.006-.009.013-.013.026-.013s.028.013.028.016c0 0-.025.009-.036.017l-.033.036zm-.506-.081l-.005-.011-.008.011-.071.021-.018-.03.018-.03.067.019-.031-.068c-.016-.018-.028-.042-.028-.073 0-.04.017-.067.04-.084-.006-.005-.007-.012-.01-.02h-.025v-.029h.027c.005-.009.011-.016.021-.02v-.046h-.028v-.029h.028v-.03h.033v.03h.031v.029h-.031v.044c.012.005.019.012.024.022h.028v.029H5.15c-.003.008-.005.015-.01.021.02.016.036.043.036.083 0 .03-.01.054-.025.072l.002.001-.031.067.061-.018.023.03-.023.03-.069-.021zm.565.446v.278c-.076 0-.134.057-.134.127 0 .009.002.018.005.029-.007-.002-.012-.002-.022-.002.029 0 .051.015.051.036 0 .021-.022.039-.051.039h-.795c-.029 0-.051-.018-.051-.039s.022-.036.051-.036c-.005 0-.015 0-.019.002.002-.011.004-.02.004-.029 0-.07-.059-.127-.134-.127h.003v-.278h1.092zm-.961 4.532c0-.009-.002-.018-.004-.029.004.002.014.002.019.002-.029 0-.051-.015-.051-.036 0-.021.022-.039.051-.039h.795c.029 0 .051.018.051.039s-.022.036-.051.036c.01 0 .015 0 .022-.002-.003.011-.005.02-.005.029 0 .07.058.127.134.127v.278H4.587v-.278h-.003c.075 0 .134-.057.134-.127zm1.852.399c-.172-.197-.275-.45-.275-.726v-1.593h.275v2.319zm.53.349c-.098-.032-.19-.075-.275-.129v-2.539H7.1v2.668zm.531.057c-.045.005-.09.008-.136.008-.047 0-.094-.003-.14-.008v-2.725h.276v2.725zm.528-3.473v.359h-1.33v-.359h.175v-.692h-.089v-.347h.161v-.119h-.072v-.174h.072v.046h.045v-.046h.084v.046h.043v-.046h.077v.174h-.077v.119h.166v-.376h-.089v-.176h.089v.046h.041v-.046h.076v.046h.043v-.046h.086v.176h-.086v.376h.163v-.119H7.66v-.174h.077v.046h.055v-.046h.075v.046h.043v-.046h.074v.174H7.91v.119h.163v.347h-.089v.692h.175zm.002 3.288c-.085.055-.178.098-.276.13v-2.67h.276v2.54zm.53-.947c0 .277-.103.53-.276.728v-2.321h.276V15.1zm1.742-3.773h.026l.004.03h.001s.024-.022.04-.007c.022.015.02.035.017.035 0 0-.017-.011-.026-.011-.008-.003-.02-.004-.029-.005l-.002.005c-.01.003-.015.003-.02-.002v-.002s-.035.002-.064.011c-.029.008-.055.024-.055.024-.017-.031-.063-.076-.113-.117-.053-.04-.108-.069-.144-.078 0 0 .01-.026.015-.057.004-.026-.004-.058-.005-.061-.01-.002-.01-.009-.005-.015l.003-.005c-.001-.007-.004-.019-.008-.027s-.019-.022-.019-.022.019-.008.041.006c.014.014.003.034-.001.04l.002.002.032-.002.003.025-.017.017-.02-.017c.004.022.014.054.037.05l.01-.004c-.005 0 0 .008.002.01.009.008.026.006.033-.008l.008-.007.006-.002-.038-.004v-.028l.024-.011.022.027.005-.037.024-.002.014.024-.029.022.032.005v.024l-.025.014-.017-.022.001.003c-.005 0-.005.005-.01.005-.007.015-.002.035.01.041.005.003.014.003.021 0 0 .006.003.014.008.02.012.007.028.007.043-.004l.01-.016-.032-.009.002-.027.029-.009.014.029.013-.036.024.006.012.024-.037.017.034.009-.005.023-.021.012-.015-.028-.014.016c-.01.013-.007.031.005.039.007.004.014.004.024.002-.003.008 0 .017.005.022.007.009.026.009.035-.002l.01-.004.009-.002-.035-.014.009-.026.027-.006.01.029.016-.032.029.007.005.027-.037.013.032.012-.01.024-.024.006-.014-.029v.001l-.01.008c-.009.013-.009.027 0 .032.005.004.012.005.012.005s-.002.002-.002.008c0 .018.035.021.057.021l-.019-.012.015-.023zM8.94 14.735c0-.056.038-.107.096-.124l-.004-.182-.08-.022-.002-.219.086-.03-.005-.188c-.05-.013-.089-.06-.089-.117 0-.036.019-.063.045-.083.024-.025.058-.041.097-.041.031 0 .059.012.082.03.02.012.037.029.045.053l.145-.002.002-.006.013-.071.233-.004.028.084.123-.005c.007-.027.028-.046.054-.058.02-.013.045-.021.07-.021.027 0 .052.009.073.023.026.012.047.032.057.06l.128-.002.013-.077.235-.004.028.084.142-.005c.006-.025.025-.043.048-.054l.001-.001.007-.003c.02-.013.044-.021.068-.021.041 0 .075.018.098.044.025.019.041.046.041.08 0 .057-.04.109-.095.125l.001.188.08.017.005.217-.007.002v.001l-.013.004-.069.023.005.187c.053.011.093.062.093.118 0 .057-.04.108-.098.124l.005.123.011.003.068.015-.007.22-.086.023c-.008.058-.027.114-.051.167.029.029.039.062.039.096-.005.036-.024.067-.048.089-.024.019-.058.031-.091.031-.07.033-.111.072-.156.104l-.001.002.001.009.021.066c-.059.049-.129.083-.198.11l-.003.002-.069-.063.004-.002c-.048.018-.097.033-.146.042-.009.055-.062.097-.129.097-.062 0-.117-.041-.137-.103-.045-.001-.103-.016-.153-.032l-.003-.001-.012.011-.045.051-.002-.002c-.07-.027-.139-.061-.199-.103l.014-.086c-.031-.024-.062-.053-.091-.082.012.006.022.013.031.019-.018-.017-.036-.033-.052-.052l-.028.006.001.001h-.016l-.011-.001-.013-.002c-.026-.003-.046-.01-.06-.022-.029-.022-.048-.056-.048-.089 0-.034.009-.067.033-.096-.019-.053-.036-.109-.048-.167l-.081-.018-.014-.218.086-.034-.005-.12c-.053-.01-.091-.061-.091-.118zm1.475 1.069l.001-.001-.003-.013.002.014zM9.084 13.8c-.031 0-.058.025-.058.053 0 .029.027.055.058.055.028 0 .052-.026.052-.055 0-.028-.024-.053-.052-.053zm-.044.82l.001-.001-.001.001zm.075-.271v-.117h-.023l-.051.003.004.119.07-.005zm-.022.008h.02l-.001-.002-.019.002zm.039-.387c-.005 0-.01 0-.015.003v.003l.01.01v.18l.081.017.003.217-.008.002v.001l-.011.003-.072.026.007.187c.038.006.067.039.081.078l.151-.003.012-.077.233-.004.032.088h.123c0-.007.005-.012.01-.019l-.004-.004-.018.004-.19-.225-.006.003-.067.036-.146-.166.041-.076-.125-.138.078.079-.2-.225zm-.012.26l.002.064v-.064H9.12zm.303.475l.006.07.128-.004-.006-.066h-.128zm.014-.395l.083.088.051-.047-.08-.089-.026.021-.028.027zm.014-.102l-.041-.044.04.044h.001zm.106.164l.019-.016-.001-.001-.018.017zm-.201-.472h-.001l.004.012-.003-.012zm.198-.079h-.127l.006.07.125-.003-.004-.067zm.004.072l-.012.001h.012v-.001zm.278.078l-.004-.002c-.037-.006-.071-.036-.085-.074l-.121.003-.003.012-.015.068h-.232l-.029-.084h-.139l-.016.028.001.002.03-.005.235.283.014-.006.057-.029.149.163-.003.006h.001l-.008.012-.035.058.043.047-.043-.042.196.216c.002-.003.007-.004.009-.006v-.008l-.007-.008.004-.281-.078-.021v-.215l.082-.023-.003-.094zm.301-.071h-.001l.007.017-.006-.017zm.193-.079h-.124l.004.071.124-.003-.004-.068zm.004.072l-.007.001h.007v-.001zm.302.265v-.188l-.017-.005-.003.004.001.017-.246.268.045.059-.004.005.002.003-.05.056-.094.113-.082-.036.003-.004.012-.014.11-.132-.058-.048.027-.031-.059.067-.045.054.063.044-.05.058.017-.023-.214.246.015.03h.002l.017-.025.109.01.013-.069.232-.004.029.084.144-.004c.005-.035.038-.068.081-.082l-.002-.182-.084-.022-.005-.219.091-.03zm-.229.154l.002.002v-.001l-.002-.001zm-.09-.005l-.002-.002-.041.05.043-.048zm-.118.147l-.003-.002-.001.001.004.001zm.074-.194l-.009-.008-.001.002.01.006zm.021-.063l.002-.002-.024-.008.022.01zm-.082.18l.02.016.002-.003-.022-.013zm-.086.027l-.001-.001-.028.032.029-.031zm.08.301l.004.07.126-.004-.006-.066h-.124zm.505-.473h-.02l-.053.003.003.119.07-.005v-.117zm0 .123l-.018.002h.018v-.002zm-.053 1.056l.009-.035c-.005.01-.007.022-.012.033l.003.002zm.021-.622c.029 0 .053-.025.053-.054 0-.007 0-.015-.004-.022h-.001c-.007-.016-.024-.03-.048-.03-.021 0-.038.014-.047.03-.005.006-.008.014-.008.022 0 .029.024.054.055.054zm-.112.578c.029-.037.041-.082.05-.127l-.077-.029.001-.005h-.001l.001-.002.004-.209.087-.024v-.118c-.036-.007-.07-.038-.082-.075l-.147.002-.003.012-.013.068h-.232l-.027-.082h.005v-.001h.029l.006-.001-.159.001-.015.023.003.003.021-.004.167.204.015-.006.055-.03.149.165-.002.003.002.001-.011.015-.032.06.155.168c.012-.01.029-.012.051-.012zm-.428-.57l-.004-.013h-.002l.006.013zm.029.319l.082.088.05-.051-.08-.087-.052.05zm.133.046l.002-.001v-.001l-.002.002zm-.08.66l.003-.001-.016-.023.013.024zm.008-.001c.036-.018.07-.036.101-.056l-.034-.06c-.034.022-.07.041-.106.057l.039.059zm.08-.109l-.005-.008-.001.001.006.007zm-.123.162l-.02-.017h-.002l.022.017zm-.259-.131c.036.006.067.033.082.066.035-.008.07-.019.104-.03l-.016-.075c.074-.03.142-.063.199-.107l.005.004.001.001.061.047c.031-.027.058-.054.086-.086-.033-.033-.033-.091-.004-.136l-.158-.169-.015.006-.062.033-.146-.165.045-.077.004.004.001-.001-.046-.051.017.016-.151-.173c-.005.002-.007.003-.012.003v.006l.007.009-.001.35.006.002.075.014.004.22-.09.028.004.261zm-.005-.436v-.016.016zm-.002-.688l.012.002.005-.006v-.009l.183-.21-.047-.064.146-.17.084.032-.004.005.004.002.051-.06-.067.082.275-.315c-.002-.005-.005-.011-.005-.014h-.005l-.007.009-.138-.002-.006.018-.014.059h-.228l-.03-.082-.125.004c-.01.033-.041.063-.082.076l.003.09.079.022v.215l-.083.022.001.063-.002-.034v.265zm0-.484h-.079v.118l.079-.005v-.113zm-.037.121h.03v-.002l-.03.002zm-.038 1.153l.073-.006v-.112h-.077l.004.118zm-.499.365l.009-.04-.005-.004-.004.044zm.052-.122l.017-.014.038-.041c.064.044.134.077.203.101l-.012.081c.039.013.082.02.123.026.009-.029.035-.053.071-.066l-.001-.258-.082-.023-.003-.218.086-.029.001.006h.001l-.002-.125.003.039v-.278l-.01-.004-.002.002v.009l-.182.202.006.009.044.053-.148.173-.087-.035.005-.006.009-.009.116-.137-.063-.043.005-.006-.049.055-.034.039.062.045-.004.005.001.001-.059.066-.14.164c.032.036.032.094-.002.136.028.026.056.053.089.08zm.197-.54l-.017.02.017-.02zm-.103.155l-.021-.009-.002.002.023.007zm.085-.263l-.008-.002.008.003v-.001zm-.034.065l-.006-.005.006.005zm-.041.13l.001.001-.001-.001zm-.104.014l-.009.01.009-.01zm-.271-.237l.081.013.012.217-.081.034c.009.038.019.079.036.116-.006-.008-.009-.015-.013-.023.005.014.009.029.015.042h.011l-.004-.006c.029-.002.043 0 .062.007l.005-.005.143-.164-.047-.066.149-.17.086.031-.003.004h.001l.189-.209-.01-.022h-.003l-.011.017-.12-.007-.003.009-.014.066h-.23l-.021-.083-.158.004c-.005.034-.036.065-.077.076l.005.119zm.082.169l.004.055-.004-.055zm-.132-.356c.031 0 .057-.025.057-.054 0-.007-.002-.015-.007-.022-.01-.016-.029-.03-.05-.03-.02 0-.041.014-.046.03-.005.006-.007.014-.007.022 0 .029.024.054.053.054zm2.744.625c0-.008-.003-.018-.005-.029.005.003.014.003.019.003-.028 0-.05-.016-.05-.036 0-.022.022-.04.05-.04h.796c.028 0 .05.018.05.04 0 .02-.022.036-.05.036.009 0 .014 0 .021-.003-.002.011-.005.021-.005.029 0 .071.058.127.135.127v.279h-1.093v-.279h-.002c.074 0 .134-.056.134-.127z"/>
    <path fill="#2F2AEC" fill-rule="evenodd" d="M12.795 16.404c-.053-.023-.118-.038-.187-.038-.072 0-.139.015-.187.038-.048.027-.117.042-.187.042-.077 0-.141-.017-.187-.044-.05-.021-.115-.036-.182-.036-.074 0-.134.015-.182.036-.053.029-.117.044-.192.044V15.87c.075 0 .139-.014.192-.04.048-.027.108-.04.182-.04.067 0 .132.015.182.037.046.026.11.043.187.043.07 0 .139-.014.187-.04.048-.025.115-.04.187-.04.069 0 .134.015.182.04.048.026.115.04.187.04V16.446c-.074 0-.139-.015-.182-.042zM9.884 14.86c-.072 0-.132-.056-.132-.122 0-.069.06-.125.132-.125.072 0 .129.056.129.125 0 .066-.057.122-.129.122zm-1.713-.741v-1.282h1.09v1.282h-1.09zm-.486-1.822c0-.056.033-.109.098-.109.064 0 .096.053.096.109v.205h-.194v-.205zm-.338.624c0-.031.021-.127.141-.127.129 0 .153.096.153.127v.197h-.294v-.197zm-.235-.624c0-.056.033-.109.098-.109.067 0 .096.053.096.109v.205h-.194v-.205zm-1.608 4.069c-.072 0-.139.015-.187.038-.048.027-.117.042-.187.042-.076 0-.141-.017-.186-.044-.051-.021-.115-.036-.182-.036-.075 0-.135.015-.183.036-.052.029-.117.044-.191.044V15.87c.074 0 .139-.014.191-.04.048-.027.108-.04.183-.04.067 0 .131.015.182.037.045.026.11.043.186.043.07 0 .139-.014.187-.04.048-.025.115-.04.187-.04.07 0 .134.015.182.04.048.026.115.04.187.04V16.446c-.074 0-.139-.015-.182-.042-.053-.023-.117-.038-.187-.038z"/>
    <path fill="#9D0025" fill-rule="evenodd" d="M13.013 13.228c0-.005.005-.01.005-.013.026-.154-.328-.336-.791-.414-.132-.023-.256-.035-.369-.035-.333.012-.62.062-.786.133v-.469c.17-.064.458-.105.789-.105.136-.004.29.007.455.036.513.084.908.292.874.459-.002.013-.177.408-.177.408zm-1.088-2.453c.077-.019.182-.031.293-.031.114 0 .215.012.294.031-.079.02-.18.03-.294.031-.111-.001-.216-.011-.293-.031zm-1.473 2.478s-.024-.002-.055-.025c-.029-.025-.015-.062-.015-.062l.039-.016c.007-.001.043.011.043.011s-.022.013-.029.033c-.005.021.017.059.017.059zm-.206-.023s-.019-.027-.029-.054c-.012-.024.017-.055.017-.055s.033.015.04.016c.008.003.034.026.034.026s-.034.003-.053.018c-.009.011-.009.049-.009.049zm-.127-.181s.016-.055.038-.067c.022-.015.06-.005.06-.005s.005.012.005.023c.005.016 0 .038 0 .038s-.022-.01-.043-.016c-.027-.003-.06.027-.06.027zm-.156-1.545l-.086-.009c-.029 0-.125.006-.156-.004-.017-.005-.058-.028-.091-.072-.036-.045-.089-.064-.089-.064s.053-.028.118-.017c.026.003.04.024.079.056.038.03.072.048.115.059.038.013.117.006.117.006l-.005.016-.002.029zm-2.7-1.082c.354-.087.836-.14 1.35-.14.525 0 .986.053 1.35.14-.364.096-.825.139-1.35.144-.514-.005-.996-.048-1.35-.144zm-2.111 2.379c-.465.078-.817.26-.788.414v.013s-.173-.395-.175-.408c-.034-.167.362-.375.874-.459.163-.029.321-.04.458-.036.328 0 .613.041.784.105l.004.469c-.167-.071-.457-.121-.786-.133-.115 0-.239.012-.371.035zm-.331-2.026c.077-.019.182-.031.294-.031.114 0 .214.012.293.031-.079.02-.179.03-.293.031-.112-.001-.217-.011-.294-.031zm-.076 3.044c.136-.05.246-.1.385-.163.408-.178.704-.385.679-.463.022.047.052.384.052.384.039.07-.239.274-.62.456-.12.06-.376.152-.496.195-.089.03-.168.074-.24.116.065.051.108.131.108.218 0 .086-.041.162-.108.215.038-.046-.007-.141-.084-.195-.052-.033-.084-.055-.091-.084l-.072-.386c-.019-.062.192-.187.487-.293zm1.066-.629l-.002.003-.003-.012.005.009zm3.402-1.013s.014.022.01.04c-.003.007-.008.03-.008.03s-.021-.011-.043-.012c-.019-.003-.043.018-.043.018s.005-.041.029-.06c.026-.022.055-.016.055-.016zm.041-.141l-.015.027c-.004.006-.021.022-.021.022s-.012-.018-.031-.022c-.015-.005-.048.004-.048.004s.024-.04.06-.047c.036-.006.055.016.055.016zm-.108-.447c0 .012.012.04.012.04s-.034-.008-.053-.008c-.024 0-.048.026-.048.026s-.002-.042.019-.066c.02-.025.053-.03.053-.03s.017.028.017.038zm-.026-.22c.043-.004.064.035.064.035l-.019.026c-.007.011-.036.024-.036.024s-.005-.03-.019-.036c-.012-.012-.062-.01-.062-.01s.028-.034.072-.039zm.177.999c-.017-.023-.014-.06-.014-.06s.019-.004.038-.004c.014 0 .033.02.033.02s-.019.016-.014.036c0 .012.014.037.014.037s-.035-.005-.057-.029zm.081-1.039c0 .021-.007.045-.007.045l-.038-.002c-.019-.003-.041-.02-.041-.02s.022-.018.031-.042c.007-.014-.009-.049-.009-.049s.055.012.064.068zm-.682 1.296c.431 0 .773.391.773.874 0 .481-.342.875-.773.875-.427 0-.777-.394-.777-.875 0-.483.35-.874.777-.874zm.766.17c.022-.024.067-.017.067-.017l.01.034c0 .013.007.038.007.038s-.026-.014-.053-.017c-.024-.002-.05.026-.05.026s0-.041.019-.064zm.113-.181c.033 0 .057.029.057.029s-.016.024-.024.03c-.007.008-.028.016-.028.016l-.022-.032c-.012-.014-.05-.01-.05-.01s.031-.031.067-.033zm.12.32s-.029.022-.032.037c-.004.022.008.042.008.042s-.034-.013-.053-.037c-.014-.025.007-.056.007-.056l.07.014zm1.878.247l-.002.009.002-.009zm.673.475c.142.063.252.113.388.163.295.106.504.231.484.293l-.071.386c-.005.029-.039.051-.087.084-.079.054-.124.149-.091.195-.062-.053-.1-.129-.1-.215 0-.087.043-.166.107-.217-.072-.042-.152-.086-.239-.117-.12-.043-.376-.135-.498-.195-.379-.182-.659-.386-.621-.456 0 0 .033-.347.053-.387-.037.076.269.287.675.466z"/>
    <path fill="#2F2AEC" fill-rule="evenodd" d="M8.171 13.48c0-.355.242-.643.544-.643.302 0 .546.288.546.643 0 .353-.244.639-.546.639-.302 0-.544-.286-.544-.639z"/>
    <path fill="#DE6BA8" fill-rule="evenodd" d="M10.32 11.395s0 .036.005.068c.005.032-.007.059-.005.078l.014.044c.008.014.012.044.012.044s-.021-.011-.033-.024c-.019-.016-.031-.023-.031-.023l.002.048c.005.017.012.045.029.061.012.016.038.044.045.064.012.02.01.067.01.067s-.022-.033-.043-.042c-.017-.005-.058-.029-.058-.029s.039.038.039.074-.017.076-.017.076-.017-.031-.041-.052c-.021-.022-.05-.042-.05-.042s.021.054.021.091c0 .038-.007.118-.007.118s-.019-.031-.036-.046c-.019-.014-.041-.027-.05-.036-.007-.011.024.029.026.056.005.024.015.11.089.222.048.067.115.18.263.143.149-.038.096-.237.063-.33-.029-.095-.046-.198-.043-.234 0-.035.028-.14.024-.161-.005-.018-.015-.096.007-.156.019-.066.033-.089.045-.117.007-.024.019-.04.022-.064.002-.02.002-.063.002-.063s.029.05.034.068c.007.018.007.071.007.071s.005-.053.05-.081c.039-.024.089-.052.101-.067.012-.013.014-.024.014-.024s-.002.091-.028.127l-.087.1s.034-.012.06-.016h.041s-.031.024-.067.081c-.036.054-.024.06-.05.106-.029.044-.051.046-.087.075-.05.041-.021.207-.017.23.005.028.099.229.101.277 0 .051.01.16-.077.232-.057.045-.148.045-.167.058-.019.013-.063.052-.063.138 0 .086.032.099.055.12.022.022.056.01.063.026.005.015.009.026.021.034.01.01.017.024.012.041-.002.017-.04.061-.057.089-.017.029-.041.107-.041.117 0 .012 0 .048.01.066 0 0 .043.051.012.06-.02.008-.036-.01-.046-.009-.024.006-.038.023-.045.02-.02-.001-.02-.011-.022-.033 0-.027 0-.035-.005-.035-.012 0-.016.006-.016.02-.005.015-.005.043-.017.043-.01 0-.029-.022-.039-.027-.012-.005-.04-.009-.043-.023 0-.011.019-.041.039-.046.019-.004.036-.013.024-.024-.012-.01-.024-.01-.039 0-.009.011-.036 0-.036-.014.003-.014.008-.032.003-.041 0-.007-.022-.024.005-.038.028-.016.043.014.069.008.029-.004.041-.014.05-.03.012-.017.007-.05-.009-.074-.017-.019-.039-.022-.043-.035-.01-.014-.02-.047-.02-.047s.008.06.003.068c-.003.007-.003.041-.003.041s-.019-.02-.033-.038c-.014-.016-.031-.065-.031-.065l-.003.064c0 .019.02.036.015.039-.007.009-.039-.032-.046-.039-.012-.007-.038-.029-.05-.049-.012-.023-.022-.058-.024-.069-.005-.013-.01-.061-.005-.076.007-.018.024-.052.024-.052h-.067c-.036 0-.062-.013-.077.012-.014.024-.007.074.01.138.019.065.026.094.024.104-.005.012-.029.04-.038.046-.008.003-.032.002-.044-.002-.009-.005-.024-.014-.057-.014-.034 0-.055.001-.067-.001-.015-.006-.041-.018-.055-.017-.015.006-.039.017-.031.036.009.03-.012.036-.024.034-.015-.001-.024-.007-.046-.012-.012-.005-.041 0-.038-.018.005-.021.009-.022.019-.037s.012-.023.002-.025c-.012 0-.024 0-.031.006-.012.006-.026.023-.041.016-.012-.006-.019-.02-.019-.05 0-.031-.033-.058-.002-.056.029.001.069.022.074.008.005-.018.003-.026-.012-.038-.019-.015-.041-.021-.017-.038.024-.016.027-.016.034-.025.009-.009.022-.039.036-.031.029.014 0 .034.031.067.029.033.048.046.098.04.048-.005.065-.011.065-.025 0-.015-.005-.04-.007-.051 0-.009.007-.045.007-.045s-.024.012-.029.027l-.021.037s-.008-.027-.003-.052l.003-.041c0-.015-.008-.046-.008-.046s-.007.035-.014.046c-.005.008-.007.051-.007.051s-.034-.027-.024-.073c.007-.037-.007-.084.007-.099.01-.017.034-.081.096-.082.062-.004.11.001.134 0 .022 0 .096-.014.096-.014s-.139-.072-.17-.094c-.034-.023-.089-.078-.101-.103-.017-.028-.031-.077-.031-.077s-.024.001-.048.013c-.026.014-.048.035-.062.05-.012.014-.034.05-.034.05s.005-.047.005-.06v-.042s-.019.061-.053.085c-.031.023-.067.055-.067.055l.003-.042c0-.007.009-.046.009-.046s-.024.033-.06.039c-.036.007-.086.006-.091.027-.002.022.01.052 0 .067-.007.017-.024.025-.024.025s-.019-.017-.035-.018c-.017-.001-.036.01-.036.01s-.015-.02-.01-.033c.005-.014.033-.032.029-.041-.01-.006-.031.003-.044.009-.014.006-.043.014-.038-.009.003-.021.01-.032.003-.049-.008-.017-.003-.026.007-.03.012-.003.053.003.057-.008.005-.011-.012-.023-.038-.03-.029-.005-.043-.022-.026-.036.012-.016.019-.018.026-.034.005-.011.009-.035.034-.021.026.01.019.039.047.048.024.009.092-.004.103-.011.015-.009.056-.04.072-.047.015-.008.075-.055.075-.055l-.048-.037c-.012-.016-.039-.045-.048-.051-.015-.007-.074-.028-.091-.032-.022-.001-.084-.023-.084-.023s.026-.007.038-.015c.007-.009.031-.027.041-.027l.012.003s-.055-.003-.07-.008c-.011-.003-.047-.024-.062-.024-.01 0-.038.005-.038.005s.033-.023.067-.029c.029-.004.053-.003.053-.003s-.048-.013-.058-.028c-.012-.015-.024-.038-.031-.049-.007-.01-.012-.026-.026-.028-.015 0-.041.018-.058.017-.014-.002-.026-.009-.026-.031-.003-.024 0-.017-.007-.026-.005-.014-.024-.04-.005-.046.021-.007.067.005.067-.002.007-.01-.022-.034-.041-.04-.019-.009-.045-.025-.029-.038.012-.014.029-.018.036-.029.01-.011.02-.046.036-.035.019.012.041.061.055.058.012-.005.012-.041.01-.056 0-.017 0-.041.017-.039.012.003.024.02.045.022.019 0 .053-.005.053.009-.005.015-.017.036-.034.052-.012.017-.019.051-.009.07.009.022.033.057.053.071.024.013.064.025.088.043.027.015.084.062.108.068.019.004.038.014.038.014s.027-.01.053-.01c.031 0 .105.005.132-.006.026-.01.062-.031.05-.055-.009-.024-.072-.045-.065-.066.005-.019.027-.02.063-.021.04 0 .086.007.096-.046.009-.049.012-.078-.041-.091-.048-.011-.089-.012-.096-.049-.01-.039-.019-.047-.007-.058.009-.008.031-.013.069-.017.034-.002.077-.002.091-.01.01-.008.015-.034.029-.045.014-.011.072-.018.072-.018s.072.034.134.082c.058.042.108.107.108.107v-.003z"/>
    <path fill="#C1B020" fill-rule="evenodd" d="M9.122 13.337c0 .01-.005.027-.012.037l-.021.047c-.01-.018-.029-.029-.046-.029-.031 0-.053.022-.053.05 0 .004.003.007.003.01h.06v.052h-.055l.038.075-.05-.019-.041.045-.039-.045-.05.019.041-.075h-.053v-.052h.058v-.01c0-.028-.024-.05-.051-.05-.021 0-.04.011-.048.029l-.021-.047c-.003-.01-.012-.027-.012-.037 0-.037.033-.067.069-.067.034 0 .06.019.072.044 0 0-.031-.057-.031-.122 0-.066.065-.136.065-.136s.067.07.067.136c0 .065-.026.122-.026.122.007-.025.038-.044.067-.044.036 0 .069.03.069.067zm-.323.371c.038 0 .071.027.071.065 0 .01-.007.027-.011.038l-.024.046c-.008-.017-.027-.026-.048-.026-.027 0-.048.02-.048.048v.012h.06v.051h-.056l.039.076-.05-.021-.041.045-.034-.045-.055.021.041-.076H8.59v-.051h.058c.002-.004.002-.009.002-.012 0-.028-.021-.048-.05-.048-.024 0-.041.009-.051.026l-.021-.046c-.005-.011-.012-.028-.012-.038 0-.038.031-.065.072-.065.033 0 .057.015.069.042 0 0-.028-.054-.028-.12 0-.067.062-.137.062-.137s.067.07.067.137c0 .066-.029.12-.029.12.012-.027.041-.042.07-.042zm-.218-.287c-.01-.018-.027-.029-.043-.029-.029 0-.053.022-.053.05 0 .004 0 .007.002.01h.055v.052h-.05l.041.075-.055-.019-.039.045-.036-.045-.052.019.035-.075h-.05v-.052h.058v-.01c0-.028-.019-.05-.048-.05-.024 0-.041.011-.048.029l-.024-.047c-.005-.01-.014-.027-.014-.037 0-.037.033-.067.074-.067.031 0 .06.019.069.044 0 0-.028-.057-.028-.122 0-.066.064-.136.064-.136s.07.07.07.136c0 .065-.031.122-.031.122.012-.025.035-.044.067-.044.04 0 .072.03.072.067 0 .01-.008.027-.012.037l-.024.047z"/>
</svg>
