<svg xmlns="http://www.w3.org/2000/svg" width="128" height="128">
    <path fill="#383838" fill-rule="evenodd" d="M116.123 84.581h-2.66c-1.27 0-2.474.764-2.904 1.996-.227.651-.485 1.288-.771 1.907-.535 1.162-.217 2.555.665 3.465l1.916 1.975c1.156 1.191 1.156 3.124 0 4.316l-2.854 2.941c-1.156 1.192-3.03 1.192-4.186 0l-1.916-1.975c-.882-.909-2.234-1.237-3.361-.685-.601.295-1.218.56-1.85.794-1.195.444-1.936 1.685-1.936 2.994v2.742c0 1.686-1.325 3.052-2.961 3.052H89.27c-1.635 0-2.961-1.366-2.961-3.052v-2.742c0-1.309-.741-2.55-1.936-2.994-.631-.234-1.249-.499-1.85-.794-1.126-.552-2.478-.224-3.36.685l-1.916 1.975c-1.156 1.192-3.031 1.192-4.187 0l-2.853-2.941c-1.157-1.192-1.157-3.125 0-4.316l1.915-1.975c.882-.91 1.201-2.303.665-3.465-.286-.619-.543-1.256-.77-1.907-.431-1.232-1.634-1.996-2.904-1.996h-2.66c-1.635 0-2.961-1.366-2.961-3.052v-4.16c0-1.686 1.326-3.052 2.961-3.052h2.66c1.27 0 2.473-.764 2.904-1.996.227-.651.484-1.288.77-1.907.536-1.162.217-2.555-.665-3.465l-1.915-1.975c-1.157-1.192-1.157-3.124 0-4.316l2.853-2.942c1.156-1.191 3.031-1.191 4.187 0l1.916 1.976c.882.909 2.234 1.237 3.36.685.601-.295 1.219-.56 1.85-.794 1.195-.444 1.936-1.685 1.936-2.994v-2.742c0-1.686 1.326-3.052 2.961-3.052h4.035c1.636 0 2.961 1.366 2.961 3.052v2.742c0 1.309.741 2.55 1.936 2.994 1.263.468 2.469 1.061 3.604 1.765l3.523-3.632c1.156-1.191 3.03-1.191 4.186 0l2.854 2.942c1.156 1.192 1.156 3.124 0 4.316l-1.916 1.975c-.882.91-1.2 2.303-.665 3.465.286.619.544 1.256.771 1.907.43 1.232 1.634 1.996 2.904 1.996h2.66c1.635 0 2.96 1.366 2.96 3.052v4.16c0 1.686-1.325 3.052-2.96 3.052zm-24.835-15.16c-5.364 0-9.728 4.498-9.728 10.028s4.364 10.028 9.728 10.028 9.727-4.498 9.727-10.028-4.363-10.028-9.727-10.028zm6.704-29.287c0-7.27-5.739-13.185-12.79-13.185H33.764c-7.051 0-12.79 5.915-12.79 13.185v37.768c0 7.271 5.739 13.185 12.79 13.185h27.01c.765 2.13 1.728 4.155 2.876 6.056H33.764c-10.293 0-18.665-8.631-18.665-19.241V40.134c0-10.61 8.372-19.241 18.665-19.241h51.438c10.293 0 18.665 8.631 18.665 19.241v8.346c-1.875-.811-3.84-1.443-5.875-1.882v-6.464z"/>
    <path fill="#A50034" fill-rule="evenodd" d="M66.664 49.838c-1.133 2.707-3.736 4.602-6.769 4.602-3.032 0-5.635-1.895-6.768-4.602H34.821v-6.056h18.306c1.133-2.706 3.736-4.602 6.768-4.602 3.033 0 5.636 1.896 6.769 4.602H84.97v6.056H66.664zM40.352 64.359c3.033 0 5.635 1.895 6.768 4.602h13.47c-.534 1.955-.915 3.974-1.098 6.056H47.12c-1.133 2.707-3.735 4.602-6.768 4.602-4.073 0-7.375-3.416-7.375-7.63s3.302-7.63 7.375-7.63z"/>
</svg>
