<svg xmlns="http://www.w3.org/2000/svg" width="28" height="28">
    <path fill="#383838" fill-rule="evenodd" d="M21.295 22.993h-4.527c-.947 0-1.715-.806-1.715-1.801v-4.266c0-.994.768-1.8 1.715-1.8h4.527c.947 0 1.715.806 1.715 1.8v4.266c0 .995-.768 1.801-1.715 1.801zm0-9.126h-4.527c-.947 0-1.715-.806-1.715-1.8V7.801c0-.994.768-1.8 1.715-1.8h4.527c.947 0 1.715.806 1.715 1.8v4.266c0 .994-.768 1.8-1.715 1.8zm-9.044 9.126H7.723c-.946 0-1.714-.806-1.714-1.801v-1.329c0-.994.768-1.8 1.714-1.8h4.528c.947 0 1.714.806 1.714 1.8v1.329c0 .995-.767 1.801-1.714 1.801zm0-6.19H7.723c-.946 0-1.714-.805-1.714-1.8V7.801c0-.994.768-1.8 1.714-1.8h4.528c.947 0 1.714.806 1.714 1.8v7.202c0 .995-.767 1.8-1.714 1.8zm-.001-9.001H7.723l.002 7.201 4.526-.001-.001-7.2z"/>
</svg>
