<svg xmlns="http://www.w3.org/2000/svg" width="128" height="128">
    <path fill="#383838" fill-rule="evenodd" d="M78.907 108.046H31.313c-11.222 0-20.354-9.027-20.354-20.121v-47.05c0-11.096 9.132-20.124 20.354-20.124h47.594c11.222 0 20.354 9.028 20.354 20.124v8.905l14.619-10.897c2.334-1.735 5.405-2.018 8.021-.73 2.612 1.287 4.236 3.881 4.236 6.768v38.956c0 2.886-1.624 5.481-4.236 6.768-2.616 1.292-5.687 1.006-8.017-.727L99.261 79.02v8.905c0 11.094-9.132 20.121-20.354 20.121zM31.313 28.631c-6.829 0-12.383 5.493-12.383 12.244v47.05c0 6.751 5.554 12.242 12.383 12.242h47.594c6.829 0 12.384-5.491 12.384-12.242v-47.05c0-6.751-5.555-12.244-12.384-12.244H31.313zm61.57 35.77l25.284 18.843V45.555L92.883 64.401z"/>
    <path fill="#A50034" fill-rule="evenodd" d="M47.357 50.926v26.946l23.605-13.473-23.605-13.473z"/>
</svg>
