<svg xmlns="http://www.w3.org/2000/svg" width="128" height="128">
    <path fill="#969696" fill-rule="evenodd" d="M108.019 111.78H89.05c-3.032 0-5.491-2.48-5.491-5.54V95.562c0-3.06 2.459-5.54 5.491-5.54h8.145v-5.516H67.201v5.516h6.783c3.033 0 5.491 2.48 5.491 5.54v10.678c0 3.06-2.458 5.54-5.491 5.54H55.016c-3.033 0-5.492-2.48-5.492-5.54V95.562c0-3.06 2.459-5.54 5.492-5.54h6.782v-5.516H31.805v5.516h8.144c3.033 0 5.491 2.48 5.491 5.54v10.678c0 3.06-2.458 5.54-5.491 5.54H20.981c-3.033 0-5.492-2.48-5.492-5.54V95.562c0-3.06 2.459-5.54 5.492-5.54h5.421V79.054h35.396v-7.941H45.44c-9.748 0-17.677-8.002-17.677-17.836V34.046c0-9.834 7.929-17.836 17.677-17.836h38.119c9.748 0 17.677 8.002 17.677 17.836v19.231c0 9.834-7.929 17.836-17.677 17.836H67.201v7.941h35.397v10.968h5.421c3.033 0 5.491 2.48 5.491 5.54v10.678c0 3.06-2.458 5.54-5.491 5.54zm-24.46-46.119c6.768 0 12.274-5.555 12.274-12.384V34.046c0-6.829-5.506-12.384-12.274-12.384H45.44c-6.767 0-12.274 5.555-12.274 12.384v19.231c0 6.829 5.507 12.384 12.274 12.384h38.119zM41.356 29.238h19.06v28.847h-19.06V29.238zm46.288 5.452H65.861v-5.452h21.783v5.452zm-8.169 11.697H65.861v-5.451h13.614v5.451zm2.723 11.698H65.861v-5.452h16.337v5.452z"/>
</svg>
