<svg xmlns="http://www.w3.org/2000/svg" width="24" height="24">
    <path fill-rule="evenodd" fill="#2D5A95" d="M23.983 12c0 6.618-5.365 11.983-11.983 11.983S.017 18.618.017 12 5.382.017 12 .017 23.983 5.382 23.983 12z"/>
    <path fill-rule="evenodd" fill="#F3D02F" d="M24 12.025c0 .805-.08 1.592-.231 2.353H11.983v9.614h-1.076a11.922 11.922 0 0 1-3.727-.96v-8.654H.231a12.082 12.082 0 0 1 .02-4.806H7.18V1.018a11.947 11.947 0 0 1 4.803-1.01v9.564h11.766c.164.792.251 1.612.251 2.453z"/>
</svg>
