<svg xmlns="http://www.w3.org/2000/svg" width="240" height="180">
    <defs>
        <linearGradient id="hn1h3mk09b" x1="0%" x2="0%" y1="100%" y2="0%">
            <stop offset="0%" stop-color="#B9B9B9"/>
            <stop offset="23%" stop-color="#767676"/>
            <stop offset="59%" stop-color="#333"/>
        </linearGradient>
        <linearGradient id="0v44l8gkdc" x1="0%" x2="0%" y1="100%" y2="0%">
            <stop offset="8%" stop-color="#BEBEBE"/>
            <stop offset="49%" stop-color="#E1E1E1"/>
            <stop offset="92%" stop-color="#DBDBDB"/>
        </linearGradient>
        <filter id="xsgqq8bhta" width="163" height="27" x="40" y="144" filterUnits="userSpaceOnUse">
            <feOffset dy="5" in="SourceAlpha"/>
            <feGaussianBlur result="blurOut" stdDeviation="3.162"/>
            <feFlood flood-color="#000" result="floodOut"/>
            <feComposite in="floodOut" in2="blurOut" operator="atop"/>
            <feComponentTransfer>
                <feFuncA slope=".49" type="linear"/>
            </feComponentTransfer>
            <feMerge>
                <feMergeNode/>
                <feMergeNode in="SourceGraphic"/>
            </feMerge>
        </filter>
    </defs>
    <path fill="none" fill-rule="evenodd" d="M0 0h240v180H0V0z"/>
    <g filter="url(#xsgqq8bhta)">
        <path fill="#4F4F4D" fill-rule="evenodd" d="M50.123 148.505h141.754c.483 0 .483.491.006 1.089l-4.348 5.455c-.415.52-1.107.937-1.55.937H56.015c-.443 0-1.135-.417-1.55-.937l-4.348-5.455c-.477-.598-.477-1.089.006-1.089z"/>
    </g>
    <path fill="#BBBBBC" fill-rule="evenodd" d="M49.743 147.542h142.514c.486 0 .461.493-.049 1.094l-4.629 5.454c-.44.518-1.151.933-1.594.933H56.015c-.443 0-1.155-.415-1.594-.933l-4.629-5.454c-.51-.601-.535-1.094-.049-1.094z"/>
    <path fill-rule="evenodd" d="M49.318 147.221h143.364c.489 0 .435.496-.112 1.099l-4.942 5.453c-.467.516-1.2.928-1.643.928H56.015c-.443 0-1.176-.412-1.644-.928l-4.942-5.453c-.547-.603-.6-1.099-.111-1.099z"/>
    <path fill="url(#hn1h3mk09b)" d="M49.318 147.221h143.364c.489 0 .435.496-.112 1.099l-4.942 5.453c-.467.516-1.2.928-1.643.928H56.015c-.443 0-1.176-.412-1.644-.928l-4.942-5.453c-.547-.603-.6-1.099-.111-1.099z"/>
    <path fill="#E3E4E5" fill-rule="evenodd" d="M23 24h196c5.523 0 10 4.477 10 10v106.04c0 5.523-4.477 10-10 10H23c-5.523 0-10-4.477-10-10V34c0-5.523 4.477-10 10-10z"/>
    <path fill="url(#0v44l8gkdc)" d="M23 24h196c5.523 0 10 4.477 10 10v106.04c0 5.523-4.477 10-10 10H23c-5.523 0-10-4.477-10-10V34c0-5.523 4.477-10 10-10z"/>
    <path fill="#FFF" fill-rule="evenodd" d="M23 24h196c5.523 0 10 4.477 10 10v106.04c0 5.523-4.477 10-10 10H23c-5.523 0-10-4.477-10-10V34c0-5.523 4.477-10 10-10z" opacity=".6"/>
    <path fill-rule="evenodd" d="M19.423 25.455h203.154c2.761 0 5 2.239 5 5v112.98c0 2.761-2.239 5-5 5H19.423c-2.761 0-5-2.239-5-5V30.455c0-2.761 2.239-5 5-5z"/>
</svg>
