<svg xmlns="http://www.w3.org/2000/svg" width="40" height="40">
    <path fill="#AFAFAF" fill-rule="evenodd" d="M33.319 35.005h-5.805c-.928 0-1.681-.779-1.681-1.74v-3.353c0-.961.753-1.74 1.681-1.74h2.492v-1.733h-9.179v1.733h2.076c.928 0 1.68.779 1.68 1.74v3.353c0 .961-.752 1.74-1.68 1.74h-5.806c-.928 0-1.68-.779-1.68-1.74v-3.353c0-.961.752-1.74 1.68-1.74h2.076v-1.733h-9.18v1.733h2.493c.928 0 1.681.779 1.681 1.74v3.353c0 .961-.753 1.74-1.681 1.74H6.68c-.928 0-1.68-.779-1.68-1.74v-3.353c0-.961.752-1.74 1.68-1.74h1.66v-3.445h10.833v-2.494h-5.006c-2.984 0-5.411-2.514-5.411-5.602v-6.04c0-3.089 2.427-5.602 5.411-5.602h11.666c2.984 0 5.41 2.513 5.41 5.602v6.04c0 3.088-2.426 5.602-5.41 5.602h-5.006v2.494H31.66v3.445h1.659c.929 0 1.681.779 1.681 1.74v3.353c0 .961-.752 1.74-1.681 1.74zM25.833 20.52c2.071 0 3.757-1.744 3.757-3.889v-6.04c0-2.145-1.686-3.89-3.757-3.89H14.167c-2.072 0-3.757 1.745-3.757 3.89v6.04c0 2.145 1.685 3.889 3.757 3.889h11.666zM12.917 9.081h5.833v9.06h-5.833v-9.06zm14.166 1.712h-6.666V9.081h6.666v1.712zm-2.5 3.674h-4.166v-1.712h4.166v1.712zm.834 3.674h-5v-1.713h5v1.713z"/>
</svg>
