<svg xmlns="http://www.w3.org/2000/svg" width="40" height="40">
    <defs>
        <filter id="a">
            <feFlood flood-color="#FFF" flood-opacity="1" result="floodOut"/>
            <feComposite operator="atop" in="floodOut" in2="SourceGraphic" result="compOut"/>
            <feBlend in="compOut" in2="SourceGraphic"/>
        </filter>
    </defs>
    <g filter="url(#a)">
        <path fill-rule="evenodd" fill="#AFAFAF" d="M33.319 35.005h-5.805c-.928 0-1.681-.779-1.681-1.74v-3.353c0-.962.753-1.741 1.681-1.741h2.492v-1.732h-9.179v1.732h2.075c.929 0 1.681.779 1.681 1.741v3.353c0 .961-.752 1.74-1.681 1.74h-5.805c-.928 0-1.681-.779-1.681-1.74v-3.353c0-.962.753-1.741 1.681-1.741h2.076v-1.732h-9.18v1.732h2.493c.928 0 1.68.779 1.68 1.741v3.353c0 .961-.752 1.74-1.68 1.74H6.68c-.928 0-1.68-.779-1.68-1.74v-3.353c0-.962.752-1.741 1.68-1.741h1.66v-3.444h10.833v-2.495h-5.007c-2.983 0-5.41-2.513-5.41-5.601V10.59c0-3.088 2.427-5.602 5.41-5.602h11.667c2.983 0 5.41 2.514 5.41 5.602v6.041c0 3.088-2.427 5.601-5.41 5.601h-5.006v2.495H31.66v3.444h1.659c.928 0 1.681.779 1.681 1.741v3.353c0 .961-.753 1.74-1.681 1.74zM25.833 20.52c2.071 0 3.757-1.745 3.757-3.889V10.59c0-2.145-1.686-3.889-3.757-3.889H14.166c-2.071 0-3.756 1.744-3.756 3.889v6.041c0 2.144 1.685 3.889 3.756 3.889h11.667zM12.916 9.08h5.834v9.06h-5.834V9.08zm14.167 1.713h-6.667V9.08h6.667v1.713zm-2.5 3.674h-4.167v-1.713h4.167v1.713zm.833 3.673h-5v-1.712h5v1.712z"/>
    </g>
</svg>
