<svg xmlns="http://www.w3.org/2000/svg" width="40" height="40">
    <defs>
        <filter id="a">
            <feFlood flood-color="#FFF" flood-opacity="1" result="floodOut"/>
            <feComposite operator="atop" in="floodOut" in2="SourceGraphic" result="compOut"/>
            <feBlend in="compOut" in2="SourceGraphic"/>
        </filter>
    </defs>
    <g filter="url(#a)">
        <path fill-rule="evenodd" fill="#AFAFAF" d="m34.789 17.798-6.079 13.62a.84.84 0 0 1-.785.548H6.207a.85.85 0 0 1-.785-1.154l6.079-13.62a.84.84 0 0 1 .785-.548h21.718a.85.85 0 0 1 .785 1.154zm-2.926-2.402H11.194a.957.957 0 0 0-.894.625l-4.511 9.832c-.189.413-.8.276-.8-.179V10.685c0-.94.752-1.702 1.679-1.702H14.7c.498 0 .971.224 1.29.613l1.792 2.179c.32.388.792.613 1.291.613h11.95c.928 0 1.68.762 1.68 1.702v.455c0 .47-.376.851-.84.851z"/>
    </g>
</svg>
