<svg xmlns="http://www.w3.org/2000/svg" width="40" height="40">
    <path fill="#969696" fill-rule="evenodd" d="M19.998 36c-8.824 0-16.003-7.18-16.003-16.004 0-8.824 7.179-16.004 16.003-16.004 8.825 0 16.004 7.18 16.004 16.004C36.002 28.82 28.823 36 19.998 36zm0-29.89c-7.656 0-13.884 6.229-13.884 13.886 0 7.656 6.228 13.885 13.884 13.885 7.657 0 13.885-6.229 13.885-13.885 0-7.657-6.228-13.886-13.885-13.886zm0 9.422c-1.375 0-2.49-1.115-2.49-2.491 0-1.375 1.115-2.491 2.49-2.491 1.376 0 2.491 1.116 2.491 2.491 0 1.376-1.115 2.491-2.491 2.491zm-1.209 1.129h2.419c.55 0 .996.446.996.996v10.788c0 .55-.446.996-.996.996h-2.419c-.55 0-.996-.446-.996-.996V17.657c0-.55.446-.996.996-.996z"/>
</svg>
