<svg xmlns="http://www.w3.org/2000/svg" width="216" height="25">
    <defs>
        <filter id="iv7c00uv1a">
            <feFlood flood-color="#FFF" flood-opacity="1" result="floodOut"/>
            <feComposite in="floodOut" in2="SourceGraphic" operator="atop" result="compOut"/>
            <feBlend in="compOut" in2="SourceGraphic"/>
        </filter>
    </defs>
    <g filter="url(#iv7c00uv1a)">
        <path fill="#767676" fill-rule="evenodd" d="M213.815 10.445c-.465-.138-.935-.207-1.412-.207-1.231 0-1.846.374-1.846 1.121 0 .249.072.465.216.648.145.184.396.367.754.551.357.183.856.406 1.497.667.615.249 1.146.509 1.591.777.446.269.787.593 1.027.972.238.381.357.859.357 1.435 0 1.049-.361 1.841-1.083 2.378-.721.538-1.735.806-3.041.806-.715 0-1.327-.053-1.835-.157-.509-.105-.977-.269-1.404-.491v-1.828c.44.223.957.422 1.554.599.596.177 1.177.266 1.742.266.753 0 1.296-.125 1.628-.374.333-.248.499-.583.499-1.002 0-.236-.062-.449-.188-.639-.125-.19-.361-.386-.706-.59-.345-.202-.85-.435-1.516-.697-.652-.262-1.202-.531-1.647-.806-.446-.275-.788-.602-1.026-.983-.239-.379-.358-.858-.358-1.434 0-.917.354-1.622 1.064-2.113.709-.491 1.647-.737 2.815-.737.614 0 1.195.066 1.741.197.547.131 1.077.314 1.592.55l-.659 1.592c-.44-.197-.892-.364-1.356-.501zM202.29 24.113c-.728 0-1.4-.052-2.014-.157-.615-.105-1.18-.269-1.695-.491v-1.828c.527.275 1.114.481 1.76.619.647.137 1.334.206 2.062.206.816 0 1.453-.245 1.912-.737.458-.491.687-1.182.687-2.073v-.354c0-.17.006-.393.019-.668.012-.275.025-.484.038-.629h-.076c-.351.551-.781.953-1.29 1.209-.508.255-1.095.383-1.76.383-1.281 0-2.282-.481-3.004-1.444-.722-.964-1.083-2.303-1.083-4.019 0-1.703.361-3.05 1.083-4.039.722-.989 1.723-1.484 3.004-1.484.652 0 1.242.131 1.77.393.527.263.972.662 1.337 1.199h.094l.226-1.395h1.62v10.73c0 3.053-1.564 4.579-4.69 4.579zm2.787-9.983c0-1.363-.22-2.336-.659-2.919-.439-.583-1.13-.874-2.071-.874-.791 0-1.397.324-1.817.972-.421.649-.631 1.596-.631 2.84 0 1.232.21 2.169.631 2.81.42.643 1.038.964 1.855.964.928 0 1.61-.266 2.043-.796.433-.531.649-1.399.649-2.604v-.393zm-10.845-1.337c0-1.651-.697-2.476-2.091-2.476-1.029 0-1.741.321-2.137.963-.395.642-.593 1.566-.593 2.771v5.345h-1.996V8.804h1.582l.282 1.415h.113c.327-.551.775-.956 1.347-1.219.571-.262 1.177-.393 1.817-.393 1.179 0 2.084.308 2.711.924.628.616.942 1.605.942 2.967v6.898h-1.977v-6.603zm-10.075-5.621c-.313 0-.583-.094-.809-.284-.226-.19-.339-.495-.339-.914 0-.432.113-.74.339-.924.226-.183.496-.275.809-.275.302 0 .565.092.792.275.226.184.338.492.338.924 0 .419-.112.724-.338.914-.227.19-.49.284-.792.284zm-4.161 12.421c-.552 0-1.057-.098-1.515-.295-.459-.196-.826-.537-1.102-1.022-.276-.484-.414-1.159-.414-2.024v-5.857h-1.412v-.943l1.487-.786.697-2.24h1.224v2.378h2.899v1.591h-2.899v5.818c0 .576.134 1.002.404 1.277.27.275.625.413 1.064.413.565 0 1.074-.085 1.526-.256v1.572c-.214.106-.502.194-.866.266-.365.072-.728.108-1.093.108zm-7.4-3.38c0 .576.134 1.002.404 1.277.27.275.625.413 1.064.413.565 0 1.073-.085 1.526-.256v1.572c-.214.106-.503.194-.866.266-.365.072-.728.108-1.093.108-.552 0-1.057-.098-1.515-.295-.459-.196-.826-.537-1.102-1.022-.276-.484-.414-1.159-.414-2.024v-5.857h-1.412v-.943l1.487-.786.697-2.24h1.224v2.378h2.899v1.591h-2.899v5.818zm-9.82.825c.521.577 1.252.865 2.193.865.653 0 1.234-.062 1.742-.187.509-.124 1.033-.311 1.573-.56v1.73c-.515.248-1.029.429-1.544.54-.515.111-1.13.167-1.846.167-.979 0-1.845-.203-2.598-.609-.754-.406-1.34-1.009-1.761-1.808-.42-.799-.631-1.795-.631-2.988 0-1.192.191-2.201.575-3.026.383-.825.916-1.458 1.6-1.896.684-.439 1.484-.659 2.401-.659 1.331 0 2.379.429 3.145 1.287.765.859 1.148 2.028 1.148 3.508v1.14h-6.816c.025 1.088.298 1.92.819 2.496zm4.001-4.029c-.012-.825-.204-1.496-.574-2.014-.37-.518-.944-.776-1.723-.776-.715 0-1.289.242-1.723.727-.433.485-.687 1.172-.763 2.063h4.783zm-13.048-2.269c.414.242.96.501 1.638.776.753.314 1.396.645 1.93.992.533.347.938.767 1.215 1.258.275.491.414 1.104.414 1.837 0 1.245-.434 2.221-1.3 2.929-.866.707-2.052 1.061-3.559 1.061-.74 0-1.431-.062-2.071-.186-.64-.125-1.186-.305-1.638-.541v-2.005c.502.236 1.092.449 1.77.639.678.19 1.368.285 2.071.285.904 0 1.582-.183 2.034-.55.452-.367.678-.858.678-1.474 0-.433-.1-.796-.301-1.091-.201-.295-.525-.57-.97-.825-.446-.256-1.026-.528-1.742-.816-.652-.262-1.237-.57-1.751-.924-.515-.354-.917-.792-1.205-1.317-.289-.523-.433-1.166-.433-1.925 0-1.153.401-2.057 1.204-2.713.804-.654 1.858-.982 3.164-.982.728 0 1.403.079 2.025.236.621.157 1.214.36 1.779.609l-.64 1.749c-.515-.223-1.039-.406-1.572-.55-.534-.144-1.084-.216-1.648-.216-.741 0-1.306.17-1.695.511-.39.341-.583.786-.583 1.336 0 .432.093.796.282 1.091.188.294.489.563.904.806zm-9.058-.226c-.515 0-.991.13-1.431.393-.439.262-.794.638-1.064 1.13-.27.491-.404 1.084-.404 1.778v5.581h-1.996V8.804h1.581l.264 1.886h.076c.313-.563.733-1.051 1.261-1.464.527-.413 1.136-.619 1.826-.619.402 0 .773.033 1.111.099l-.206 1.945c-.327-.092-.667-.137-1.018-.137zm-12.531 6.524c.521.577 1.252.865 2.193.865.653 0 1.234-.062 1.742-.187.509-.124 1.033-.311 1.573-.56v1.73c-.515.248-1.029.429-1.544.54-.515.111-1.13.167-1.846.167-.979 0-1.845-.203-2.598-.609-.754-.406-1.34-1.009-1.761-1.808-.42-.799-.631-1.795-.631-2.988 0-1.192.192-2.201.575-3.026.383-.825.916-1.458 1.6-1.896.685-.439 1.485-.659 2.401-.659 1.331 0 2.379.429 3.145 1.287.766.859 1.148 2.028 1.148 3.508v1.14h-6.816c.025 1.088.298 1.92.819 2.496zm4.001-4.029c-.012-.825-.204-1.496-.574-2.014-.37-.518-.944-.776-1.723-.776-.715 0-1.289.242-1.723.727-.433.485-.687 1.172-.762 2.063h4.782zm-10.562-7.655h1.996v14.042h-1.996V5.354zm-4.275 0h1.996v14.042h-1.996V5.354zm-6.478 14.239c-.916 0-1.729-.213-2.438-.639-.71-.426-1.269-1.048-1.676-1.867-.409-.818-.613-1.818-.613-2.997 0-1.755.428-3.108 1.281-4.058.854-.95 2.021-1.425 3.503-1.425.929 0 1.748.213 2.457.639.709.426 1.268 1.045 1.676 1.857.407.812.612 1.808.612 2.987 0 1.756-.434 3.112-1.299 4.068-.866.957-2.034 1.435-3.503 1.435zm2.1-8.284c-.433-.648-1.127-.972-2.081-.972-.942 0-1.626.324-2.052.972-.428.649-.641 1.576-.641 2.781 0 1.193.217 2.123.65 2.791.433.668 1.121 1.002 2.062 1.002.941 0 1.629-.334 2.062-1.002.433-.668.649-1.598.649-2.791 0-1.205-.216-2.132-.649-2.781zm-8.125-.795c-.515 0-.992.13-1.432.393-.439.262-.794.638-1.063 1.13-.27.491-.405 1.084-.405 1.778v5.581h-1.996V8.804h1.581l.264 1.886h.076c.313-.563.734-1.051 1.261-1.464.527-.413 1.136-.619 1.826-.619.402 0 .773.033 1.111.099l-.206 1.945c-.327-.092-.666-.137-1.017-.137zm-8.041 9.079c-.552 0-1.057-.098-1.515-.295-.459-.196-.826-.537-1.102-1.022-.276-.484-.414-1.159-.414-2.024v-5.857h-1.412v-.943l1.487-.786.697-2.24h1.224v2.378h2.899v1.591h-2.899v5.818c0 .576.134 1.002.404 1.277.27.275.625.413 1.064.413.565 0 1.074-.085 1.526-.256v1.572c-.214.106-.503.194-.866.266-.365.072-.728.108-1.093.108zm-7.419-6.8c0-1.651-.697-2.476-2.09-2.476-1.029 0-1.741.321-2.137.963-.396.642-.593 1.566-.593 2.771v5.345h-1.996V8.804h1.581l.283 1.415h.113c.326-.551.775-.956 1.346-1.219.571-.262 1.177-.393 1.817-.393 1.18 0 2.084.308 2.712.924.628.616.941 1.605.941 2.967v6.898h-1.977v-6.603zm-13.293 6.8c-.916 0-1.73-.213-2.438-.639-.71-.426-1.269-1.048-1.676-1.867-.409-.818-.613-1.818-.613-2.997 0-1.755.427-3.108 1.281-4.058.854-.95 2.021-1.425 3.503-1.425.928 0 1.748.213 2.456.639.71.426 1.268 1.045 1.676 1.857.408.812.613 1.808.613 2.987 0 1.756-.434 3.112-1.3 4.068-.866.957-2.034 1.435-3.502 1.435zm2.1-8.284c-.433-.648-1.127-.972-2.081-.972-.942 0-1.627.324-2.053.972-.427.649-.64 1.576-.64 2.781 0 1.193.216 2.123.649 2.791.433.668 1.121 1.002 2.062 1.002.942 0 1.63-.334 2.063-1.002.432-.668.649-1.598.649-2.791 0-1.205-.217-2.132-.649-2.781zm-9.726-4.068c-.503-.163-1.043-.245-1.62-.245-1.331 0-2.376.481-3.136 1.444-.76.963-1.139 2.283-1.139 3.96 0 1.664.352 2.974 1.055 3.931.703.956 1.77 1.434 3.201 1.434.577 0 1.133-.055 1.666-.167.534-.111 1.077-.258 1.629-.442v1.828c-.527.21-1.067.363-1.619.462-.552.098-1.193.147-1.921.147-1.381 0-2.527-.298-3.437-.894-.91-.596-1.588-1.435-2.033-2.516-.446-1.081-.668-2.348-.668-3.803 0-1.414.247-2.662.744-3.743.495-1.081 1.22-1.929 2.175-2.545.953-.616 2.12-.924 3.502-.924.678 0 1.34.076 1.986.226.647.151 1.239.364 1.779.639l-.753 1.768c-.439-.209-.91-.396-1.411-.56zm-15.837 5.532c0-1.637-.633-2.456-1.901-2.456-.904 0-1.551.292-1.939.874-.39.584-.585 1.419-.585 2.506v5.699h-1.976v-6.623c0-1.637-.641-2.456-1.921-2.456-.955 0-1.61.321-1.968.963-.358.642-.537 1.566-.537 2.771v5.345h-1.996V8.804h1.582l.282 1.415h.113c.314-.551.737-.956 1.272-1.219.533-.262 1.101-.393 1.704-.393 1.556 0 2.585.57 3.088 1.71h.151c.326-.576.778-1.005 1.356-1.287.576-.282 1.186-.423 1.826-.423 1.142 0 2.002.308 2.579.924.578.616.866 1.605.866 2.967v6.898h-1.996v-6.623zm-20.458 4.265c.521.577 1.252.865 2.193.865.653 0 1.234-.062 1.742-.187.509-.124 1.032-.311 1.572-.56v1.73c-.515.248-1.029.429-1.543.54-.515.111-1.13.167-1.846.167-.979 0-1.845-.203-2.598-.609-.754-.406-1.341-1.009-1.761-1.808-.421-.799-.631-1.795-.631-2.988 0-1.192.191-2.201.575-3.026.383-.825.916-1.458 1.6-1.896.684-.439 1.484-.659 2.401-.659 1.331 0 2.379.429 3.145 1.287.765.859 1.148 2.028 1.148 3.508v1.14h-6.816c.025 1.088.298 1.92.819 2.496zm4.001-4.029c-.012-.825-.204-1.496-.574-2.014-.37-.518-.945-.776-1.723-.776-.715 0-1.29.242-1.723.727-.433.485-.687 1.172-.763 2.063h4.783zm-9.434 6.584c-.553 0-1.058-.098-1.516-.295-.458-.196-.825-.537-1.101-1.022-.277-.484-.415-1.159-.415-2.024v-5.857H26.25v-.943l1.487-.786.697-2.24h1.224v2.378h2.9v1.591h-2.9v5.818c0 .576.135 1.002.405 1.277.27.275.624.413 1.064.413.565 0 1.073-.085 1.525-.256v1.572c-.214.106-.502.194-.866.266-.364.072-.728.108-1.092.108zm-9.217-7.035c.358.183.857.406 1.497.667.615.249 1.146.509 1.591.777.446.269.788.593 1.027.972.238.381.357.859.357 1.435 0 1.049-.361 1.841-1.083 2.378-.721.538-1.735.806-3.041.806-.715 0-1.327-.053-1.835-.157-.509-.105-.976-.269-1.404-.491v-1.828c.44.223.957.422 1.554.599.596.177 1.177.266 1.742.266.753 0 1.296-.125 1.628-.374.333-.248.499-.583.499-1.002 0-.236-.062-.449-.188-.639-.125-.19-.361-.386-.706-.59-.345-.202-.85-.435-1.515-.697-.653-.262-1.202-.531-1.648-.806-.446-.275-.788-.602-1.026-.983-.239-.379-.358-.858-.358-1.434 0-.917.354-1.622 1.064-2.113.709-.491 1.648-.737 2.815-.737.615 0 1.196.066 1.741.197.547.131 1.077.314 1.592.55l-.659 1.592c-.439-.197-.892-.364-1.356-.501-.464-.138-.935-.207-1.412-.207-1.231 0-1.846.374-1.846 1.121 0 .249.072.465.217.648.144.184.395.367.753.551zm-8.794 10.68c-.609.584-1.403.875-2.382.875-.314 0-.584-.017-.81-.049-.225-.033-.42-.069-.583-.108v-1.651c.125.026.288.052.489.079.201.026.408.039.622.039.577 0 1.041-.174 1.393-.521.351-.347.628-.803.829-1.366l.414-1.14L8.588 8.804h2.146l2.109 6.013c.163.459.308.898.433 1.317.126.419.213.839.264 1.258h.076c.061-.341.159-.74.291-1.199.131-.458.279-.924.442-1.395l1.997-5.994h2.146l-4.35 12.027c-.363 1.022-.85 1.825-1.459 2.407zM3.372 10.74c.415.242.961.501 1.638.776.754.314 1.396.645 1.93.992s.938.767 1.215 1.258c.276.491.415 1.104.415 1.837 0 1.245-.434 2.221-1.3 2.929-.866.707-2.052 1.061-3.559 1.061-.741 0-1.431-.062-2.072-.186-.64-.125-1.186-.305-1.638-.541v-2.005c.502.236 1.093.449 1.77.639.678.19 1.369.285 2.072.285.903 0 1.581-.183 2.033-.55.453-.367.678-.858.678-1.474 0-.433-.1-.796-.301-1.091-.201-.295-.525-.57-.969-.825-.447-.256-1.027-.528-1.742-.816-.653-.262-1.237-.57-1.751-.924-.515-.354-.917-.792-1.206-1.317-.289-.523-.433-1.166-.433-1.925 0-1.153.402-2.057 1.205-2.713.803-.654 1.858-.982 3.164-.982.728 0 1.402.079 2.024.236.621.157 1.215.36 1.78.609l-.641 1.749c-.515-.223-1.039-.406-1.572-.55-.534-.144-1.083-.216-1.647-.216-.742 0-1.307.17-1.696.511-.389.341-.583.786-.583 1.336 0 .432.094.796.283 1.091.188.294.489.563.903.806zm181.765 8.656h-1.996V8.804h1.996v10.592z"/>
    </g>
</svg>
