<svg xmlns="http://www.w3.org/2000/svg" width="40" height="40">
    <path fill-rule="evenodd" fill="#AFAFAF" d="m21.127 20.986-9.647 8.882-1.608-1.48L18.44 20.5l-8.568-7.888 1.608-1.48 9.647 8.882-.528.486.528.486z"/>
    <path fill-rule="evenodd" fill="#AFAFAF" d="m30.002 28.493-1.572 1.5-9.433-9.001.516-.492-.516-.493 9.433-9 1.572 1.5-8.377 7.993 8.377 7.993z"/>
</svg>
