<svg xmlns="http://www.w3.org/2000/svg" width="40" height="40">
    <path fill="#FFF" fill-rule="evenodd" d="M34.665 31.986l-2.358 2.33-5.993-5.929c-5.191 3.973-12.682 3.618-17.448-1.089-5.169-5.103-5.169-13.378 0-18.481 5.168-5.104 13.548-5.104 18.716 0 4.77 4.71 5.127 12.115 1.092 17.242l5.991 5.927zm-9.073-21.228c-4.068-4.023-10.662-4.023-14.729 0-4.068 4.024-4.068 10.548 0 14.572 4.067 4.023 10.661 4.023 14.729 0 4.067-4.024 4.067-10.548 0-14.572zm-8.279 11.027h2.339v2.31h-2.339v-2.31zm0-9.241h2.339v6.931h-2.339v-6.931z"/>
</svg>
