<svg xmlns="http://www.w3.org/2000/svg" width="40" height="40">
    <path fill="#AFAFAF" fill-rule="evenodd" d="M35.406 16.283l-2.765 2.241c.073.545.119 1.098.119 1.663 0 .582-.054 1.149-.129 1.71l2.765 2.242-.686 1.193.023.013-2.84 4.939-.023-.013-.685 1.189-3.302-1.278c-.891.703-1.874 1.295-2.938 1.736l-.54 3.462h-1.373v.027h-5.68v-.027h-1.369l-.532-3.408c-1.103-.442-2.122-1.045-3.047-1.764l-3.193 1.236-.686-1.193-.023.014-2.841-4.939.024-.014L5 24.122l2.627-2.129c-.085-.59-.137-1.191-.137-1.806 0-.612.055-1.209.138-1.798L5.01 16.267l.686-1.193-.023-.014 2.84-4.938.023.013.684-1.19 3.174 1.229c.931-.731 1.964-1.336 3.081-1.781l.526-3.367h1.373v-.027h5.68v.027h1.369l.537 3.435c1.075.448 2.067 1.052 2.968 1.765l3.267-1.265.686 1.194.023-.014 2.84 4.939-.023.013.685 1.19zm-5.352-4.335l-2.664 1.179-.176-.307c-1.241-1.196-2.784-2.072-4.5-2.521l-.302-2.789h-4.404l-.299 2.759c-1.671.417-3.18 1.243-4.414 2.373l-.272.473-2.664-1.179-2.203 3.829 2.349 1.727-.353.614c-.141.679-.217 1.382-.217 2.103 0 .729.086 1.434.233 2.117l.33.576-2.349 1.726 2.202 3.83 2.664-1.18.295.513c1.079.98 2.352 1.75 3.775 2.199h.594l.315 2.905h4.404l.315-2.905h.497c1.514-.478 2.873-1.302 3.988-2.378l.185-.321 2.664 1.179 2.203-3.83-2.35-1.726.12-.208c.201-.803.339-1.631.339-2.497 0-.843-.109-1.659-.301-2.443l-.15-.262 2.349-1.727-2.203-3.829zm-9.941 15.906c-4.186 0-7.58-3.408-7.58-7.613 0-4.204 3.394-7.613 7.58-7.613 4.187 0 7.58 3.409 7.58 7.613 0 4.205-3.393 7.613-7.58 7.613zm-.018-12.83c-2.833 0-5.129 2.307-5.129 5.153 0 2.846 2.296 5.153 5.129 5.153 2.832 0 5.128-2.307 5.128-5.153 0-2.846-2.296-5.153-5.128-5.153z"/>
</svg>
