<svg xmlns="http://www.w3.org/2000/svg" width="40" height="40">
    <defs>
        <filter id="a">
            <feFlood flood-color="#FFF" flood-opacity="1" result="floodOut"/>
            <feComposite operator="atop" in="floodOut" in2="SourceGraphic" result="compOut"/>
            <feBlend in="compOut" in2="SourceGraphic"/>
        </filter>
    </defs>
    <g filter="url(#a)">
        <path fill-rule="evenodd" fill="#AFAFAF" d="M37.006 27.17h-.895c-.428 0-.833.254-.978.663a7.016 7.016 0 0 1-.259.634c-.18.385-.073.848.224 1.15l.645.657a1.026 1.026 0 0 1 0 1.433l-.961.978a.985.985 0 0 1-1.41 0l-.645-.656c-.297-.303-.752-.412-1.131-.228-.202.098-.41.186-.623.264-.402.147-.652.559-.652.994v.911c0 .56-.446 1.014-.996 1.014h-1.359c-.55 0-.996-.454-.996-1.014v-.911c0-.435-.25-.847-.652-.994a6.725 6.725 0 0 1-.623-.264c-.379-.184-.835-.075-1.132.228l-.644.656a.985.985 0 0 1-1.41 0l-.961-.978a1.026 1.026 0 0 1 0-1.433l.645-.657c.297-.302.405-.765.224-1.15a7.016 7.016 0 0 1-.259-.634c-.145-.409-.55-.663-.978-.663h-.895c-.551 0-.997-.454-.997-1.014v-1.382c0-.56.446-1.014.997-1.014h.895c.428 0 .833-.254.978-.663.076-.216.163-.428.259-.634.181-.386.073-.849-.224-1.151l-.645-.656a1.026 1.026 0 0 1 0-1.433l.961-.978a.985.985 0 0 1 1.41 0l.644.656c.297.302.753.411 1.132.228.202-.098.41-.186.623-.264.402-.147.652-.56.652-.994v-.911c0-.56.446-1.014.996-1.014h1.359c.55 0 .996.454.996 1.014v.911c0 .434.25.847.652.994.425.156.832.353 1.214.586l1.185-1.206a.985.985 0 0 1 1.41 0l.961.978a1.026 1.026 0 0 1 0 1.433l-.645.656c-.297.302-.404.765-.224 1.151.096.206.183.418.259.634.145.409.55.663.978.663h.895c.551 0 .997.454.997 1.014v1.382c0 .56-.446 1.014-.997 1.014zm-8.36-5.036c-1.806 0-3.275 1.494-3.275 3.331s1.469 3.331 3.275 3.331c1.805 0 3.274-1.494 3.274-3.331s-1.469-3.331-3.274-3.331zM11.46 20.452c1.024 0 1.903.63 2.286 1.529h4.552a11.2 11.2 0 0 0-.371 2.012h-4.181a2.492 2.492 0 0 1-2.286 1.528c-1.376 0-2.492-1.135-2.492-2.534 0-1.4 1.116-2.535 2.492-2.535zm6.603-8.365c1.024 0 1.903.63 2.285 1.529h6.187v2.012h-6.187a2.489 2.489 0 0 1-2.285 1.529 2.491 2.491 0 0 1-2.286-1.529H9.591v-2.012h6.186a2.491 2.491 0 0 1 2.286-1.529zm12.84.317c0-2.415-1.932-4.38-4.306-4.38H9.28c-2.374 0-4.306 1.965-4.306 4.38v12.547c0 2.415 1.932 4.38 4.306 4.38h9.093a11.2 11.2 0 0 0 .968 2.012H9.28c-3.465 0-6.284-2.867-6.284-6.392V12.404c0-3.525 2.819-6.392 6.284-6.392h17.317c3.465 0 6.283 2.867 6.283 6.392v2.773c-.631-.27-1.292-.48-1.977-.626v-2.147z"/>
    </g>
</svg>
