<svg xmlns="http://www.w3.org/2000/svg" width="27.75" height="37.75">
    <path fill="#7C7C7C" fill-opacity="0" fill-rule="evenodd" stroke="#FFF" stroke-width="1.5" d="M13.484 1.344C19.292 1.344 24 6.052 24 11.859c0 5.808-4.708 10.516-10.516 10.516S2.968 17.667 2.968 11.859c0-5.807 4.708-10.515 10.516-10.515z"/>
    <path fill="#FFF" fill-rule="evenodd" d="M13.469 7.437c2.45 0 4.437 1.987 4.437 4.438 0 2.451-1.987 4.437-4.437 4.437-2.451 0-4.438-1.986-4.438-4.437 0-2.451 1.987-4.438 4.438-4.438z"/>
    <text fill="#FFF" font-family="Arial" font-size="11" font-weight="bold" transform="matrix( 1.485, 0, 0, 1.48499999284744,1.82091999999989, 36.9399999713897)">
        OK
    </text>
</svg>
