<svg xmlns="http://www.w3.org/2000/svg" width="41" height="34">
    <path fill="#FFF" fill-rule="evenodd" d="M35.396 18.286L22.276 6.619c-.584-.546-1.483-.546-2.068 0L6.715 18.286c-.459.43-.611 1.102-.382 1.692.228.59.79.979 1.415.979h2.201v7.087H32.16v-7.087h2.202c.625 0 1.187-.389 1.416-.979.229-.59.076-1.262-.382-1.692zm-9.993 6.255h-8.635v-3.52h8.635v3.52z"/>
</svg>
