<svg xmlns="http://www.w3.org/2000/svg" width="59" height="25">
    <text fill="#FFF" font-family="Arial" font-size="18" transform="matrix( 1.485, 0, 0, 1.48499999284744,8.05999999999995, 20.6524999535084)">
        3
    </text>
    <text fill="#FFF" font-family="Arial" font-size="8" font-weight="bold" transform="matrix( 1.485, 0, 0, 1.48499999284744,25.2785974999999, 20.9549999785423)">
        DEF
    </text>
</svg>
