<svg xmlns="http://www.w3.org/2000/svg" width="35" height="37">
    <path fill="#FFF" fill-rule="evenodd" d="M11.108 18.491l6.418 8.847c.738.911 2.369 1.016 3.229.234.86-.781 1.055-2.298.317-3.21l-4.544-5.913 4.44-5.795c.725-.922.464-2.532-.408-3.302-.871-.767-2.357-.642-3.082.281l-6.37 8.858z"/>
</svg>
