{
	"(30,60,120,180) Min": "(30, 60, 120, 180) min",
	"10 sec Auto Refresh": "Automatsko osvježavanje nakon 10 sek.",
	"10Min": "10 min",
	"15Min": "15 min",
	"1Hour": "1 Sat",
	"30sec": "30 sek",
	"5 min. Refresh": "Osvježavanje nakon 5 min.",
	"5Min": "5 Min",
	"AC Current": "Izmjenična električna struja",
	"ADD": "DODAJ",
	"AM": "prijepodne",
	"Abnormally High": "Abnormalno visoko",
	"Account": "Račun",
	"Add": "Dodaj",
	"Add Media": "Dodaj medijsku datoteku",
	"Add Mini Module": "Dodavanje Mini modula",
	"Add Slave Controller": "Dodaj sporedni upravljač",
	"Add Unit": "Dodaj jedinicu",
	"Addis Ababa": "Adis Abeba",
	"Advanced Setting": "Napredne postavke",
	"Afghanistan": "Afganistan",
	"Africa": "Afrika",
	"Albania": "Albanija",
	"Algeria": "Alžir",
	"Algiers": "Alžir",
	"All": "Sve",
	"All Units": "Sve jedinice",
	"All setting data will be deleted.": "Brišu se svi podaci postavki.",
	"Almaty": "Almati",
	"Amman": "Aman",
	"An error occurred while submitting the form.": "Došlo je do pogreške pri slanju formulara.",
	"Anadyr": "Anadir",
	"Application Launch Mode": "Način lansiranja aplikacije",
	"Application Type": "Vrsta aplikacije",
	"Application Upgrade": "Nadogradnja aplikacije",
	"Applications will be upgraded from {text}": "Aplikacije će se nadograditi s {text}",
	"Apply": "Primijeni",
	"Apply to All Units": "Primijeni na sve jedinice",
	"Apply?": "Primijeniti?",
	"April": "Travanj",
	"Are you sure to change Settings?": "Želite li promijeniti postavke?",
	"Are you sure to change the calibration settings of this unit?": "Jeste li sigurni da želite promijeniti postavke kalibracije ove jedinice?",
	"Are you sure to reboot?": "Jeste li sigurni da želite ponovno pokrenuti?",
	"Are you sure to use": "Jeste li sigurni da želite koristiti",
	"Are you sure to use Wi-Fi DHCP?": "Jeste li sigurni da želite upotrebljavati Wi-Fi DHCP?",
	"Are you sure to use Wired DHCP?": "Jeste li sigurni da želite upotrebljavati žičani DHCP?",
	"Are you sure you want to change type?": "Jeste li sigurni da želite promijeniti vrstu?",
	"Armenia": "Armenija",
	"Ashgabat": "Ašgabat",
	"Asia": "Azija",
	"Asmara": "Asmera",
	"Aspect Ratio when rotated": "Format slike pri rotaciji",
	"Athens": "Atena",
	"August": "Kolovoz",
	"Australia": "Australija",
	"Austria": "Austrija",
	"Auto": "Automatski",
	"Auto Detect": "Automatsko prepoznavanje",
	"Auto Refresh": "Automatsko osvježavanje",
	"Auto Set": "Automatsko postavljanje",
	"Available to Installation": "Dostupno za instalaciju",
	"Azerbaijan": "Azerbajdžan",
	"Azores": "Azori",
	"Back": "Natrag",
	"Backlight": "Pozadinsko osvjetljenje",
	"Backup Media Upload": "Učitavanje medija sigurnosne kopije",
	"Backup file Thumbnail Image": "Minijatura sigurnosne kopije",
	"Backup via storage": "Sigurnosno kopiranje putem pohrane",
	"Baghdad": "Bagdad",
	"Bahamas": "Bahami",
	"Bahrain": "Bahrein",
	"Bangladesh": "Bangladeš",
	"Basic Setting": "Osnovna postavka",
	"Beijing": "Peking",
	"Beirut": "Bejrut",
	"Belarus": "Bjelorusija",
	"Belgium": "Belgija",
	"Belgrade": "Beograd",
	"Bhutan": "Butan",
	"Bishkek": "Biškek",
	"Black Level": "Zacrnjenost",
	"Bolivia": "Bolivija",
	"Bootloader Version": "Bootloader verzija",
	"Bosnia": "Bosna",
	"Both": "Oboje",
	"Botswana": "Bocvana",
	"Bottom": "Dno",
	"Bottom Left": "Dolje lijevo",
	"Bottom Light": "Dolje desno",
	"Bottom Right": "Dolje desno",
	"Box Name": "Naziv okvira",
	"Brightness": "Svjetlina",
	"Brightness Scheduling": "Raspored svjetline",
	"Browse": "Pregledavanje",
	"Browse a file to upload": "Pregledajte datoteku za učitavanje",
	"Brussels": "Bruxelles",
	"Bucharest": "Bukurešt",
	"Budapest": "Budimpešta",
	"Bulgaria": "Bugarska",
	"CANCEL": "PONIŠTI",
	"CIS": "ZND",
	"COLOR TRANSPARENT LED": "PROZIRNI LED U BOJI",
	"Cairo": "Kairo",
	"Calibrate Unit": "Kalibriraj jedinicu",
	"Calibrated": "Kalibrirano",
	"Calibration": "Kalibracija",
	"Cambodia": "Kambodža",
	"Cameroon": "Kamerun",
	"Canada": "Kanada",
	"Canary Islands": "Kanari",
	"Cancel": "Otkaži",
	"Cannot connect to the USB": "USB nije moguće otkriti",
	"Cannot start S/W update. Check xxx file please.": "Nije moguće pokrenuti softversko ažuriranje. Provjerite xxx datoteku.",
	"Cape Verde": "Zelenortska Republika",
	"Capture time Interval": "Interval vremena snimanja",
	"Capture time interval": "Capture time interval",
	"Category": "Kategorija",
	"Cayman Islands": "Kajmanski otoci",
	"Central African Republic": "Srednjoafrička Republika",
	"Chad": "Čad",
	"Change Password": "Promijeni lozinku",
	"Changing Time may cause you to be logged out.": "Promjena vremena može uzrokovati odjavu.",
	"Changing Time zone may cause you to be logged out.": "Promjena vremenske zone može uzrokovati odjavu.",
	"Charts": "Tablice",
	"Check Temperature sensors. -40 means errors when reading Temperature sensors": "Provjerite temperaturne senzore. -40 znači pogreške pri očitanju temperaturnih senzora",
	"Check for Update": "Provjeri ima li ažuriranja",
	"Check whether two passwords are same": "Provjerite jesu li dvije lozinke iste.",
	"Check your URL input": "Provjerite unos URL-a",
	"CheckScreen": "Provjera zaslona",
	"Checking for update...": "Provjera ažuriranja...",
	"Chile": "Čile",
	"China": "Kina",
	"Chisinau": "Kišinjev",
	"Christmas Island": "Kiritimati",
	"Cinema": "Kino",
	"City": "Grad",
	"Close": "Zatvori",
	"Closed": "Zatvoreno",
	"Closed Loop Fan": "Ventilator zatvorene petlje",
	"ClosedLoop": "Zatvorena petlja",
	"Colombia": "Kolumbija",
	"Colombo": "Kolamba",
	"Color": "Boja",
	"Color Temperature": "Temperatura boje",
	"ColorRead": "Čitanje boja",
	"Column": "Stupac",
	"Columns": "Stupci",
	"Component": "Komponenta",
	"Confirm": "Potvrdi",
	"Confirm Account Number": "Potvrda broja računa",
	"Confirm New Password": "Potvrdi novu lozinku",
	"Confirm the account number you entered.": "Potvrdite broj računa koji ste unijeli.",
	"Connected": "Spojeno",
	"Content Rotation": "Rotacija sadržaja",
	"Content Rotation Status": "Status rotacije sadržaja",
	"Content Rotation is ON": "Uključena je rotacija sadržaja.",
	"Content is rotated": "Sadržaj je zakrenut",
	"Contents rotation is ON": "Rotacija sadržaja je UKLJ.",
	"Continent": "Kontinent",
	"Contrast": "Kontrast",
	"Control": "Upravljanje",
	"Control Item": "Stavka upravljanja",
	"Control Manager": "Upravitelj kontrole",
	"Control Type": "Vrsta kontrole",
	"Cool": "Hladno",
	"Copenhagen": "Kopenhagen",
	"Costa Rica": "Kostarika",
	"Country/Territory": "Država/teritorij",
	"Croatia": "Hrvatska",
	"Cuba": "Kuba",
	"Current": "Struja",
	"Current Fan RPM": "Aktualni OPM ventilatora",
	"Current Password": "Trenutačna lozinka",
	"Current Picture mode does not support changing color temperature. Please select \"Expert\" of \"Calibration\" mode to adjust the color temperature.": "Aktualni način slike ne podržava promjenu temperature boje. Odaberite način \"Stručnjak\" ili \"Kalibracija\" da biste prilagodili temperaturu boje.",
	"Current Ver.": "Trenutačna verzija",
	"Cut Bottom Edge": "Izreži donji rub",
	"Cut Edge": "Rezni rub",
	"Cut Left Edge": "Izreži lijevi rub",
	"Cut Right Edge": "Izreži desni rub",
	"Cut Top Edge": "Izreži gornji rub",
	"Cyprus": "Cipar",
	"Czech": "Češki",
	"Côte d'Ivoire": "Obala Bjelokosti",
	"DHCP State": "DHCP stanje",
	"DNS Server": "DNS poslužitelj",
	"DOWNLOAD LOG": "DNEVNIK PREUZIMANJA",
	"DOWNLOAD LOG FILE": "Datoteka dnevnika preuzimanja",
	"Daisy Direction": "Daisy smjer",
	"Daisy Start by": "Daisy početak prema",
	"Damascus": "Damask",
	"Dashboard": "Upravljačka ploča",
	"Data is not collected now. wait for maximum 60 seconds": "Podaci se sada ne prikupljaju. Pričekajte najviše 60 sekundi.",
	"Date": "Datum",
	"Day": "Dan",
	"Daylight Saving Time": "Ljetno računanje vremena",
	"Days": "Dani",
	"December": "Prosinac",
	"Default": "Zadano",
	"Delete": "Izbriši",
	"Delete All": "Izbriši sve",
	"Delete Mini Module": "Brisanje Mini modula",
	"Delete Slave Controller": "Izbriši sporedni upravljač",
	"Delete Unit": "Izbrišite jedinicu",
	"Delete?": "Izbrisati?",
	"Democratic Republic Of The Congo": "Demokratska Republika Kongo",
	"Denmark": "Danska",
	"Details of Unit": "Pojedinosti jedinice",
	"Device Control": "Kontrola uređaja",
	"Digital Board Reboot": "Ponovno pokretanje digitalne ploče",
	"Disconnected": "Odspojeno",
	"Display": "Prikaz",
	"Display & Sound": "Prikaz i zvuk",
	"Display & sound": "Prikaz i zvuk",
	"Distance to main screen": "Udaljenost do glavnog zaslona",
	"Do not reboot in Device page.": "Nemojte ponovno pokretati na stranici Uređaj.",
	"Do you want to delete all schedules?": "Želite li izbrisati sve rasporede?",
	"Do you want to delete the schedule?": "Želite li izbrisati raspored?",
	"Do you want to delete this LED FPGA Update file?": "Želite li izbrisati datoteku za nadogradnju LED FPGA?",
	"Do you want to delete this S/W Update file?": "Želite li izbrisati ovu datoteku ažuriranja softvera?",
	"Do you want to install this S/W Update file?": "Želite li instalirati ovu datoteku ažuriranja softvera?",
	"Do you want to proceed?": "Želite li nastaviti?",
	"Do you want to process?": "Želite li obraditi?",
	"Do you want to set the time or date automatically?": "Želite li automatski postaviti vrijeme ili datum?",
	"Dominica": "Dominika",
	"Dominican Republic": "Dominikanska Republika",
	"Done": "Završeno",
	"Door": "Vrata",
	"Door Control": "Kontrola vrata",
	"Door Monitor": "Monitor vrata",
	"Door Open": "Otvorena vrata",
	"Door Sensor": "Senzor vrata",
	"Door Sensor Status": "Status senzora vrata",
	"Door xxx is opened": "Vrata xxx su otvorena",
	"Download failed, try again.": "Preuzimanje nije uspjelo, pokušajte ponovno.",
	"Draw": "Crtaj",
	"Duplicated Unit ID": "Duplicirani ID jedinice",
	"Duration": "Trajanje",
	"Dushanbe": "Dušanbe",
	"Dynamic Brightness": "Dinamička svjetlina",
	"Dynamic Brightness Control": "Kontrola dinamičke svjetline",
	"Easter Island": "Uskršnji otok",
	"Ecuador": "Ekvador",
	"Edit": "Uredi",
	"Egypt": "Egipat",
	"El Salvador": "Salvador",
	"Enable or disable Signage 365 Care services on this device": "Uključite ili isključite mogućnosti Cjelogodišnje usluge uređaja za oglašavanje na ovom uređaju",
	"End": "Kraj",
	"End Time": "Vrijeme završetka",
	"Energy Saving": "Ušteda energije",
	"Enter Account Number": "Unos Broja Kanala",
	"Enter the account number to activate Signage 365 Care.": "Unesite broj računa za aktivaciju cjelogodišnje usluge uređaja za oglašavanje.",
	"Equatorial Guinea": "Ekvatorijalna Gvineja",
	"Eritrea": "Eritreja",
	"Error": "Pogreška",
	"Estonia": "Estonija",
	"Ethiopia": "Etiopija",
	"Europe": "Europa",
	"Event": "Događaj",
	"Exit": "Izlaz",
	"Expert": "Stručno",
	"Export": "Izvoz",
	"External": "Vanjsko",
	"External Input Rotation is ON": "UKLJUČENA je vanjska ulazna rotacija",
	"EyeQ sensor": "EyeQ senzor",
	"FPGA Version": "Inačica FPGA-a",
	"Factory Reset": "Vraćanje na tvorničke postavke",
	"Fail": "Neuspješno",
	"Fail Over": "Kraj pogreške",
	"Fail to update. Check xxx file please.": "Ažuriranje nije bilo uspješno. Provjerite xxx datoteku.",
	"Failed to update LED FPGA with xxx. Check the file please": "Neuspjelo ažuriranje LED FPGA pomoću xxx. Provjerite datoteku.",
	"Failed to update LED FPGA with xxx. Check the status of the unit controller.": "LED FPGA nije se uspio ažurirati uz pomoć xxx. Provjerite status upravljača jedinice.",
	"Failed to update fan micom with xxx. Check the file please": "Neuspjelo ažuriranje fan micom pomoću xxx. Provjerite datoteku.",
	"Failed, try again.": "Neuspješno, pokušajte ponovno.",
	"Fan": "Ventilator",
	"Fan Micom S/W Updating": "Ažuriranje softvera Fan Micom",
	"Fan Micom Update?": "Ažurirati Fan Micom?",
	"Fan Micom Version": "Fan Micom verzija",
	"Fan RPM": "Br. okretaja ventilatora po minuti",
	"Fan RPM history is not yet collected": "Još nije prikupljena povijest broja okretaja ventilatora",
	"Fan Status": "Status ventilatora",
	"February": "Veljača",
	"Fiji": "Fidži",
	"File Name": "Naziv datoteke",
	"File Select": "Odabir datoteke",
	"File Upload Progress": "Tijek učitavanja datoteke",
	"File upload via mobile devices does not support.": "Prijenos datoteke putem mobilnih uređaja nije podržan.",
	"Filter": "Filtar",
	"Finland": "Finska",
	"First Use": "Prva upotreba",
	"Flash memory is not enough.": "Izmjenjiva memorija nije dovoljna.",
	"For your security, you must change the default password.": "Zbog sigurnosti morate promijeniti zadanu lozinku.",
	"Frame": "Okvir",
	"France": "Francuska",
	"French Polynesia": "Francuska Polinezija",
	"Friday": "Petak",
	"Full": "Brzo",
	"Fully Qualified Domain Name": "Potpuno kvalificiran naziv domene",
	"Gambia": "Gambija",
	"Game": "Igra",
	"Gamut Matrix": "Gamut matrica",
	"Gateway": "Pristupnik",
	"Georgia": "Gruzija",
	"Germany": "Njemačka",
	"Ghana": "Gana",
	"Go To First Use": "Idi na Prvu upotrebu",
	"Godthab": "Nuuk",
	"Greece": "Grčka",
	"Greenland": "Grenland",
	"Guatemala": "Gvatemala",
	"Guatemala City": "Guatemala",
	"Guinea": "Gvineja",
	"Guinea Bissau": "Gvineja Bisau",
	"Guyana": "Gvajana",
	"H Sharpness": "Oštrina H",
	"Height": "Visina",
	"High": "Visoka",
	"High1": "Visina1",
	"High2": "Visina2",
	"History is not yet collected": "Povijest još nije prikupljena",
	"Ho Chi Minh": "Ho-Ši-Min",
	"Home": "Kod kuće",
	"Horizontal": "Vodoravno",
	"Hour": "Sat",
	"Hours": "Sati",
	"Humidity": "Vlažnost",
	"Hungary": "Mađarska",
	"IP Address": "IP adresa",
	"Iceland": "Island",
	"If the pitch is changed, all of the configuration settings are initialized.": "Ako se promijeni udaljenost piksela, pokreću se sve postavke konfiguracije.",
	"Image": "Slika",
	"Impact": "Utjecaj",
	"Incorrect Password entered. Please try again.": "Unesena je netočna lozinka. Pokušajte ponovno.",
	"India": "Indija",
	"Indonesia": "Indonezija",
	"Information": "Informacije",
	"Input": "Ulaz",
	"Input 6 or more characters": "Unos 6 ili više znakova",
	"Input Direction": "Smjer ulaza",
	"Input Password": "Unesite lozinku",
	"Input Priority": "Prioritet ulaza",
	"Input Priority Setting": "Postavka prioriteta unosa",
	"Input Signage Name please.": "Unesite naziv uređaja za oglašavanje.",
	"Input Window": "Ulazni prozor",
	"Install": "Instaliraj",
	"Install Failed.": "Neuspješna instalacija.",
	"Install Succeeded": "Uspješna instalacija.",
	"Installation Failed": "Instalacija neuspješna",
	"Installation Menu": "Izbornik instalacije",
	"Installing…": "Instalacija...",
	"Internet Not available": "Internet nije dostupan",
	"Internet available": "Internet je dostupan",
	"Invalid day value": "Neispravni dan",
	"Invalid hour value": "Neispravni sat",
	"Invalid minute value": "Neispravna minuta",
	"Invalid month value": "Neispravni mjesec",
	"Invalid new password. The password must be at least 8 characters.": "Neispravna nova lozinka. Lozinka mora imati barem 8 znakova.",
	"Invalid new password. You must use a mixture of characters, numbers and special characters.": "Neispravna nova lozinka. Morate upotrijebiti različite znakove, brojeve i posebne znakove.",
	"Invalid schedule.": "Neispravan raspored.",
	"Invalid value": "Vrijednost nije valjana",
	"Invalid year value": "Neispravna godina",
	"Iraq": "Irak",
	"Ireland": "Irska",
	"Irregular": "Neredovno",
	"Israel": "Izrael",
	"Issue History": "Povijest problema",
	"Italy": "Italija",
	"Jamaica": "Jamajka",
	"January": "Siječanj",
	"Jerusalem": "Jeruzalem",
	"July": "Srpanj",
	"June": "Lipanj",
	"Kamchatka": "Kamčatka",
	"Kazakhstan": "Kazahstan",
	"Kenya": "Kenija",
	"Khartoum": "Kartum",
	"Kiev": "Kijev",
	"Korea": "Koreja",
	"Korea, Republic of": "Republika Koreja",
	"Krasnoyarsk": "Krasnojarsk",
	"Kuwait": "Kuvajt",
	"Kuwait City": "Kuwait",
	"Kyrgyzstan": "Kirgistan",
	"LED FPGA Update file list": "Popis datoteka za nadogradnju LED FPGA",
	"LED FPGA Updating ......": "Nadogradnja LED FPGA ......",
	"LED Features": "Značajke LED-a",
	"LED Film Settings": "Postavke LED filma",
	"LED Open Detection": "Otkrivanje otvorenog LED-a",
	"LED Settings": "LED postavke",
	"LED Unit": "LED jedinica",
	"LED Unit Status": "Status LED jedinice",
	"LG Control Manager": "LG upravitelj kontrola",
	"Landscape": "Pejzaž",
	"Language": "Jezik",
	"Large": "Veliko",
	"Latvia": "Latvija",
	"Layout": "Raspored",
	"Layout Editor": "Uređivač rasporeda",
	"Lebanon": "Libanon",
	"Left": "Lijevo",
	"Left Port": "Lijevi priključak",
	"Lesotho": "Lesoto",
	"Liberia": "Liberija",
	"Libya": "Libija",
	"Liechtenstein": "Lihtenštajn",
	"Lisbon": "Lisabon",
	"Lithuania": "Litva",
	"Loading": "Učitavanje",
	"Loading…": "Učitavanje…",
	"Local": "Lokalno",
	"Local Application Upgrade": "Nadogradnja lokalne aplikacije",
	"Location": "Mjesto",
	"Log": "Dnevnik",
	"Log Report": "Izvješće zapisnika",
	"Log after Power Up": "Zapis nakon napajanja",
	"Login": "Prijava",
	"Login is required.": "Potrebna je prijava.",
	"Logout": "Odjava",
	"Low": "Nisko",
	"Luxembourg": "Luksemburg",
	"MAC Address": "MAC adresa",
	"MONO TRANSPARENT LED": "MONO PROZIRNI LED",
	"Macedonia": "Makedonija",
	"Madagascar": "Madagaskar",
	"Main": "Glavni",
	"Malawi": "Malavi",
	"Malaysia": "Malezija",
	"Maldives": "Maldivi",
	"Manage": "Upravljanje",
	"Manual": "Ručno",
	"March": "Ožujak",
	"Marquesas": "Markižansko otočje",
	"Marshall Islands": "Maršalovi Otoci",
	"Master": "Glavno",
	"Mauritius": "Mauricijus",
	"Max Backlight": "Maksimalno pozadinsko osvjetljenje",
	"Maximum": "Maksimum",
	"May": "Svibanj",
	"Media": "Mediji",
	"Media Library": "Biblioteka medija",
	"Media file List": "Popis medijske datoteke",
	"Media file Upload (XXX GB available)": "Učitavanje medijske datoteke (XXX GB slobodno)",
	"Medium": "Srednje",
	"Menu Language": "Jezik izbornika",
	"Mexico": "Meksiko",
	"Mexico City": "Ciudad de México",
	"Micom Progress": "Micom tijek",
	"Micom Update": "Micom ažuriranje",
	"Micom Version": "Micom verzija",
	"Middle East": "Bliski Istok",
	"Min Backlight": "Minimalno pozadinsko osvjetljenje",
	"Mini Module": "Mini modul",
	"Mins": "Min",
	"Model Name": "Naziv modela",
	"Module Calibration": "Kalibracija modula",
	"Module Calibration is modified. Exit without saving?": "Kalibracija modula je izmijenjena. Izlazak bez spremanja?",
	"Module Size": "Veličina modula",
	"Modules": "Moduli",
	"Monaco": "Monako",
	"Monday": "Ponedjeljak",
	"Mongolia": "Mongolija",
	"Mono": "Mono",
	"Montenegro": "Crna Gora",
	"Month": "Mjesec",
	"More": "Više",
	"Morocco": "Maroko",
	"Moscow": "Moskva",
	"Mozambique": "Mozambik",
	"Muscat": "Muskat",
	"Mute": "Isključi zvuk",
	"Myanmar": "Mjanmar",
	"NG": "ND",
	"NOT AVAILABLE": "NIJE DOSTUPNO",
	"Name": "Ime",
	"Namibia": "Namibija",
	"Natural Mode": "Prirodni način",
	"Natural Size": "Prirodna veličina",
	"Netherlands": "Nizozemska",
	"Network": "Mreža",
	"Network Settings": "Postavke mreže",
	"New Caledonia": "Nova Kaledonija",
	"New Password": "Nova lozinka",
	"New Zealand": "Novi Zeland",
	"Newer Ver.": "Novija verzija",
	"Next": "Sljedeće",
	"Next Day": "Sljedeći dan",
	"Nicaragua": "Nikaragva",
	"Nicosia": "Nikozija",
	"Nigeria": "Nigerija",
	"No": "Ne",
	"No Signal": "Nema signala",
	"No backup files exist in storage device.": "Na uređaju za pohranu ne postoje sigurnosne kopije.",
	"None": "Ništa",
	"Normal": "Uobičajena",
	"North America": "Sjeverna Amerika",
	"North Korea": "Sjeverna Koreja",
	"Norway": "Norveška",
	"Not Connected": "Nije spojeno",
	"November": "Studeni",
	"Number": "Broj",
	"OK": "U REDU",
	"OLED LIGHT": "Svjetlo OLED",
	"OLED Light": "Svjetlo OLED",
	"OSD Portrait Mode": "OSD način portreta",
	"OSD Portrait Mode is ON": "Način portreta OSD uključen",
	"OSD Portrait Status": "OSD status portreta",
	"OSD Portrait mode is xxx": "OSD portretni način je xxx",
	"OSD Rotation is ON": "OSD rotacija je UKLJ.",
	"OVERWRITE": "PISANJE PREKO SADRŽAJA",
	"Occurrence Time": "Vrijeme događanja",
	"Oceania": "Oceanija",
	"October": "Listopad",
	"Off": "Isključeno",
	"Off Until Reset": "Isključeno do ponovnog postavljanja",
	"Off When Open": "Isključeno kad je otvoreno",
	"On": "Uključeno",
	"On When Open": "Uključeno kad je otvoreno",
	"Open Loop Fan": "Ventilator otvorene petlje",
	"OpenLoop": "Otvorena petlja",
	"Opened": "Otvoreno",
	"Original": "Izvorno",
	"Output Window": "Izlazni prozor",
	"OverHeat": "Pregrijavanje",
	"Overwrite": "Presnimi",
	"Overwrite xxx?": "Prebrisati xxx?",
	"Overwrite?": "Prebrisati?",
	"PM": "poslijepodne",
	"PM Mode": "PM način",
	"Pacific": "Pacifik",
	"Panama City": "Panama",
	"Panel": "Zaslon",
	"Papua New Guinea": "Papua Nova Gvineja",
	"Paraguay": "Paragvaj",
	"Paris": "Pariz",
	"Password": "Lozinka",
	"Password is incorrect. Please Try Again": "Lozinka je neispravna. Pokušajte ponovno.",
	"Password is incorrect. Please try again.": "Lozinka je neispravna. Pokušajte ponovno.",
	"Philippines": "Filipini",
	"Physical Layout": "Fizički izgled",
	"Picture": "Slika",
	"Picture Mode": "Način slike",
	"Picture Settings": "Postavke slike",
	"Pitch": "Udaljenost piksela",
	"Pixel Pitch": "Udaljenost piksela",
	"Play": "Reproduciraj",
	"Play via URL": "Reprodukcija putem URL-a",
	"Please Keep this Signage on.": "Držite uređaj za oglašavanje uključenim.",
	"Please check the installation file and try again.": "Provjerite instalacijsku datoteku i pokušajte ponovno.",
	"Please check the schedule again.": "Ponovno provjerite raspored.",
	"Please choose a file to upload": "Odaberite datoteku za učitavanje",
	"Please choose a video file to upload": "Odaberite videodatoteku za učitavanje.",
	"Please don't turn off the device and wait until the installation is completed.": "Nemojte isključiti uređaj i pričekajte da se instalacija dovrši.",
	"Please login again.": "Ponovno se prijavite.",
	"Please select city": "Odaberite grad.",
	"Please select country": "Odaberite državu.",
	"Please upload S/W update file via PC browser.": "Prenesite datoteku za nadogradnju softvera putem preglednika računala.",
	"Poland": "Poljska",
	"Port": "Priključak",
	"Port Number": "Broj priključka",
	"Port Selection": "Odabir priključka",
	"Port Settings": "Postavke priključka",
	"Portrait": "Portret",
	"Portrait Mode": "Portretni način",
	"Position": "Položaj",
	"Power": "Napajanje",
	"Power Off": "Isključivanje",
	"Power Off Management": "Upravljanje isključivanjem napajanja",
	"Power Off(Default)": "Isključivanje napajanja (zadano)",
	"Prague": "Prag",
	"Prev DAY": "Prijašnji DAN",
	"Prev.": "Pret.",
	"Preview": "Pregled",
	"Priority": "Prioritet",
	"Property": "Svojstvo",
	"Puerto Rico": "Portoriko",
	"Pyongyang": "Pjongjang",
	"Qatar": "Katar",
	"REMOTE": "DALJINSKI",
	"REMOVE": "UKLONI",
	"RESET": "PONOVNO POSTAVLJANJE",
	"RPM": "Br. okretaja po min.",
	"Rearrange": "Ponovno rasporedi",
	"Reboot": "Ponovno pokretanje",
	"Reboot?": "Ponovno pokrenuti?",
	"Rebooting": "Ponovno pokretanje",
	"Reference Resolution": "Referentna razlučivost",
	"Refresh": "Osvježi",
	"Regular": "Redovno",
	"Rejected": "Odbijeno",
	"Remote": "Udaljeno",
	"Rename": "Preimenuj",
	"Rename or Overwrite?": "Preimenuj ili presnimi?",
	"Rename to {{filename (2)}} or Overwrite?": "Preimenuj u {{filename (2)}} ili presnimi?",
	"Republic Of The Congo": "Republika Kongo",
	"Require Network Settings": "Potrebne su mrežne postavke",
	"Reset": "Ponovno postavljanje",
	"Reset All": "Poništi sve",
	"Reset Mute": "Utišavanje ponovnog postavljanja",
	"Reset Mute' is Needed": "Potrebno je utišavanje ponovnog postavljanja",
	"Resolution": "Razlučivost",
	"Right": "Desno",
	"Right Port": "Desni priključak",
	"Riyadh": "Rijad",
	"Romania": "Rumunjska",
	"Rome": "Rim",
	"Row": "Red",
	"Rows": "Redovi",
	"Rows per Page": "Broj redova po stranici",
	"Run Time": "Vrijeme izvođenja",
	"Run Time Since Last Power Up": "Vrijeme rada od posljednjeg napajanja",
	"Russia": "Rusija",
	"Rwanda": "Ruanda",
	"S/W Update": "Ažuriranje softvera",
	"S/W Update File list": "Popis datoteka ažuriranja softvera",
	"S/W Update file list": "Popis datoteka ažuriranja softvera",
	"S/W Updating": "Ažuriranje softvera",
	"S/W Updating......": "Nadogradnja softvera......",
	"S/W Ver.": "Ver. softvera",
	"S/W update file does not exist.": "Datoteka za nadogradnju softvera ne postoji.",
	"SCREEN": "ZASLON",
	"SELECT TRANSPARENT LED TYPE": "ODABERITE PROZIRNU VRSTU LED-a",
	"SETTING": "POSTAVKE",
	"SI App / Play via URL": "Aplikacija SI / reprodukcija putem URL-a",
	"SI Server IP": "SI IP poslužitelja",
	"Saint Lucia": "Sveta Lucija",
	"Sakhalin": "Sahalin",
	"Saturday": "Subota",
	"Saudi Arabia": "Saudijska Arabija",
	"Save": "Spremi",
	"Save as PC Time": "spremi kao Vrijeme osobnog računala",
	"Schedule Time": "Vrijeme rasporeda",
	"Screen": "Zaslon",
	"Screen Configuration": "Konfiguracija zaslona",
	"Screen Fault Detection": "Otkrivanje pogreške zaslona",
	"Screen OFF & Backlight(Outdoor Mode)": "Isključen zaslon i pozadinsko osvjetljenje (Vanjski način rada)",
	"Screen Off": "Zaslon isključen",
	"Screen Off & Backlight": "Isključivanje zaslona i pozadinsko osvjetljenje",
	"Screen Off & Backlight On": "Isključivanje zaslona i uključivanje pozadinskog osvjetljenja",
	"Screen Off Always": "Isključivanje zaslona uvijek",
	"Screen Power Off": "Isključivanje zaslona",
	"Screen Rotation is ON": "UKLJUČENA je rotacija zaslona",
	"ScreenOn": "Zaslon uključen",
	"Secure Connection": "Sigurna veza",
	"Select File": "Odabir datoteke",
	"Select Input Source": "Odabir izvora unosa",
	"Select LED Film Pitch": "Odaberi udaljenost piksela na LED filmu",
	"Select a file to upload": "Odaberite datoteku za učitavanje.",
	"Select media file": "Odabir medijske datoteke",
	"Select the type of transparent LED Signage you installed. You can also change the type in [Control] Tab.": "Odaberite vrstu prozirnog LED uređaja za oglašavanje koji ste instalirali. Također možete promijeniti vrstu u kartici [Kontrola].",
	"Sender Position": "Položaj odašiljača",
	"Sender Resolution": "Razlučivost odašiljača",
	"Sensor": "Senzor",
	"Seoul": "Seul",
	"September": "Rujan",
	"Serbia": "Srbija",
	"Serial Number": "Serijski broj",
	"Server": "Poslužitelj",
	"Server Status": "Status poslužitelja",
	"Set": "Postavite",
	"Set Automatically": "Postavi automatski",
	"Set ID": "Postavite ID",
	"Set Master": "Postavi glavni uređaj",
	"Set Slave": "Postavi sporedni uređaj",
	"Set URL": "Postavi URL",
	"Setting": "Postavka",
	"Sharpness": "Oštrina",
	"Show Color": "Prikaz boje",
	"Sierra Leone": "Sijera Leone",
	"Sigane Name is Too Long": "Predugačak je naziv uređaja za oglašavanje",
	"Signage 365 Care": "Cjelogodišnja usluga uređaja za oglašavanje",
	"Signage 365 Care App": "Aplikacija Cjelogodišnja usluga uređaja za oglašavanje",
	"Signage Name": "Naziv uređaja za oglašavanje",
	"Since Last Power Up": "Vrijeme od posljednjeg napajanja",
	"Singapore": "Singapur",
	"Size": "Veličina",
	"Slave": "Sporedno",
	"Slovakia": "Slovačka",
	"Slovenia": "Slovenija",
	"Small": "Malo",
	"Sofia": "Sofija",
	"Software Version": "Inačica softvera",
	"Solomon Islands": "Salamunovi Otoci",
	"Somalia": "Somalija",
	"Sound Control": "Kontrola zvuka",
	"South Africa": "Južna Afrika",
	"South America": "Južna Amerika",
	"Spain": "Španjolska",
	"Sports": "Sport",
	"Sri Lanka": "Šri Lanka",
	"Standard": "Standardno",
	"Start": "Početak",
	"Start Time": "Početno vrijeme",
	"State": "Država",
	"Subnet Mask": "Maska podmreže",
	"Subnet prefix length": "Dužina prefiksa podmreže",
	"Success": "Uspješno",
	"Sun": "Ned",
	"Sunday": "Nedjelja",
	"SuperSign Content": "SuperSign sadržaj",
	"SuperSign Contents": "SuperSign sadržaj",
	"Suriname": "Surinam",
	"Sustain Aspect Ratio": "Održi format slike",
	"Swaziland": "Svazi",
	"Sweden": "Švedska",
	"Switzerland": "Švicarska",
	"Syria": "Sirija",
	"System Box": "Kutija sustava",
	"System Control": "Sistemska kontrola",
	"System Controller": "Upravljač sustava",
	"System Information": "Sistemske informacije",
	"System Settings": "Postavke sustava",
	"Taiwan": "Tajvan",
	"Tajikistan": "Tadžikistan",
	"Tallinn": "Talin",
	"Tanzania": "Tanzanija",
	"Tashkent": "Taškent",
	"Tehran": "Teheran",
	"Temperature": "Temperatura",
	"Temperature Unit": "Jedinica temperature",
	"Temperature history is not yet collected": "Povijest temperature još nije prikupljena.",
	"Test Color": "Testna boja",
	"Test Pattern": "Testni uzorak",
	"Test Pattern On": "Testni obrazac uključen",
	"Thailand": "Tajland",
	"The POWER remote controller key will not work during the update.": "Tipka daljinskog upravljača POWER neće raditi tijekom ažuriranja.",
	"The Signage 365 care app has been deleted.": "Aplikacija Cjelogodišnja usluga uređaja za oglašavanje izbrisana je.",
	"The Signage 365 care app has been successfully installed.": "Aplikacija Cjelogodišnja usluga uređaja za oglašavanje uspješno je instalirana.",
	"The Signage 365 care app has been successfully updated.": "Aplikacija Cjelogodišnja usluga uređaja za oglašavanje uspješno je ažurirana.",
	"The URL format is invalid.": "Format URL-a nije ispravan.",
	"The installation of the Signage 365 care app has failed.": "Instalacija aplikacije Cjelogodišnja usluga uređaja za oglašavanje nije uspjela.",
	"The installation of the Signage 365 care app is in progress.": "U tijeku je instalacija aplikacije Cjelogodišnja usluga uređaja za oglašavanje.",
	"The same file name already exists.": "Isti naziv datoteke već postoji.",
	"The update of the Signage 365 care app has failed.": "Ažuriranje aplikacije Cjelogodišnja usluga uređaja za oglašavanje nije uspjelo.",
	"The update of the Signage 365 care app is in progress.": "U tijeku je ažuriranje aplikacije Cjelogodišnja usluga uređaja za oglašavanje.",
	"There is a difference between your signage and the signage 365 care server in time and date.": "Postoji razlika u datumu i vremenu između vašeg uređaja za oglašavanje i poslužitelja cjelogodišnje usluge uređaja za oglašavanje.",
	"There is no list.": "Nema popisa.",
	"There's No Backup file": "Ne postoji datoteka sigurnosne kopije.",
	"This pop up will be closed automatically in 5 sec.": "Ovaj skočni prozor automatski će se zatvoriti za 5 s.",
	"Thursday": "Četvrtak",
	"Tile ID": "ID pločice",
	"Tile Mode": "Način pločica",
	"Tile Mode Setting": "Tile Mode Setting",
	"Tile Mode Settings": "Postavka načina pločica",
	"Time": "Vrijeme",
	"Time & Date": "Vrijeme i datum",
	"Time Setting": "Postavka vremena",
	"Time Zone": "Vremenska zona",
	"Timor-Leste": "Istočni Timor",
	"Tint": "Sjena",
	"Tiranë": "Tirana",
	"To choose an AP, please use Settings App. with a remote controller.": "Da biste odabrali AP, koristite aplikaciju Postavke pomoću daljinskog upravljača.",
	"To make your password more secure, use a mixture of characters, numbers and special characters.": "Da bi vaša lozinka bila sigurnija, upotrijebite različite znakove, brojeve i posebne znakove.",
	"To use Signage 365 care, you need to connect the device to the network . Do you want to set the network connection?": "Da biste upotrebljavali Cjelogodišnju uslugu uređaja za oglašavanje, uređaj mora biti povezan na mrežu. Želite li postaviti mrežnu vezu?",
	"Tokyo": "Tokio",
	"Top": "Vrh",
	"Top Left": "Gore lijevo",
	"Top Right": "Gore desno",
	"Trimming": "Podešavanje",
	"Trinidad And Tobago": "Trinidad i Tobago",
	"Tuesday": "Utorak",
	"Tunisia": "Tunis",
	"Turkey": "Turska",
	"Type": "Vrsta",
	"URL Loader": "Učitavač URL-a",
	"URL Setting": "URL postavka",
	"USB Application Upgrade": "USB nadogradnja aplikacije",
	"Ukraine": "Ukrajina",
	"Ulaanbaatar": "Ulan Bator",
	"Unit": "Jedinica",
	"Unit Calibration": "Kalibracija jedinice",
	"Unit Calibration is modified. Exit without saving?": "Kalibracija jedinice je izmijenjena. Izlazak bez spremanja?",
	"Unit Configuration": "Konfiguracija jedinice",
	"Unit Position": "Položaj jedinice",
	"Unit Property": "Svojstvo jedinice",
	"Unit Resolution": "Razlučivost jedinice",
	"Unit Settings": "Postavke jedinica",
	"Unit Status": "Status jedinice",
	"Unit Temperature": "Temperatura jedinice",
	"United Arab Emirates": "Ujedinjeni Arapski Emirati",
	"United Kingdom": "Ujedinjeno Kraljevstvo",
	"United States of America": "Sjedinjene Američke Države",
	"Units cut left edge can not be placed in the X:(Cut Pixel) positions.": "Jedinice s odrezanim lijevim rubom ne mogu se postaviti u položaje X:(odrezani piksel).",
	"Units cut left edge can not be placed in the X:0 positions.": "Jedinice s odrezanim lijevim rubom ne mogu se postaviti u položaje X:0.",
	"Unsupported File type.": "Nije podržana vrsta datoteke.",
	"Unsupported File type. Only Image/Video files are allowed.": "Nije podržana vrsta datoteke. Dopuštene su samo slikovne/video datoteke.",
	"Update": "Ažuriranje",
	"Update Failed": "Ažuriranje neuspješno",
	"Update LED FPGA micom with xxx done": "Ažuriranje LED FPGA micom pomoću xxx je dovršeno",
	"Update LED FPGA with xxx done": "Ažuriranje LED FPGA s pomoću xxx je dovršeno",
	"Update Progress": "Ažuriranje tijeka",
	"Update Succeeded": "Uspješno ažuriranje",
	"Update completed. Set is rebooting now.": "Ažuriranje dovršeno. Set se ponovno pokreće.",
	"Update completed. Signage is rebooting now.": "Nadogradnja dovršena. Uređaj za oglašavanje ponovno se pokreće.",
	"Update fan micom with this S/W Update file?": "Ažurirati fan micom s pomoću ove datoteke ažuriranja softvera?",
	"Update fan micom with xxx done": "Ažuriranje fan micom s xxx je dovršeno",
	"Update?": "Ažurirati?",
	"Updating…": "Ažuriranje…",
	"Upgrade Complete": "Nadogradnja je dovršena",
	"Upload": "UČITAVANJE",
	"Upload FPGA Update file (XXX GB available)": "Prenesi datoteku ažuriranja FPGA-a (dostupno XXX GB)",
	"Upload LED FPGA update file": "Učitajte datoteku ažuriranja LED FPGA",
	"Upload secured S/W Update file": "Učitavanje sigurne datoteke ažuriranja softvera",
	"Upload secured S/W Update file (XXX GB available)": "Učitavanje sigurne datoteke ažuriranja softvera (XXX GB slobodno)",
	"Uploading": "Učitavanje",
	"Uruguay": "Urugvaj",
	"User": "Korisnik",
	"User Name": "Korisničko ime",
	"Uzhhorod": "Užgorod",
	"V Sharpness": "Oštrina V",
	"Validation error. The new password and the confirm password do not match.": "Pogreška potvrde. Nova lozinka i potvrda lozinke ne podudaraju se.",
	"Vatican City": "Vatikan",
	"Ver": "Inač.",
	"Version": "Inačica",
	"Vertical": "Okomito",
	"Video": "Videozapis",
	"Video Scaler": "Sustav za pretvaranje razlučivosti",
	"Vienna": "Beč",
	"Vietnam": "Vijetnam",
	"Virtual Controller": "Virtualni kontroler",
	"Vivid": "Živo",
	"Volume": "Glasnoća",
	"Waiting for Approval": "Čekanje odobrenja",
	"Warm": "Toplo",
	"Warsaw": "Varšava",
	"Wednesday": "Srijeda",
	"Week": "Tjedan",
	"Weekday": "Dan u tjednu",
	"Welcome to LG WebOS": "Dobro došli u LG WebOS",
	"Width": "Širina",
	"Wired": "Žičano",
	"Working": "Rad",
	"X Units": "X-jedinice",
	"XX GB free of XXGB": "XX GB slobodno od XX GB",
	"XX of YY": "XX od YY",
	"Yakutsk": "Jakutsk",
	"Year": "Godina",
	"Yekaterinburg": "Ekaterinburg",
	"Yemen": "Jemen",
	"Yerevan": "Erevan",
	"Yes": "Da",
	"You changed IP address or DHCP status. Please reconnect to changed IP address": "Promijenili ste IP adresu ili DHCP status. Ponovno se povežite s promijenjenom IP adresom.",
	"You have failed to login 1/5 time.": "Niste se uspjeli prijaviti 1/5 puta.",
	"You have failed to login 5 times. Please try again after {time}.": "Niste se uspjeli prijaviti 5 puta. Pokušajte ponovno nakon {time}.",
	"You may not be able to reconnect to web pages if you cannot find out new IP address.": "Možda se nećete moći ponovno povezati s web-stranicama ako ne možete pronaći novu IP adresu.",
	"You've entered the same password as the current one. Please enter a different password.": "Unijeli ste lozinku koja je vaša trenutačna lozinka. Unesite drugačiju lozinku.",
	"Your Password has been changed.": "Vaša je lozinka promijenjena.",
	"Zambia": "Zambija",
	"Zaporozhye": "Zaporožje",
	"Zimbabwe": "Zimbabve",
	"Zoom": "Zum",
	"Zoom In": "Povećanje",
	"Zoom In/Out": "Povećavanje/smanjivanje",
	"Zoom Out": "Smanjivanje",
	"align": "prilagodi",
	"available": "dostupno",
	"color": "boja",
	"details": "detalji",
	"full aspect ratio": "puni omjer slike",
	"general": "općenito",
	"hour": "sat",
	"last": "Posljednji",
	"original aspect ratio": "izvorni omjer slike",
	"prev Day(prev DAY)": "Pret. Dan",
	"property": "svojstvo",
	"reading": "čitanje",
	"save as PC Time": "spremi kao Vrijeme osobnog računala",
	"sharpness": "oštrina",
	"upload": "učitavanje",
	"version": "inačica",
	"warning": "upozorenje",
	"webOS Version": "webOS inačica",
	"year": "godina",
	"{apptitle} will be deleted.": "Izbrisat će se aplikacija {apptitle}.",
	"{{filename}} already exists.": "{{filename}} već postoji."
}
