{
	"(30,60,120,180) Min": "(30,60,120,180) Dəq",
	"10Min": "10 Dəq",
	"15Min": "15 Dəq",
	"1Hour": "1Saat",
	"1st": "1-ci",
	"2nd": "2-ci",
	"30sec": "30san",
	"3rd": "3-cü",
	"4th": "4-cü",
	"5Min": "5Dəq",
	"AC Current": "AC Cərəyanı",
	"ADD": "ƏLAVƏ ET",
	"Add": "Əlavə et",
	"Add Media": "Media əlavə et",
	"Add Mini Module": "Mini Modul əlavə edin",
	"Add Slave Controller": "İzləmə İdarəedicisi əlavə et",
	"Add Unit": "Qurğu Əlavə Et",
	"Application Type": "Proqram Növü",
	"Application Upgrade": "Proqram Yeniləşdirməsi",
	"Are you sure you want to change type?": "Növü dəyişdirmək istədiyinizdən əminsiniz?",
	"Auto": "Avtomatik",
	"Auto Detect": "Avtomatik Aşkarlama",
	"Auto Refresh": "Avtomatik Təzələmə",
	"Available to Installation": "Quraşdırmaq üçün mümkündür",
	"Backup file Thumbnail Image": "Ehtiyat nüsxəsi çıxarılmış faylın Rəsmcik Təsviri",
	"Backup via storage": "Yaddaş vasitəsilə ehtiyat nüsxəsini çıxarın",
	"Basic Setting": "Əsas Parametr",
	"Black Level": "Qaralıq Səviyyəsi",
	"Both": "Hər ikisi",
	"Bottom Right": "Aşağı Sağ",
	"Box Name": "Qutunun Adı",
	"Brightness": "Parlaqlıq",
	"CANCEL": "LƏĞV ET",
	"COLOR TRANSPARENT LED": "RƏNGLİ ŞƏFFAF LED",
	"Calibrated": "Kalibrlənib",
	"Capture time interval": "Capture time interval",
	"Change Password": "Parolu dəyişdirin",
	"Changing Time zone may cause you to be logged out.": "Vaxt qurşağının dəyişdirilməsi çıxmağınıza səbəb ola bilər.",
	"Check for Update": "Yeniləməni yoxlayın",
	"Check your URL input": "URL daxiletmənizi yoxlayın",
	"Checking for update...": "Yeniləmə yoxlanılır...",
	"Closed Loop Fan": "Halqalı Yelpik bağlandı",
	"Color": "Rəng",
	"Columns": "Sütunlar",
	"Component": "Komponent",
	"Confirm": "Təsdiqlə",
	"Confirm Account Number": "Hesab Nömrəsini təsdiq edin",
	"Confirm New Password": "Yeni Parolu təsdiqləyin",
	"Connected": "Qoşulub",
	"Content is rotated": "Məzmun döndərilir",
	"Contents rotation is ON": "Məzmunların döndərilməsi AKTİVDİR",
	"Contrast": "Kontrast",
	"Control Item": "İdarə Elementi",
	"Current": "Cari",
	"Current Password": "Cari Parol",
	"Cut Bottom Edge": "Aşağı Kənarı Kəs",
	"Cut Edge": "Kəsik Xətti",
	"Cut Left Edge": "Kəsilmiş Sol Kənar",
	"Cut Right Edge": "Kəsilmiş Sağ Kənar",
	"Cut Top Edge": "Yuxarı Kənarı Kəs",
	"DNS Server": "DNS Serveri",
	"Default": "Standart",
	"Delete All": "Hamısını Sil",
	"Delete Mini Module": "Mini Modulu silin",
	"Delete Slave Controller": "İzləmə İdarəedicisini sil",
	"Delete Unit": "Qurğunu Sil",
	"Display & sound": "Displey və səs",
	"Distance to main screen": "Əsas ekrana olan məsafə",
	"Do you want to delete all schedules?": "Bütün cədvəlləri silmək istəyirsiniz?",
	"Do you want to delete the schedule?": "Cədvəli silmək istəyirsiniz?",
	"Do you want to delete this LED FPGA Update file?": "Bu LED FPGA Yeniləmə faylını silmək istəyirsiniz?",
	"Do you want to set the time or date automatically?": "Vaxtı və ya tarixi avtomatik təyin etmək istəyirsiniz?",
	"Door Sensor": "Qapı Sensoru",
	"Draw": "Çək",
	"Dynamic Brightness": "Dinamik Parlaqlıq",
	"Dynamic Brightness Control": "Dinamik Parlaqlığa Nəzarət",
	"Enable or disable Signage 365 Care services on this device": "Bu cihazda Signage 365 Care xidmətlərini aktivləşdirin və ya qeyri-aktiv edin",
	"Event": "Tədbir",
	"External": "Xarici",
	"External Input Rotation is ON": "Xarici Giriş Döndərməsi YANILIDIR",
	"FPGA Version": "FPGA Versiyası",
	"Failed to update LED FPGA with xxx. Check the status of the unit controller.": "LED FPGA-nı xxx ilə yeniləmək alınmadı. Qurğu idarəedicisinin vəziyyətini yoxlayın.",
	"Fan Micom S/W Updating": "Fan Micom P/T Yenilənir",
	"Fan Micom Update?": "Fan Micom Yenilənsin?",
	"File upload via mobile devices does not support.": "Mobil cihazlar ilə fayl yükləmə dəstəklənmir.",
	"Filter": "Süzgəc",
	"First Use": "İlk İstifadə",
	"For your security, you must change the default password.": "Təhlükəsizliyiniz üçün siz standart parolu dəyişdirməlisiniz.",
	"Frame": "Çərçivə",
	"Full": "Tam",
	"Go To First Use": "İlk İstifadəyə Keçin",
	"H Sharpness": "H Kəskinlik",
	"Height": "Hündürlük",
	"Humidity": "Rütubətlilik",
	"If the pitch is changed, all of the configuration settings are initialized.": "Əgər aralıq dəyişdirilibsə, konfiqurasiya parametrlərinin hamısı yenidən işə düşür.",
	"Incorrect Password entered. Please try again.": "Yanlış parol daxil edilib. Lütfən, yenidən cəhd edin.",
	"Input": "Daxiletmə",
	"Input Direction": "Daxiletmə İstiqaməti",
	"Input Priority Setting": "Prioritet Parametrini Daxil edin",
	"Input Window": "Giriş Pəncərəsi",
	"Install": "Quraşdır",
	"Install Failed.": "Quraşdırılmadı.",
	"Install Succeeded": "Quraşdırma Uğurlu Oldu",
	"Installing…": "Quraşdırılır…",
	"Invalid new password. The password must be at least 8 characters.": "Yeni parol yanlışdır. Parol ən azı 8 simvoldan ibarət olmalıdır.",
	"Invalid new password. You must use a mixture of characters, numbers and special characters.": "Yeni parol yanlışdır. Siz simvollar, rəqəmlər və xüsusi simvolların qarışığını istifadə etməlisiniz.",
	"Invalid schedule.": "Yanlış cədvəl.",
	"LED FPGA Update file list": "LED FPGA Yeniləmə faylı siyahısı",
	"LED FPGA Updating ......": "LED FPGA Yenilənir ......",
	"LED Features": "LED Xüsusiyyətləri",
	"LED Film Settings": "LED Film Parametrləri",
	"LED Unit": "LED Qurğusu",
	"LED Unit Status": "LED Qurğusunun Vəziyyəti",
	"Language": "Dil",
	"Large": "Böyük",
	"Last": "Sonuncu",
	"Layout Editor": "Düzən Redaktoru",
	"Left": "Sol",
	"Left Port": "Sol Port",
	"Loading": "Yüklənir",
	"Loading…": "Yüklənir…",
	"Local Application Upgrade": "Lokal Proqram Yeniləşdirməsi",
	"Location": "Məkan",
	"Log Report": "Jurnal Hesabatı",
	"MAC Address": "MAC Ünvanı",
	"MONO TRANSPARENT LED": "MONO ŞƏFFAF LED",
	"Manage": "İdarə et",
	"Manual": "Əllə",
	"Mini Module": "Mini Modul",
	"Mins": "Dəq",
	"Module Size": "Modulun Ölçüsü",
	"Mono": "Mono",
	"More": "Daha çox",
	"NG": "Yaxşı Deyil",
	"Network Settings": "Şəbəkə Parametrləri",
	"New Password": "Yeni Parol",
	"Next": "Növbəti",
	"Next Day": "Növbəti Gün",
	"No backup files exist in storage device.": "Yaddaş cihazında ehtiyat nüsxə faylları yoxdur.",
	"Not Connected": "Qoşulmayıb",
	"OLED LIGHT": "OLED İşıq",
	"OLED Light": "OLED İşıq",
	"OSD Portrait Mode is ON": "OSD Portret Rejimi AKTİVDİR",
	"OSD Rotation is ON": "OSD Döndərilməsi AKTİVDİR",
	"Open Loop Fan": "Halqalı Yelpiyi açın",
	"Original": "İlkin",
	"Output Window": "Çıxış Pəncərəsi",
	"Overwrite": "Əvəz et",
	"Physical Layout": "Fiziki Düzən",
	"Pitch": "Səs yüksəkliyi",
	"Pixel Pitch": "Piksel Dərəcəsi",
	"Please don't turn off the device and wait until the installation is completed.": "Lütfən, cihazı söndürməyin və quraşdırma tamamlanana qədər gözləyin.",
	"Please upload S/W update file via PC browser.": "Lütfən, kompüterin brauzeri vasitəsilə S/W yeniləmə faylını yükləyin.",
	"Port Selection": "Port Seçimi",
	"Port Settings": "Port Parametrləri",
	"Portrait": "Portret",
	"Power Off": "Söndür",
	"Prev DAY": "Əvvəlki GÜN",
	"Priority": "Prioritet",
	"Property": "Xüsusiyyət",
	"REMOVE": "SİL",
	"Rearrange": "Yenidən tərtib et",
	"Reference Resolution": "İstinad Əksetmə Qabiliyyəti",
	"Refresh": "Təzələ",
	"Rename": "Adını dəyişdir",
	"Rename or Overwrite?": "Adı dəyişdirilsin və ya əvəz edilsin?",
	"Rename to {{filename (2)}} or Overwrite?": "{{filename (2)}} fayl adına dəyişdirilsin və ya əvəz edilsin?",
	"Require Network Settings": "Şəbəkə Ayarları tələb edir",
	"Right": "Sağ",
	"Right Port": "Sağ Port",
	"Rows": "Sıralar",
	"Rows per Page": "Hər Səhifə üzrə Sıralar",
	"Run Time": "İcra Vaxtı",
	"S/W Updating......": "S/W Yenilənir......",
	"S/W update file does not exist.": "S/W yeniləmə faylı mövcud deyil.",
	"SELECT TRANSPARENT LED TYPE": "ŞƏFFAF LED NÖVÜ SEÇİN",
	"SI App / Play via URL": "SI Proqramı / URL vasitəsilə göstər",
	"Save as PC Time": "Kompüter Vaxtı kimi saxla",
	"Screen OFF & Backlight(Outdoor Mode)": "Ekran QEYRİ-AKTİVDİR və Arxa İşığı (Çöl Rejimi)",
	"Screen Rotation is ON": "Ekran Döndərməsi YANILIDIR",
	"Select LED Film Pitch": "LED Film Aralığı seçin",
	"Select media file": "Media faylı seçin",
	"Select the type of transparent LED Signage you installed. You can also change the type in [Control] Tab.": "Quraşdırdığınız şəffaf LED Signage növünü seçin. Siz həmçinin [Control] Tab-vərəqəsində növü dəyişdirə bilərsiniz.",
	"Sender Position": "Göndərənin Mövqeyi",
	"Sender Resolution": "Göndərənin əksetmə qabiliyyəti",
	"Set ID": "ID təyin et",
	"Set Master": "Usta əlavə et",
	"Set Slave": "İzləmə təyin et",
	"Sharpness": "Kəskinlik",
	"Sigane Name is Too Long": "Signage Adı Çox Uzundur",
	"Signage 365 Care App": "Signage 365 Care Proqramı",
	"Since Last Power Up": "Son Elektrik Yükləməsindən Bəri",
	"Size": "Ölçü",
	"Small": "Kiçik",
	"Subnet Mask": "Altşəbəkə Maskası",
	"Subnet prefix length": "Alt-şəbəkə prefiksinin uzunluğu",
	"SuperSign Content": "SuperSign Məzmunu",
	"SuperSign Contents": "SuperSign Məzmunu",
	"System Box": "Sistem Qutusu",
	"System Controller": "Sistem İdarəedicisi",
	"Temperature Unit": "Temperatur Qurğusu",
	"Test Pattern On": "Test Nümunəsi aktivdir",
	"The Signage 365 care app has been deleted.": "Signage 365 care proqramı silindi.",
	"The Signage 365 care app has been successfully installed.": "Signage 365 care proqramı uğurla quraşdırıldı.",
	"The Signage 365 care app has been successfully updated.": "Signage 365 care proqramı uğurla yeniləndi.",
	"The installation of the Signage 365 care app has failed.": "Signage 365 care proqramının quraşdırılması alınmadı.",
	"The installation of the Signage 365 care app is in progress.": "Signage 365 care proqramının quraşdırılması icra olunur.",
	"The same file name already exists.": "Eyni fayl adı artıq mövcuddur.",
	"The update of the Signage 365 care app has failed.": "Signage 365 care proqramının yenilənməsi alınmadı.",
	"The update of the Signage 365 care app is in progress.": "Signage 365 care proqramının yenilənməsi icra olunur.",
	"There is no list.": "Siyahı yoxdur.",
	"Tile Mode Setting": "Tile Mode Setting",
	"Time": "Vaxt",
	"Tint": "Açıq Çalar",
	"To make your password more secure, use a mixture of characters, numbers and special characters.": "Parolunuzu daha təhlükəsiz etmək üçün simvollar, rəqəmlər və xüsusi simvolların qarışığını istifadə edin.",
	"To use Signage 365 care, you need to connect the device to the network . Do you want to set the network connection?": "Signage 365 care-ni istifadə etmək üçün siz cihazı şəbəkəyə qoşmalısınız. Şəbəkə bağlantısını təyin etmək istəyirsiniz?",
	"Trimming": "Kəsir",
	"Type": "Növ",
	"URL Setting": "URL Parametri",
	"Unit": "Vahid",
	"Unit Position": "Bölmə Mövqeyi",
	"Unit Property": "Bölmə Xüsusiyyəti",
	"Unit Settings": "Bölmə Parametrləri",
	"Units cut left edge can not be placed in the X:(Cut Pixel) positions.": "Sol kənarı kəsilmiş vahidlər X:(Kəsilmiş Piksel) mövqelərində yerləşdirilə bilməz.",
	"Units cut left edge can not be placed in the X:0 positions.": "Qurğuların kəsilmiş sol kənarı X:0 mövqelərində əvəz edilə bilməz.",
	"Update Succeeded": "Yeniləmə Uğurlu Oldu",
	"Update completed. Signage is rebooting now.": "Yenilənmə tamamlandı. Signage indi yenidən yüklənir.",
	"Update fan micom with this S/W Update file?": "Bu P/T Yeniləmə faylı ilə fan micom-u yeniləyin?",
	"Updating…": "Yenilənir…",
	"Upload FPGA Update file (XXX GB available)": "FPGA Yeniləmə faylını yüklə (XXX GB mümkündür)",
	"User": "İstifadəçi",
	"V Sharpness": "V Kəskinlik",
	"Validation error. The new password and the confirm password do not match.": "Yoxlama səhvi. Yeni parol və təsdiqləmə parolu uyğun gəlmir.",
	"Ver": "Versiya",
	"Video Scaler": "Video Ölçən",
	"Weekday": "Həftə içi",
	"Welcome to LG WebOS": "LG WebOS-ə xoş gəlmişsiniz",
	"Width": "En",
	"X Units": "X Vahidləri",
	"XX GB free of XXGB": "XX GB yaddaşdan boş XX GB",
	"XX of YY": "XX / YY",
	"Year": "İl",
	"You have failed to login 5 times. Please try again after {time}.": "5 dəfə daxil ola bilmədiniz. {time} sonra yenidən cəhd edin.",
	"Zoom": "Miqyaslama",
	"Zoom In": "Böyüt",
	"Zoom Out": "Kiçilt",
	"align": "düzləndir",
	"color": "rəng",
	"details": "təfərrüatlar",
	"full aspect ratio": "tam nisbət",
	"general": "ümumi",
	"hour": "saat",
	"last": "Sonuncu",
	"min": "dəq",
	"original aspect ratio": "ilkin nisbət",
	"prev Day(prev DAY)": "əvvəlki Gün",
	"property": "xüsusiyyət",
	"reading": "oxu",
	"save as PC Time": "Kompüter Vaxtı kimi saxla",
	"version": "versiya",
	"warning": "xəbərdarlıq",
	"year": "il",
	"{apptitle} will be deleted.": "{apptitle} silinəcək.",
	"{{filename}} already exists.": "{{filename}} artıq mövcuddur."
}
