{
	"10Min": "10 Min",
	"15Min": "15 Min",
	"All": "All",
	"COLOR TRANSPARENT LED": "COLOUR TRANSPARENT LED",
	"Capture time interval": "Capture time interval",
	"CheckScreen": "Check Screen",
	"ClosedLoop": "Closed Loop",
	"Color": "Colour",
	"Color Temperature": "Colour Temperature",
	"ColorRead": "Colour Read",
	"Current Picture mode does not support changing color temperature. Please select \"Expert\" of \"Calibration\" mode to adjust the color temperature.": "Current Picture mode does not support changing colour temperature. Please select \"Expert\" of \"Calibration\" mode to adjust the colour temperature.",
	"DNS Server": "DNS SERVER",
	"Mono": "Mono",
	"OpenLoop": "Open Loop",
	"Power Off(Default)": "Power Off (Default)",
	"SETTING": "SETTING",
	"Screen OFF & Backlight(Outdoor Mode)": "Screen OFF & Backlight (Outdoor Mode)",
	"ScreenOn": "Screen On",
	"Show Color": "Show Colour",
	"Sigane Name is Too Long": "Signage Name is Too Long",
	"Success": "Success!",
	"Test Color": "Test Colour",
	"Tile Mode Setting": "Tile Mode Setting",
	"Upload": "Upload",
	"XX GB free of XXGB": "XX GB free of XX GB",
	"color": "colour",
	"last": "Last",
	"prev Day(prev DAY)": "prev Day"
}
