{
	"(30,60,120,180) Min": "(30, 60, 120, 180) min",
	"10 sec Auto Refresh": "Actualisation automatique toutes les dix secondes",
	"10Min": "10 min.",
	"15Min": "15 min.",
	"1Hour": "1 heure",
	"1st": "1ère",
	"2nd": "2ème",
	"30sec": "30 s",
	"3rd": "3ème",
	"4th": "4ème",
	"5 min. Refresh": "Actualisation toutes les cinq minutes",
	"5Min": "5 min",
	"AC Current": "Courant AC",
	"ADD": "AJOUTER",
	"Abnormally High": "Anormalement élevé",
	"Account": "Compte",
	"Add": "Ajouter",
	"Add Media": "Ajouter un média",
	"Add Mini Module": "Ajouter mini-module",
	"Add Sender": "Ajouter un expéditeur",
	"Add Slave Controller": "Ajouter un contrôleur esclave",
	"Add Unit": "Ajouter une unité",
	"Addis Ababa": "Addis Abeba",
	"Adelaide": "Adélaïde",
	"Advanced Setting": "Paramètres avancés",
	"Africa": "Afrique",
	"Albania": "Albanie",
	"Algeria": "Algérie",
	"Algiers": "Alger",
	"All": "Tout",
	"All Units": "Toutes les unités",
	"All setting data will be deleted.": "Toutes les données de paramétrage seront supprimées.",
	"An error occurred while submitting the form.": "Une erreur est survenue lors de l'envoi du formulaire.",
	"Application Launch Mode": "Mode de lancement des applications",
	"Application Type": "Type d'application",
	"Application Upgrade": "Mise à jour d'application",
	"Applications will be upgraded from {text}": "Les applications seront mises à niveau à partir de {text}",
	"Apply": "Appliquer",
	"Apply to All Units": "Appliquer à toutes les unités",
	"Apply?": "Appliquer ?",
	"April": "Avril",
	"Are you sure to change Settings?": "Voulez-vous vraiment modifier les réglages ?",
	"Are you sure to change the calibration settings of this unit?": "Voulez-vous vraiment modifier les paramètres de calibration de cette unité ?",
	"Are you sure to reboot?": "Êtes-vous sûr de vouloir redémarrer ?",
	"Are you sure to use": "Êtes-vous sûr de vouloir l'utiliser ?",
	"Are you sure to use Wi-Fi DHCP?": "Êtes-vous sûr d'utiliser le protocole DHCP Wi-Fi ?",
	"Are you sure to use Wired DHCP?": "Êtes-vous sûr d'utiliser le protocole DHCP filaire ?",
	"Are you sure you want to change type?": "Voulez-vous modifier le type ?",
	"Argentina": "Argentine",
	"Armenia": "Arménie",
	"Ashgabat": "Achgabat",
	"Asia": "Asie",
	"Aspect Ratio when rotated": "Format d'image lors de la rotation",
	"Athens": "Athènes",
	"August": "Août",
	"Australia": "Australie",
	"Austria": "Autriche",
	"Auto Detect": "Détection automatique",
	"Auto Refresh": "Actualisation automatique",
	"Auto Set": "Définition automatique",
	"Available to Installation": "Disponible pour l'installation",
	"Azerbaijan": "Azerbaïdjan",
	"Azores": "Açores",
	"BLU Status": "Statut BLU",
	"Back": "Retour",
	"Backlight": "Rétroéclairage",
	"Backup Media Upload": "Chargement de médias à sauvegarder",
	"Backup file Thumbnail Image": "Image miniature du fichier de sauvegarde",
	"Backup via storage": "Sauvegarder sur un périphérique de stockage",
	"Baghdad": "Bagdad",
	"Bahrain": "Bahreïn",
	"Baku": "Bakou",
	"Barbados": "Barbade",
	"Basic Setting": "Configuration de base",
	"Beijing": "Pékin",
	"Beirut": "Beyrout",
	"Belarus": "Bélarus",
	"Belgium": "Belgique",
	"Belize": "Bélize",
	"Benin": "Bénin",
	"Bermuda": "Bermudes",
	"Bhutan": "Bhoutan",
	"Bishkek": "Bichkek",
	"Black Level": "Niveau noir",
	"Bogotá": "Bogota",
	"Bolivia": "Bolivie",
	"Bootloader Version": "Version du programme d'amorçage",
	"Bosnia": "Bosnie",
	"Both": "Les deux",
	"Bottom": "Bas",
	"Bottom Left": "En bas à gauche",
	"Bottom Light": "En bas à droite",
	"Bottom Right": "En bas à droite",
	"Box Name": "Nom de la zone",
	"Brazil": "Brésil",
	"Brightness": "Luminosité",
	"Brightness Scheduling": "Programmation de la luminosité",
	"Browse": "Naviguer",
	"Browse a file to upload": "Rechercher un fichier à charger",
	"Brussels": "Bruxelles",
	"Bucharest": "Bucarest",
	"Bulgaria": "Bulgarie",
	"CANCEL": "ANNULER",
	"CIS": "CEI",
	"COLOR TRANSPARENT LED": "LED TRANSPARENTE COULEUR",
	"Cairo": "Le Caire",
	"Calibrate Unit": "Calibrer l'unité",
	"Calibrated": "Calibré",
	"Calibration": "Étalonnage",
	"Cambodia": "Cambodge",
	"Cameroon": "Cameroun",
	"Canary Islands": "Îles Canaries",
	"Cancel": "Annuler",
	"Cannot connect to the USB": "Impossible de se connecter au port USB",
	"Cannot start S/W update. Check xxx file please.": "Impossible de lancer la mise à jour du logiciel. Vérifiez le fichier xxx.",
	"Cape Verde": "Cap Vert",
	"Capture time Interval": "Capturer un intervalle de temps",
	"Capture time interval": "Capturer un intervalle de temps",
	"Category": "Catégorie",
	"Cayman Islands": "Îles Cayman",
	"Central African Republic": "République centrafricaine",
	"Chad": "Tchad",
	"Change Password": "Modifier le mot de passe",
	"Changing Time may cause you to be logged out.": "La modification de l'heure peut entraîner une déconnexion.",
	"Changing Time zone may cause you to be logged out.": "Changer de fuseau horaire peut vous déconnecter.",
	"Charts": "Graphiques",
	"Check Temperature sensors. -40 means errors when reading Temperature sensors": "Vérifiez les capteurs de température. -40 indique que des erreurs sont survenues lors de la lecture des capteurs de température.",
	"Check for Update": "Vérifier la mise à jour",
	"Check whether two passwords are same": "Vérifiez que les deux mots de passe sont identiques",
	"Check your URL input": "Vérifiez l'URL saisie",
	"CheckScreen": "Vérifier l'écran",
	"Checking for update...": "Rechercher la mise à jour...",
	"Chile": "Chili",
	"China": "Chine",
	"Christmas Island": "Île Christmas",
	"Cinema": "Cinéma",
	"City": "Ville",
	"Close": "Fermer",
	"Closed": "Fermé",
	"Closed Loop Fan": "Ventilateur en boucle fermée",
	"ClosedLoop": "Boucle fermée",
	"Colombia": "Colombie",
	"Color": "Couleur",
	"Color Temperature": "Température de couleur",
	"ColorRead": "Lecture de la couleur",
	"Column": "Colonne",
	"Columns": "Colonnes",
	"Component": "Composant",
	"Confirm": "Confirmer",
	"Confirm Account Number": "Confirmer le numéro de compte",
	"Confirm New Password": "Confirmer le nouveau mot de passe",
	"Confirm the account number you entered.": "Confirmez le numéro de compte saisi.",
	"Connected": "Connecté",
	"Content Rotation": "Rotation du contenu",
	"Content Rotation Status": "Statut de la rotation de contenu",
	"Content Rotation is ON": "Rotation du contenu activée",
	"Content is rotated": "Contenu pivoté",
	"Contents rotation is ON": "Rotation du contenu activée",
	"Contrast": "Contraste",
	"Control": "Commande",
	"Control Item": "Article de contrôle",
	"Control Manager": "Gestionnaire de contrôle",
	"Control Type": "Type de commande",
	"Cool": "Froid",
	"Copenhagen": "Copenhague",
	"Country/Territory": "Pays/Région",
	"Croatia": "Croatie",
	"Current": "Courant",
	"Current Fan RPM": "Nombre actuel de tours par minute du ventilateur",
	"Current Password": "Mot de passe actuel",
	"Current Picture mode does not support changing color temperature. Please select \"Expert\" of \"Calibration\" mode to adjust the color temperature.": "Le mode d'image actuel ne prend pas en charge le changement des couleurs de température. Sélectionnez « Expert » dans le mode « Calibration » pour ajuster les couleurs de température.",
	"Current Ver.": "Version actuelle",
	"Cut Bottom Edge": "Couper la bordure inférieure",
	"Cut Edge": "Couper la bordure",
	"Cut Left Edge": "Bordure gauche coupée",
	"Cut Right Edge": "Bordure droite coupée",
	"Cut Top Edge": "Couper la bordure supérieure",
	"Cyprus": "Chypre",
	"Czech": "Tchèque",
	"DHCP State": "État DHCP",
	"DNS Server": "Serveur DNS",
	"DOWNLOAD LOG": "TÉLÉCHARGER LE JOURNAL",
	"DOWNLOAD LOG FILE": "TÉLÉCHARGER LE FICHIER JOURNAL",
	"Daisy Direction": "Direction de la connexion en chaîne",
	"Daisy Start by": "Démarrage de la connexion en chaîne par",
	"Damascus": "Damas",
	"Dashboard": "Tableau de bord",
	"Data is not collected now. wait for maximum 60 seconds": "Les données ne sont pas collectées maintenant. Patientez pendant 60 secondes maximum.",
	"Day": "Jour",
	"Daylight Saving Time": "Heure d'été",
	"Days": "Jours",
	"December": "Décembre",
	"Default": "Défaut",
	"Delete": "Supprimer",
	"Delete All": "Tout supprimer",
	"Delete Mini Module": "Supprimer mini-module",
	"Delete Slave Controller": "Supprimer le contrôleur esclave",
	"Delete Unit": "Supprimer l'unité",
	"Delete?": "Supprimer ?",
	"Democratic Republic Of The Congo": "République démocratique du Congo",
	"Denmark": "Danemark",
	"Details of Unit": "Détails de l'unité",
	"Device Control": "Commande du périphérique",
	"Digital Board Reboot": "Redémarrage de la carte numérique",
	"Disconnected": "Déconnecté",
	"Display": "Affichage",
	"Display & Sound": "Image et son",
	"Display & sound": "Image et son",
	"Distance to main screen": "Distance par rapport à l'écran principal",
	"Do not reboot in Device page.": "Ne procédez pas à un redémarrage sur la page Périphérique.",
	"Do you want to delete all schedules?": "Voulez-vous supprimer tous les programmes ?",
	"Do you want to delete the schedule?": "Voulez-vous supprimer le programme ?",
	"Do you want to delete this LED FPGA Update file?": "Voulez-vous supprimer ce fichier de mise à jour LED-FPGA ?",
	"Do you want to delete this S/W Update file?": "Voulez-vous supprimer ce fichier de mise à jour du logiciel ?",
	"Do you want to install this S/W Update file?": "Voulez-vous installer ce fichier de mise à jour du logiciel ?",
	"Do you want to proceed?": "Voulez-vous continuer ?",
	"Do you want to process?": "Voulez-vous continuer ?",
	"Do you want to set the time or date automatically?": "Voulez-vous régler l'heure ou la date automatiquement ?",
	"Dominica": "Dominique",
	"Dominican Republic": "République dominicaine",
	"Done": "Terminé",
	"Door": "Porte",
	"Door Control": "Commande de porte",
	"Door Monitor": "Moniteur de porte",
	"Door Open": "Porte ouverte",
	"Door Sensor": "Capteur d'ouverture",
	"Door Sensor Status": "Statut du capteur de porte",
	"Door xxx is opened": "La porte xxx est ouverte.",
	"Download failed, try again.": "Échec du téléchargement. Réessayez.",
	"Draw": "Dessiner",
	"Dubai": "Dubaï",
	"Duplicated Unit ID": "ID de l'unité en double",
	"Duration": "Durée",
	"Dushanbe": "Douchanbé",
	"Dynamic Brightness": "Luminosité dynamique",
	"Dynamic Brightness Control": "Contrôle de la luminosité dynamique",
	"Easter Island": "Île de Pâques",
	"Ecuador": "Équateur",
	"Edit": "Modifier",
	"Egypt": "Égypte",
	"Enable or disable Signage 365 Care services on this device": "Activer ou désactiver les services Signage 365 Care sur ce périphérique",
	"End": "Fin",
	"End Time": "Heure de fin",
	"Energy Saving": "Économie d'énergie",
	"Enter Account Number": "Saisir Le Numéro De Compte",
	"Enter the account number to activate Signage 365 Care.": "Saisissez le numéro de compte pour activer Entretien 365 du moniteur.",
	"Equatorial Guinea": "Guinée équatoriale",
	"Eritrea": "Érythrée",
	"Error": "Erreur",
	"Estonia": "Estonie",
	"Ethiopia": "Éthiopie",
	"Event": "Événement",
	"Exit": "Quitter",
	"Export": "Exporter",
	"External": "Externe",
	"External Input Rotation is ON": "La rotation externe d'entrée est activée",
	"EyeQ sensor": "Capteur EyeQ",
	"FPGA Version": "Version du FPGA",
	"Factory Reset": "Réinitialisation aux paramètres d'usine",
	"Fail": "Échec",
	"Fail Over": "Commutation Source",
	"Fail to update. Check xxx file please.": "Échec de la mise à jour. Vérifiez le fichier xxx.",
	"Failed to update LED FPGA with xxx. Check the file please": "Échec de la mise à jour du FPGA à LED avec xxx. Vérifiez le fichier.",
	"Failed to update LED FPGA with xxx. Check the status of the unit controller.": "Impossible de mettre à jour la puce FPGA de la LED avec xxx. Vérifiez l'état du contrôleur de l'unité.",
	"Failed to update fan micom with xxx. Check the file please": "Échec de la mise à jour du ventilateur Micom avec xxx. Vérifiez le fichier.",
	"Failed, try again.": "Une erreur est survenue. Réessayez.",
	"Fan": "Ventilateur",
	"Fan Micom S/W Updating": "Mise à jour logicielle du Micom du ventilateur",
	"Fan Micom Update?": "Mise à jour du Micom du ventilateur  ?",
	"Fan Micom Version": "Version du ventilateur Micom",
	"Fan RPM": "Tours par minute du ventilateur",
	"Fan RPM history is not yet collected": "L'historique de tours par minute du ventilateur n'a pas encore été collecté.",
	"Fan Status": "Statut du ventilateur",
	"February": "Février",
	"Fiji": "Fidji",
	"File Name": "Nom de fichier",
	"File Select": "Sélection de fichier",
	"File Upload Progress": "Téléchargement du fichier en cours",
	"File upload via mobile devices does not support.": "Le téléchargement de fichiers via des appareils mobiles n'est pas pris en charge.",
	"Filter": "Filtre",
	"Finland": "Finlande",
	"First Use": "Première utilisation",
	"Flash memory is not enough.": "La mémoire Flash est insuffisante.",
	"For your security, you must change the default password.": "Pour votre sécurité, vous devez changer le mot de passe par défaut.",
	"Frame": "Cadre",
	"French Polynesia": "Polynésie française",
	"Fri": "Ven",
	"Friday": "Vendredi",
	"Full": "Complet",
	"Fully Qualified Domain Name": "Nom de domaine complet",
	"G": "V",
	"Gambia": "Gambie",
	"Game": "Jeux",
	"Gamut Matrix": "Matrice de gamme",
	"Gateway": "Passerelle",
	"Georgia": "Géorgie",
	"Germany": "Allemagne",
	"Go To First Use": "Accéder à First Use",
	"Greece": "Grèce",
	"Greenland": "Groenland",
	"Guernsey": "Guernesey",
	"Guinea": "Guinée",
	"Guinea Bissau": "Guinée-Bissau",
	"Guyana": "Guyane",
	"H Sharpness": "Netteté H",
	"Haiti": "Haïti",
	"Havana": "La Havane",
	"Height": "Hauteur",
	"High": "Élevé",
	"High1": "Élevé1",
	"High2": "Élevé2",
	"History is not yet collected": "L'historique n'a pas encore été collecté.",
	"Home": "Accueil",
	"Hour": "Heure",
	"Hours": "Heures",
	"Humidity": "Humidité",
	"Hungary": "Hongrie",
	"IP Address": "Adresse IP",
	"Iceland": "Islande",
	"If the pitch is changed, all of the configuration settings are initialized.": "En cas de modification du pitch, tous les paramètres de configuration sont initialisés.",
	"Impact": "Incident",
	"Incorrect Password entered. Please try again.": "Mot de passe incorrect entré. Réessayez.",
	"India": "Inde",
	"Indonesia": "Indonésie",
	"Information": "Informations",
	"Input": "Entrée",
	"Input 6 or more characters": "Saisir 6 caractères minimum",
	"Input Direction": "Direction d'entrée",
	"Input Password": "Entrer le mot de passe",
	"Input Priority": "Priorité d'entrée",
	"Input Priority Setting": "Entrer le paramètre de priorité",
	"Input Signage Name please.": "Entrez le nom du moniteur.",
	"Input Window": "Fenêtre d'entrée",
	"Install": "Installer",
	"Install Failed.": "L'installation a échoué.",
	"Install Succeeded": "Installation réussie",
	"Installation Failed": "Échec de l’installation",
	"Installation Menu": "Menu d'installation",
	"Installing…": "Installation…",
	"Internet Not available": "Accès Internet non disponible",
	"Internet available": "Accès Internet disponible",
	"Invalid day value": "Valeur non valide pour le jour",
	"Invalid hour value": "Valeur non valide pour l'heure",
	"Invalid minute value": "Valeur non valide pour la minute",
	"Invalid month value": "Valeur non valide pour le mois",
	"Invalid new password. The password must be at least 8 characters.": "Nouveau mot de passe non valide. Le mot de passe ne doit pas comporter moins de 8 caractères.",
	"Invalid new password. You must use a mixture of characters, numbers and special characters.": "Nouveau mot de passe non valide. Vous devez utiliser une combinaison de caractères, de chiffres et de caractères spéciaux.",
	"Invalid schedule.": "Programme non valide.",
	"Invalid value": "Valeur non valide",
	"Invalid year value": "Valeur non valide pour l'année",
	"Iraq": "Irak",
	"Ireland": "Irlande",
	"Irkutsk": "Irkoutsk",
	"Irregular": "Non standard",
	"Israel": "Israël",
	"Issue History": "Historique des problèmes",
	"Italy": "Italie",
	"Jamaica": "Jamaïque",
	"January": "Janvier",
	"Japan": "Japon",
	"Jerusalem": "Jérusalem",
	"Jordan": "Jordanie",
	"July": "Juillet",
	"June": "Juin",
	"Kabul": "Kaboul",
	"Katmandu": "Katmandou",
	"Korea": "Corée",
	"Korea, Republic of": "Corée, République de",
	"Krasnoyarsk": "Krasnoïarsk",
	"Kuwait": "Koweït",
	"Kuwait City": "Koweït (ville)",
	"LED FPGA Update file list": "Liste des fichiers de mise à jour LED-FPGA",
	"LED FPGA Updating ......": "Mise à jour LED-FPGA...",
	"LED Features": "Fonctionnalités LED",
	"LED Film Settings": "Paramètres LED Film",
	"LED Open Detection": "Détection de la position ouverte LED",
	"LED Settings": "Paramètres LED",
	"LED Unit": "Unité LED",
	"LED Unit Status": "État de l'unité LED",
	"LG Control Manager": "Gestionnaire de commande LG",
	"Landscape": "Paysage",
	"Language": "Langue",
	"Large": "Grand",
	"Last": "dernier",
	"Latvia": "Lettonie",
	"Layout": "Mise en page",
	"Layout Editor": "Éditeur de mise en page",
	"Lebanon": "Liban",
	"Left": "Gauche",
	"Left Port": "Port gauche",
	"Liberia": "Libéria",
	"Libya": "Libye",
	"Lisbon": "Lisbonne",
	"Lithuania": "Lithuanie",
	"Loading": "Chargement",
	"Loading…": "Chargement…",
	"Local Application Upgrade": "Mise à niveau de l'application locale",
	"Location": "Lieu",
	"Log": "Journal",
	"Log Report": "Rapport des journaux",
	"Log after Power Up": "Connexion après l'allumage",
	"Login": "Connexion",
	"Login is required.": "La connexion est obligatoire.",
	"Logout": "Déconnexion",
	"Lome": "Lomé",
	"London": "Londres",
	"Low": "Faible",
	"MAC Address": "Adresse MAC",
	"MONO TRANSPARENT LED": "LED TRANSPARENTE MONO",
	"Macedonia": "Macédoine",
	"Madeira": "Madère",
	"Main": "Principal",
	"Malaysia": "Malaisie",
	"Malta": "Malte",
	"Manage": "Gestion",
	"Manila": "Manille",
	"Manual": "Manuel",
	"March": "Mars",
	"Marshall Islands": "Îles Marshall",
	"Master": "Maître",
	"Mauritius": "Maurice, Île",
	"Max Backlight": "Rétroéclairage maximal",
	"May": "Mai",
	"Media": "Média",
	"Media Library": "Bibliothèque multimédia",
	"Media file List": "Liste des fichiers multimédias",
	"Media file Upload (XXX GB available)": "Chargement de fichiers multimédias (espace disponible : XXX Go)",
	"Medium": "Moyen",
	"Menu Language": "Langue du menu",
	"Mexico City": "Mexico",
	"Micom Progress": "Micom en cours",
	"Micom Update": "Mise à jour de Micom",
	"Micom Version": "Version Micom",
	"Middle East": "Moyen-Orient",
	"Min Backlight": "Rétroéclairage minimal",
	"Mini Module": "Mini-module",
	"Mins": "min",
	"Model Name": "Nom du modèle",
	"Module Calibration": "Calibration du module",
	"Module Calibration is modified. Exit without saving?": "La calibration du module a été modifiée. Quitter sans enregistrer ?",
	"Module Size": "Taille du module",
	"Mogadishu": "Mogadiscio",
	"Moldova": "Moldavie",
	"Mon": "Lun",
	"Monday": "Lundi",
	"Mongolia": "Mongolie",
	"Mono": "Mono",
	"Montenegro": "Monténégro",
	"Month": "Mois",
	"More": "Plus",
	"Morocco": "Maroc",
	"Moscow": "Moscou",
	"Mute": "Muet",
	"NG": "Incorrect",
	"NOT AVAILABLE": "INDISPONIBLE",
	"Name": "Nom",
	"Namibia": "Namibie",
	"Natural Mode": "Mode naturel",
	"Natural Size": "Taille initiale",
	"Nepal": "Népal",
	"Netherlands": "Pays-Bas",
	"Network": "Réseau",
	"Network Settings": "Paramètres réseau",
	"New Caledonia": "Nouvelle-Calédonie",
	"New Password": "Nouveau mot de passe",
	"New Zealand": "Nouvelle-Zélande",
	"Newer Ver.": "Version plus récente",
	"Next": "Suivant",
	"Next Day": "Jour suivant",
	"Nicosia": "Nicosie",
	"No": "Non",
	"No Signal": "Aucun signal",
	"No backup files exist in storage device.": "Aucun fichier de sauvegarde n'existe dans le périphérique de stockage.",
	"None": "Aucun",
	"North America": "Amérique du Nord",
	"North Korea": "Corée du Nord",
	"Norway": "Norvège",
	"Not Connected": "Non connecté",
	"November": "Novembre",
	"Number": "Nombre",
	"OLED LIGHT": "Lum. OLED",
	"OLED Light": "Lum. OLED",
	"OSD Portrait Mode": "Mode Portrait OSD",
	"OSD Portrait Mode is ON": "Le mode Portrait OSD est activé",
	"OSD Portrait Status": "Statut portrait OSD",
	"OSD Portrait mode is xxx": "Le mode portrait OSD est xxx.",
	"OSD Rotation is ON": "Rotation OSD activée",
	"OVERWRITE": "REMPLACER",
	"Occurrence Time": "Heure de l'occurrence",
	"Oceania": "Océanie",
	"October": "Octobre",
	"Off": "Désactivé",
	"Off Until Reset": "Désactivé jusqu'à la réinitialisation",
	"Off When Open": "Désactivé si ouverte",
	"On": "Activé",
	"On When Open": "Activé si ouverte",
	"Open Loop Fan": "Ventilateur en boucle ouverte",
	"OpenLoop": "Boucle ouverte",
	"Opened": "Ouvert",
	"Output Window": "Fenêtre de sortie",
	"OverHeat": "Surchauffe",
	"Overwrite": "Écraser",
	"Overwrite xxx?": "Écraser xxx ?",
	"Overwrite?": "Écraser ?",
	"PM Mode": "Mode PM",
	"Pacific": "Pacifique",
	"Panel": "Panneau",
	"Papua New Guinea": "Papouasie Nouvelle-Guinée",
	"Password": "Mot de passe",
	"Password is incorrect. Please Try Again": "Le mot de passe est incorrect. Réessayer",
	"Password is incorrect. Please try again.": "Le mot de passe est incorrect. Réessayez.",
	"Peru": "Pérou",
	"Physical Layout": "Présentation physique",
	"Picture": "Image",
	"Picture Mode": "Mode Image",
	"Picture Settings": "Paramètres d'image",
	"Pixel Pitch": "Pitch des pixels",
	"Play": "Lecture",
	"Play via URL": "Lire via l'URL",
	"Please Keep this Signage on.": "Maintenez ce moniteur activé.",
	"Please check the installation file and try again.": "Vérifiez le fichier d’installation et réessayez.",
	"Please check the schedule again.": "Vérifiez à nouveau la programmation.",
	"Please choose a file to upload": "Choisissez un fichier à charger.",
	"Please choose a video file to upload": "Choisissez un fichier vidéo à charger.",
	"Please don't turn off the device and wait until the installation is completed.": "N'éteignez pas l'appareil et attendez que l'installation soit terminée.",
	"Please login again.": "Reconnectez-vous.",
	"Please select city": "Sélectionnez une ville",
	"Please select country": "Sélectionnez un pays",
	"Please upload S/W update file via PC browser.": "Veuillez télécharger le fichier de mise à jour logicielle via un navigateur sur PC.",
	"Poland": "Pologne",
	"Port Number": "Numéro de port",
	"Port Selection": "Sélection de port",
	"Port Settings": "Paramètres des ports",
	"Portrait Mode": "Mode portrait",
	"Power": "Marche",
	"Power Off": "Éteindre",
	"Power Off Management": "Gestion de l'extinction",
	"Power Off(Default)": "Éteindre (valeur par défaut)",
	"Prev DAY": "Jour précédent",
	"Prev.": "Préc.",
	"Preview": "Aperçu",
	"Priority": "Priorité",
	"Property": "Propriété",
	"Puerto Rico": "Porto Rico",
	"REMOTE": "DISTANT",
	"REMOVE": "ENLEVER",
	"RESET": "RÉINITIALISER",
	"RPM": "Tours par minute",
	"Rearrange": "Réorganiser",
	"Reboot": "Redémarrer",
	"Reboot?": "Redémarrer ?",
	"Rebooting": "Redémarrage",
	"Reference Resolution": "Résolution de référence",
	"Refresh": "Rafraîchir",
	"Regular": "Standard",
	"Rejected": "Rejeté",
	"Remote": "Distant",
	"Rename": "Renommer",
	"Rename or Overwrite?": "Renommer ou écraser ?",
	"Rename to {{filename (2)}} or Overwrite?": "Renommer et utiliser le nom {{filename (2)}}, ou écraser ?",
	"Republic Of The Congo": "République du Congo",
	"Require Network Settings": "Paramètres réseau nécessaires",
	"Reset": "Réinitialisation",
	"Reset All": "Tout réinitialiser",
	"Reset Mute": "Réinitialiser le mode sourdine",
	"Reset Mute' is Needed": "Réinitialisation du mode sourdine requise",
	"Resolution": "Résolution",
	"Right": "Droit",
	"Right Port": "Port droit",
	"Riyadh": "Riyad",
	"Romania": "Roumanie",
	"Row": "Rang",
	"Rows": "Lignes",
	"Rows per Page": "Lignes par page",
	"Run Time": "Heure d'exécution",
	"Run Time Since Last Power Up": "Temps passé depuis le dernier allumage",
	"Russia": "Russie",
	"S/W Update": "Mise à jour du logiciel",
	"S/W Update File list": "Liste des fichiers de mise à jour du logiciel",
	"S/W Update file list": "Liste des fichiers de mise à jour du logiciel",
	"S/W Updating": "Mise à jour du logiciel",
	"S/W Updating......": "Mise à jour du logiciel...",
	"S/W Ver.": "Version du logiciel",
	"S/W update file does not exist.": "Le fichier de mise à jour logicielle n'existe pas.",
	"SCREEN": "ÉCRAN",
	"SELECT TRANSPARENT LED TYPE": "SELECTIONNER UN TYPE DE LED TRANSPARENT",
	"SETTING": "PARAMÈTRES",
	"SI App / Play via URL": "Application SI/Lire via URL",
	"SI Server IP": "Adresse IP du serveur SI",
	"Saint Lucia": "Sainte Lucie",
	"Sakhalin": "Sakhaline",
	"Sarajevo": "Sarajévo",
	"Sat": "Sam",
	"Saturday": "Samedi",
	"Saudi Arabia": "Arabie saoudite",
	"Save": "Enregistrer",
	"Save as PC Time": "enregistrer à l'heure du PC",
	"Schedule Time": "Heure de programmation",
	"Screen": "Écran",
	"Screen Configuration": "Configuration de l'écran",
	"Screen Fault Detection": "Détection des erreurs de l'écran",
	"Screen OFF & Backlight(Outdoor Mode)": "Écran désactivé et rétroéclairage (mode extérieur)",
	"Screen Off": "Écran désactivé",
	"Screen Off & Backlight": "Désactivation de l'écran et rétroéclairage",
	"Screen Off & Backlight On": "Désactivation de l'écran et rétroéclairage activé",
	"Screen Off Always": "Écran désactivé en permanence",
	"Screen Power Off": "Arrêt de l'écran",
	"Screen Rotation is ON": "La rotation de l'écran est activée",
	"ScreenOn": "Écran activé",
	"Secure Connection": "Connexion sécurisée",
	"Select File": "Sélectionner le fichier",
	"Select Input Source": "Sélectionner la source d'entrée",
	"Select LED Film Pitch": "Sélectionner le pitch de LED Film",
	"Select a file to upload": "Sélectionner un fichier à télécharger",
	"Select media file": "Sélectionner un fichier multimédia",
	"Select the type of transparent LED Signage you installed. You can also change the type in [Control] Tab.": "Sélectionnez le type de moniteur LED transparent que vous avez installé. Vous pouvez également modifier le type dans l'onglet [Contrôle]",
	"Sender": "expéditeur",
	"Sender Position": "Position de l'expéditeur",
	"Sender Resolution": "Résolution de l'expéditeur",
	"Senegal": "Sénégal",
	"Sensor": "Capteur",
	"Seoul": "Séoul",
	"September": "Septembre",
	"Serbia": "Serbie",
	"Serial Number": "Numéro de série",
	"Server": "Serveur",
	"Server Status": "Statut du serveur",
	"Set": "Définir",
	"Set Automatically": "Définir automatiquement",
	"Set ID": "Définir l'ID",
	"Set Master": "Définir comme maître",
	"Set Slave": "Définir comme esclave",
	"Set URL": "Définir l'URL",
	"Setting": "Paramètre",
	"Sharpness": "Netteté",
	"Show Color": "Afficher la couleur",
	"Sigane Name is Too Long": "Le nom du moniteur est trop long",
	"Signage 365 Care App": "Application Signage 365 Care",
	"Signage Name": "Nom du moniteur",
	"Since Last Power Up": "Depuis la dernière activation",
	"Singapore": "Singapour",
	"Size": "Taille",
	"Slave": "Esclave",
	"Slovakia": "Slovaquie",
	"Slovenia": "Slovénie",
	"Small": "Miniature",
	"Software Version": "Version logicielle",
	"Solomon Islands": "Îles Salomon",
	"Somalia": "Somalie",
	"Sound Control": "Commande du son",
	"South Africa": "Afrique du Sud",
	"South America": "Amérique du Sud",
	"Spain": "Espagne",
	"Sports": "Sport",
	"Start": "Démarrer",
	"Start Time": "Heure de début",
	"State": "État",
	"Status": "Statut",
	"Storage": "Stockage",
	"Subnet Mask": "Masque de sous-réseau",
	"Subnet prefix length": "Longueur du préfixe du sous-réseau",
	"Success": "Réussite",
	"Sudan": "Soudan",
	"Sun": "Dim",
	"Sunday": "Dimanche",
	"SuperSign Content": "Contenu SuperSign",
	"SuperSign Contents": "Contenu SuperSign",
	"Suriname": "Surinam",
	"Sustain Aspect Ratio": "Maintenir le format d'image",
	"Sweden": "Suède",
	"Switzerland": "Suisse",
	"Syria": "Syrie",
	"System Box": "Boîtier système",
	"System Control": "Commande système",
	"System Controller": "Contrôleur système",
	"System Information": "Informations sur le système",
	"System Settings": "Paramètres système",
	"Taipei": "Taïpei",
	"Taiwan": "Taïwan",
	"Tajikistan": "Tadjikistan",
	"Tanzania": "Tanzanie",
	"Tashkent": "Tachkent",
	"Tehran": "Téhéran",
	"Temperature": "Température",
	"Temperature Unit": "Unité de température",
	"Temperature history is not yet collected": "L'historique des températures n'a pas encore été collecté.",
	"Test Color": "Couleur de test",
	"Test Pattern": "Schéma de test",
	"Test Pattern On": "Schéma de test activité",
	"Thailand": "Thaïlande",
	"The POWER remote controller key will not work during the update.": "La touche de la télécommande POWER ne fonctionne pas pendant la mise à jour.",
	"The Signage 365 care app has been deleted.": "L'application Entretien 365 du moniteur a été supprimée.",
	"The Signage 365 care app has been successfully installed.": "L'application Entretien 365 du moniteur est installée.",
	"The Signage 365 care app has been successfully updated.": "L'application Entretien 365 du moniteur a été mise à jour.",
	"The URL format is invalid.": "Le format de l'URL est incorrect.",
	"The installation of the Signage 365 care app has failed.": "L'installation de l'application Entretien 365 du moniteur a échoué.",
	"The installation of the Signage 365 care app is in progress.": "L'installation de l'application Entretien 365 du moniteur est en cours.",
	"The same file name already exists.": "Ce nom de fichier existe déjà.",
	"The update of the Signage 365 care app has failed.": "La mise à jour de l'application Entretien 365 du moniteur a échoué.",
	"The update of the Signage 365 care app is in progress.": "La mise à jour de l'application Entretien 365 du moniteur est en cours.",
	"There is a difference between your signage and the signage 365 care server in time and date.": "Une différence de date et d'heure a été détectée entre votre moniteur et le serveur de l'Entretien 365 du moniteur.",
	"There is no list.": "Aucune liste",
	"There's No Backup file": "Il n'y a aucun fichier de sauvegarde",
	"This pop up will be closed automatically in 5 sec.": "Cette fenêtre se fermera automatiquement dans 5 secondes.",
	"Thu": "Jeu",
	"Thule": "Thulé",
	"Thursday": "Jeudi",
	"Tile ID": "ID en mode mosaïque",
	"Tile Mode": "Mode mosaïque",
	"Tile Mode Setting": "Paramètre du mode Mosaïque",
	"Tile Mode Settings": "Paramètres du mode Mosaïque",
	"Time": "Heure",
	"Time & Date": "Heure et date",
	"Time Setting": "Réglage de l'heure",
	"Time Zone": "Fuseau horaire",
	"Tint": "Teinte",
	"Tiranë": "Tirana",
	"To choose an AP, please use Settings App. with a remote controller.": "Pour choisir un point d'accès, accédez aux paramètres à l'aide d'une télécommande.",
	"To make your password more secure, use a mixture of characters, numbers and special characters.": "Pour renforcer la sécurité de votre mot de passe, utilisez une combinaison de caractères, de chiffres et de caractères spéciaux.",
	"To use Signage 365 care, you need to connect the device to the network . Do you want to set the network connection?": "Pour utiliser l'application Entretien 365 du moniteur, vous devez connecter l'appareil au réseau. Voulez-vous configurer la connexion réseau ?",
	"Top": "Haut",
	"Top Left": "En haut à gauche",
	"Top Right": "En haut à droite",
	"Trimming": "Ajustement",
	"Trinidad And Tobago": "Trinidad-et-Tobago",
	"Tue": "Mar",
	"Tuesday": "Mardi",
	"Tunisia": "Tunisie",
	"Turkey": "Turquie",
	"Turkmenistan": "Turkménistan",
	"URL Loader": "Chargeur d'URL",
	"URL Setting": "Paramètre d'URL",
	"USB Application Upgrade": "Mise à niveau de l'application USB",
	"Uganda": "Ouganda",
	"Ulaanbaatar": "Oulan-Bator",
	"Unit": "Unité",
	"Unit Calibration": "Calibration de l'unité",
	"Unit Calibration is modified. Exit without saving?": "La calibration de l'unité a été modifiée. Quitter sans enregistrer ?",
	"Unit Configuration": "Configuration de l'unité",
	"Unit Position": "Position des unités",
	"Unit Property": "Propriété des unités",
	"Unit Resolution": "Résolution de l'unité",
	"Unit Settings": "Paramètres des unités",
	"Unit Status": "Statut de l'unité",
	"Unit Temperature": "Température de l'unité",
	"United Arab Emirates": "Émirats arabes unis",
	"United Kingdom": "Royaume-Uni",
	"United States of America": "États-Unis d'Amérique",
	"Units cut left edge can not be placed in the X:(Cut Pixel) positions.": "Les unités de bordures gauches coupées ne peuvent pas être remplacées en positions X:(Couper des pixels)",
	"Units cut left edge can not be placed in the X:0 positions.": "Les unités de bordures gauches coupées ne peuvent pas être remplacées en positions X:0.",
	"Unsupported File type.": "Type de fichier non pris en charge.",
	"Unsupported File type. Only Image/Video files are allowed.": "Type de fichier non pris en charge. Seuls les fichiers image/vidéo sont autorisés.",
	"Update": "Mise à jour",
	"Update Failed": "Échec de la mise à jour",
	"Update LED FPGA micom with xxx done": "Mettre à jour le FPGA à LED Micom avec l'opération xxx effectuée",
	"Update LED FPGA with xxx done": "Mise à jour du FPGA à LED avec l'opération xxx effectuée",
	"Update Progress": "Mise à jour en cours",
	"Update Succeeded": "Mise à jour réussie",
	"Update completed. Set is rebooting now.": "Mise à jour terminée. Redémarrage en cours.",
	"Update completed. Signage is rebooting now.": "Mise à jour terminée. Le moniteur est en cours de redémarrage.",
	"Update fan micom with this S/W Update file?": "Mettre à jour du Micom du ventilateur avec ce fichier de mise à jour logiciel ?",
	"Update fan micom with xxx done": "Mise à jour du ventilateur Micom avec xxx effectuée",
	"Update?": "Mettre à jour ?",
	"Updating…": "Mise à jour…",
	"Upgrade Complete": "Mise à niveau terminée",
	"Upload": "CHARGER",
	"Upload FPGA Update file (XXX GB available)": "Télécharger le fichier de mise à jour FPGA (XXX Go disponible(s))",
	"Upload LED FPGA update file": "Charger le fichier de mise à jour du FPGA à LED",
	"Upload secured S/W Update file": "Télécharger un fichier de mise à jour du logiciel sécurisé",
	"Upload secured S/W Update file (XXX GB available)": "Télécharger un fichier de mise à jour du logiciel sécurisé (espace disponible : XXX Go)",
	"Uploading": "Chargement",
	"User": "Utilisateur",
	"User Name": "Nom de l'utilisateur",
	"Uzbekistan": "Ouzbékistan",
	"Uzhhorod": "Oujhorod",
	"V Sharpness": "Netteté V",
	"Validation error. The new password and the confirm password do not match.": "Erreur de validation. Le nouveau mot de passe et le mot de passe de confirmation ne correspondent pas.",
	"Vatican City": "Cité du Vatican",
	"Ver": "Version",
	"Video": "Vidéo",
	"Video Scaler": "Scaleur vidéo",
	"Vienna": "Vienne",
	"Virtual Controller": "Contrôleur virtuel",
	"Vivid": "Vif",
	"Waiting for Approval": "En attente d'approbation",
	"Warm": "Intéressé",
	"Warsaw": "Varsovie",
	"Wed": "Mer",
	"Wednesday": "Mercredi",
	"Week": "Semaine",
	"Weekday": "Jour de la semaine",
	"Welcome to LG WebOS": "Bienvenue dans LG WebOS",
	"Width": "Largeur",
	"Wired": "Filaire",
	"Working": "En cours de fonctionnement",
	"X Units": "X unités",
	"XX GB free of XXGB": "XX Go disponible(s) sur XX Go",
	"XX of YY": "XX sur YY",
	"Yakutsk": "Yakoutsk",
	"Year": "Année",
	"Yekaterinburg": "Iekaterinbourg",
	"Yemen": "Yémen",
	"Yerevan": "Erevan",
	"Yes": "Oui",
	"You changed IP address or DHCP status. Please reconnect to changed IP address": "Vous avez modifié l'adresse IP ou le statut DHCP. Reconnectez-vous à l'adresse IP modifiée.",
	"You have failed to login 1/5 time.": "Nombre d'échecs de tentative de connexion : 1/5.",
	"You have failed to login 5 times. Please try again after {time}.": "Nombre d'échecs de tentative de connexion : 5. Réessayez dans {time}.",
	"You may not be able to reconnect to web pages if you cannot find out new IP address.": "Vous ne pourrez peut-être pas vous reconnecter à des pages Web si vous ne trouvez pas une nouvelle adresse IP.",
	"You've entered the same password as the current one. Please enter a different password.": "Vous avez saisi le même mot de passe que le mot de passe actuel. Veuillez saisir un autre mot de passe.",
	"Your Password has been changed.": "Votre mot de passe a été modifié.",
	"Zambia": "Zambie",
	"Zimbabwe": "Zimbabwé",
	"Zoom In": "Zoom avant",
	"Zoom In/Out": "Zoom avant/arrière",
	"Zoom Out": "Zoom arrière",
	"Zürich": "Zurich",
	"align": "aligner",
	"available": "disponible",
	"color": "couleur",
	"details": "détails",
	"full aspect ratio": "format de l'image large",
	"general": "général",
	"hour": "heure",
	"last": "Dernière",
	"original aspect ratio": "format de l'image original",
	"prev Day(prev DAY)": "Jour précédent",
	"property": "propriété",
	"reading": "lecture",
	"save as PC Time": "enregistrer à l'heure du PC",
	"sharpness": "netteté",
	"upload": "charger",
	"warning": "avertissement",
	"webOS Version": "Version webOS",
	"year": "année",
	"{apptitle} will be deleted.": "{apptitle} sera supprimé.",
	"{{filename}} already exists.": "{{filename}} existe déjà."
}
