{
	"(30,60,120,180) Min": "(30,60,120,180) min",
	"10 sec Auto Refresh": "10 s autom. päivitys",
	"10Min": "10 min",
	"15Min": "15 min",
	"1Hour": "1 tunti",
	"1st": "1.",
	"2nd": "2.",
	"30sec": "30 s",
	"3rd": "3.",
	"4th": "4.",
	"5 min. Refresh": "5 min päivitys",
	"5Min": "5 min",
	"AC Current": "Vaihtovirta",
	"ADD": "LISÄÄ",
	"Abnormally High": "Poikkeuksellisen korkea",
	"Account": "Tili",
	"Add": "Lisää",
	"Add Media": "Lisää mediasisältöä",
	"Add Mini Module": "Lisää minimoduuli",
	"Add Sender": "Lisää lähettäjä",
	"Add Slave Controller": "Lisää slave-ohjain",
	"Add Unit": "Lisää laite",
	"Addis Ababa": "Addis Abeba",
	"Advanced Setting": "Lisäasetukset",
	"Afghanistan": "Afganistan",
	"Africa": "Afrikka",
	"Algiers": "Alger",
	"All": "Kaikki",
	"All Units": "Kaikki yksiköt",
	"All setting data will be deleted.": "Kaikki asetustiedot poistetaan.",
	"An error occurred while submitting the form.": "Lomakkeen lähettämisessä tapahtui virhe.",
	"Application Launch Mode": "Sovelluksen käynnistystila",
	"Application Type": "Sovelluksen tyyppi",
	"Application Upgrade": "Sovelluspäivitys",
	"Applications will be upgraded from {text}": "Sovellukset päivitetään kohteesta {text}",
	"Apply": "Käytä",
	"Apply to All Units": "Käytä kaikkiin yksiköihin",
	"Apply?": "Otetaanko käyttöön?",
	"April": "huhtikuu",
	"Araguaína": "Araguaina",
	"Are you sure to change Settings?": "Haluatko varmasti muuttaa asetuksia?",
	"Are you sure to change the calibration settings of this unit?": "Haluatko varmasti muuttaa tämän yksikön kalibrointiasetuksia?",
	"Are you sure to reboot?": "Haluatko varmasti käynnistää uudelleen?",
	"Are you sure to use": "Haluatko varmasti käyttää",
	"Are you sure to use Wi-Fi DHCP?": "Haluatko varmasti käyttää Wi-Fi DHCP:tä?",
	"Are you sure to use Wired DHCP?": "Haluatko varmasti käyttää langallista DHCP:tä?",
	"Are you sure you want to change type?": "Haluatko varmasti vaihtaa tyyppiä?",
	"Argentina": "Argentiina",
	"Asia": "Aasia",
	"Aspect Ratio when rotated": "Kuvasuhde kierrettynä",
	"Athens": "Ateena",
	"August": "elokuu",
	"Austria": "Itävalta",
	"Auto": "Automaattinen",
	"Auto Detect": "Automaattinen tunnistus",
	"Auto Refresh": "Automaattinen päivittäminen",
	"Auto Set": "Automaattinen asetus",
	"Available to Installation": "Asennettavissa",
	"Azerbaijan": "Azerbaidzan",
	"Azores": "Azorit",
	"BLU Status": "BLU-tila",
	"Back": "Takaisin",
	"Backlight": "Taustavalo",
	"Backup Media Upload": "Varmuuskopiomedian lähettäminen",
	"Backup file Thumbnail Image": "Varmuuskopiotiedoston pikkukuva",
	"Backup via storage": "Varmuuskopiointi tallennuslaitteen kautta",
	"Baghdad": "Bagdad",
	"Bahamas": "Bahama",
	"Basic Setting": "Perusasetus",
	"Beijing": "Peking",
	"Belarus": "Valkovenäjä",
	"Belgium": "Belgia",
	"Belgrade": "Belgrad",
	"Berlin": "Berliini",
	"Black Level": "Mustan taso",
	"Bootloader Version": "Käynnistysohjelmaversio",
	"Both": "Molemmat",
	"Bottom": "Alas",
	"Bottom Left": "Alavasen",
	"Bottom Light": "Alaoikea",
	"Bottom Right": "Alaoikea",
	"Box Name": "Laatikon nimi",
	"Brazil": "Brasilia",
	"Brightness": "Kirkkaus",
	"Brightness Scheduling": "Kirkkauden ajastus",
	"Browse": "Selaa",
	"Browse a file to upload": "Etsi lähetettävä tiedosto",
	"Brussels": "Bryssel",
	"Bucharest": "Bukarest",
	"CANCEL": "PERUUTA",
	"COLOR TRANSPARENT LED": "LÄPINÄKYVÄ VÄRI-LED",
	"Cairo": "Kairo",
	"Calibrate Unit": "Kalibroi yksikkö",
	"Calibrated": "Kalibroitu",
	"Calibration": "Kalibrointi",
	"Cambodia": "Kamputsea",
	"Cameroon": "Kamerun",
	"Canada": "Kanada",
	"Canary Islands": "Kanariansaaret",
	"Cancel": "Peruuta",
	"Cannot connect to the USB": "USB-yhteyden muodostaminen ei onnistu",
	"Cannot start S/W update. Check xxx file please.": "Ohjelmistopäivitystä ei voida aloittaa. Tarkista tiedosto xxx.",
	"Cape Verde": "Kap Verde",
	"Capture time Interval": "Kaappauksen aikaväli",
	"Capture time interval": "Kaappauksen aikaväli",
	"Category": "Luokka",
	"Cayman Islands": "Caymansaaret",
	"Central African Republic": "Keski-Afrikan tasavalta",
	"Chad": "Tsad",
	"Change Password": "Vaihda salasana",
	"Changing Time may cause you to be logged out.": "Jos muutat aikaa, sinut saatetaan kirjata ulos.",
	"Changing Time zone may cause you to be logged out.": "Jos muutat aikavyöhykettä, sinut saatetaan kirjata ulos.",
	"Charts": "Kaaviot",
	"Check Temperature sensors. -40 means errors when reading Temperature sensors": "Tarkista lämpötila-anturit. -40 tarkoittaa virheitä luettaessa lämpötila-antureita",
	"Check for Update": "Tarkista päivitykset",
	"Check whether two passwords are same": "Tarkista, että salasanat vastaavat toisiaan",
	"Check your URL input": "Tarkista syöttämäsi URL-osoite",
	"CheckScreen": "Tarkista näyttö",
	"Checking for update...": "Tarkistetaan päivityksiä...",
	"China": "Kiina",
	"Christmas Island": "Joulusaari",
	"Cinema": "Elokuvateatteri",
	"City": "Paikkakunta",
	"Close": "Sulje",
	"Closed": "Kiinni",
	"Closed Loop Fan": "Suljetun silmukan tuuletin",
	"ClosedLoop": "Suljettu silmukka",
	"Colombia": "Kolumbia",
	"Color": "Väri",
	"Color Temperature": "Värin lämpötila",
	"ColorRead": "Väri luettu",
	"Column": "Sarake",
	"Columns": "Sarakkeet",
	"Component": "Komponentti",
	"Confirm": "Vahvista",
	"Confirm Account Number": "Vahvista tilin numero",
	"Confirm New Password": "Vahvista uusi salasana",
	"Confirm the account number you entered.": "Vahvista antamasi tilin numero.",
	"Connected": "Yhteys muodostettu",
	"Content Rotation": "Sisällön kierto",
	"Content Rotation Status": "Sisällön kierron tila",
	"Content Rotation is ON": "Sisällön kierto on PÄÄLLÄ",
	"Content is rotated": "Sisältö on käännetty",
	"Contents rotation is ON": "Sisällön kierto on PÄÄLLÄ",
	"Continent": "Maanosa",
	"Contrast": "Kontrasti",
	"Control": "Ohjaus",
	"Control Item": "Ohjauskohde",
	"Control Type": "Hallinnan tyyppi",
	"Cool": "Viileä",
	"Copenhagen": "Kööpenhamina",
	"Country/Territory": "Maa/alue",
	"Croatia": "Kroatia",
	"Cuba": "Kuuba",
	"Current": "Virta",
	"Current Fan RPM": "Tämänhetkinen tuulettimen RPM",
	"Current Password": "Nykyinen salasana",
	"Current Picture mode does not support changing color temperature. Please select \"Expert\" of \"Calibration\" mode to adjust the color temperature.": "Tämänhetkinen kuvatila ei tue värilämpötilan muuttamista. Jos haluat säätää värilämpötilaa, valitse kalibrointitilassa Asiantuntija.",
	"Current Ver.": "Nykyinen versio",
	"Cut Bottom Edge": "Leikkaa alareuna",
	"Cut Edge": "Leikkaa reuna",
	"Cut Left Edge": "Leikkaa vasen reuna",
	"Cut Right Edge": "Leikkaa oikea reuna",
	"Cut Top Edge": "Leikkaa yläreuna",
	"Cyprus": "Kypros",
	"Czech": "tšekki",
	"Côte d'Ivoire": "Norsunluurannikko",
	"DHCP State": "DHCP:n tila",
	"DNS Server": "DNS-palvelin",
	"DOWNLOAD LOG": "LATAA LOKI",
	"DOWNLOAD LOG FILE": "LATAA LOKITIEDOSTO",
	"DPM": "Näytön virranhallinta",
	"Daisy Direction": "Ketjun suunta",
	"Daisy Start by": "Ketjun aloitus",
	"Damascus": "Damaskos",
	"Dashboard": "Hallintapaneeli",
	"Data is not collected now. wait for maximum 60 seconds": "Tietoja ei kerätä nyt, odota enintään 60 sekuntia",
	"Date": "Päiväys",
	"Day": "Päivä",
	"Daylight Saving Time": "Kesäaika",
	"Days": "Päivät",
	"December": "joulukuu",
	"Default": "Oletus",
	"Delete": "Poista",
	"Delete All": "Poista kaikki",
	"Delete Mini Module": "Poista minimoduuli",
	"Delete Slave Controller": "Poista slave-ohjain",
	"Delete Unit": "Poista laite",
	"Delete?": "Poistetaanko?",
	"Democratic Republic Of The Congo": "Kongon demokraattinen tasavalta",
	"Details of Unit": "Yksikön tiedot",
	"Device Control": "Laitehallinta",
	"Digital Board Reboot": "Digitaalisen taulun uudelleenkäynnistys",
	"Disconnected": "Katkaistu",
	"Display": "Näyttö",
	"Display & Sound": "Näyttö ja ääni",
	"Display & sound": "Näyttö ja ääni",
	"Distance to main screen": "Etäisyys päänäyttöön",
	"Do not reboot in Device page.": "Älä käynnistä uudelleen Laite-sivulla.",
	"Do you want to delete all schedules?": "Haluatko poistaa kaikki ajastukset?",
	"Do you want to delete the schedule?": "Haluatko poistaa ajastuksen?",
	"Do you want to delete this LED FPGA Update file?": "Haluatko poistaa tämän LED FPGA -päivitystiedoston?",
	"Do you want to delete this S/W Update file?": "Haluatko poistaa tämän ohjelmistopäivitystiedoston?",
	"Do you want to install this S/W Update file?": "Haluatko asentaa tämän ohjelmistopäivitystiedoston?",
	"Do you want to proceed?": "Haluatko jatkaa?",
	"Do you want to process?": "Haluatko jatkaa?",
	"Do you want to set the time or date automatically?": "Haluatko asettaa ajan tai päivämäärän automaattisesti?",
	"Dominican Republic": "Dominikaaninen tasavalta",
	"Done": "Valmis",
	"Door": "Ovi",
	"Door Control": "Luukun hallinta",
	"Door Monitor": "Luukkumonitori",
	"Door Open": "Luukku auki",
	"Door Sensor": "Luukkuanturi",
	"Door Sensor Status": "Luukkuanturin tila",
	"Door xxx is opened": "Luukku xxx on auki",
	"Download failed, try again.": "Lataus epäonnistui, yritä uudelleen.",
	"Draw": "Piirrä",
	"Duplicated Unit ID": "Päällekkäinen yksikkötunnus",
	"Duration": "Kesto",
	"Dynamic Brightness": "Dynaaminen kirkkaus",
	"Dynamic Brightness Control": "Dynaamisen kirkkauden säätö",
	"Easter Island": "Pääsiäissaari",
	"Edit": "Muokkaa",
	"Egypt": "Egypti",
	"Enable or disable Signage 365 Care services on this device": "Ota käyttöön tai poista käytöstä Näyttötaulun 365-ylläpito -palvelut tässä laitteessa",
	"End": "Loppu",
	"End Time": "Päättymisaika",
	"Energy Saving": "Virransäästö",
	"Enter Account Number": "Anna Tilin Numero",
	"Enter the account number to activate Signage 365 Care.": "Aktivoi näyttötaulun 365-ylläpito antamalla tilin numero.",
	"Equatorial Guinea": "Päiväntasaajan Guinea",
	"Error": "Virhe",
	"Estonia": "Viro",
	"Ethiopia": "Etiopia",
	"Europe": "Eurooppa",
	"Event": "Tapahtuma",
	"Exit": "Poistu",
	"Expert": "Asiantuntija",
	"Export": "Vie",
	"External": "Ulkoinen",
	"External Input Rotation is ON": "Ulkoisen tulon kierto on PÄÄLLÄ",
	"EyeQ sensor": "EyeQ-anturi",
	"FPGA Version": "FPGA-versio",
	"Factory Reset": "Palauta tehdasasetukset",
	"Fail": "Epäonnistui",
	"Fail to update. Check xxx file please.": "Päivitys epäonnistui. Tarkista tiedosto xxx.",
	"Failed to update LED FPGA with xxx. Check the file please": "LED FPGA:n päivitys kohteella xxx ei onnistunut. Tarkista tiedosto",
	"Failed to update LED FPGA with xxx. Check the status of the unit controller.": "LED FPGA:n päivitys kohteella xxx ei onnistunut. Tarkista yksikön ohjaimen tila.",
	"Failed to update fan micom with xxx. Check the file please": "Tuulettimen micom-päivitys kohteella xxx ei onnistunut. Tarkista tiedosto",
	"Failed, try again.": "Toiminto epäonnistui, yritä uudelleen.",
	"Fan": "Tuuletin",
	"Fan Micom S/W Updating": "Tuulettimen micom-ohjelmistoa päivitetään",
	"Fan Micom Update?": "Päivitetäänkö tuulettimen micom?",
	"Fan Micom Version": "Tuulettimen micom-versio",
	"Fan RPM": "Tuulettimen RPM",
	"Fan RPM history is not yet collected": "Tuulettimen RPM-historiaa ei ole kerätty vielä",
	"Fan Status": "Tuulettimen tila",
	"February": "helmikuu",
	"Fiji": "Fidzi",
	"File Name": "Tiedostonimi",
	"File Select": "Tiedoston valitseminen",
	"File Upload Progress": "Tiedoston lähetyksen eteneminen",
	"File upload via mobile devices does not support.": "Tiedoston lähettämistä mobiililaitteen kautta ei tueta.",
	"Filter": "Suodatin",
	"Finland": "Suomi",
	"First Use": "Ensimmäinen käyttö",
	"Flash memory is not enough.": "Flash-muisti ei riitä.",
	"For your security, you must change the default password.": "Oletussalasana täytyy vaihtaa turvallisuussyistä.",
	"Frame": "Kehys",
	"France": "Ranska",
	"French Polynesia": "Ranskan Polynesia",
	"Fri": "Pe",
	"Friday": "Perjantai",
	"Full": "Täysi",
	"Fully Qualified Domain Name": "Täydellinen toimialuenimi",
	"Game": "Peli",
	"Gamut Matrix": "Gamut-matriisi",
	"Gateway": "Yhdyskäytävä",
	"Go To First Use": "Siirry ensikäyttöön",
	"Godthab": "Nuuk",
	"Greece": "Kreikka",
	"Greenland": "Grönlanti",
	"H Sharpness": "Vaakaterävyys",
	"Havana": "Havanna",
	"Height": "Korkeus",
	"High": "Korkea",
	"High1": "Suuri1",
	"High2": "Suuri2",
	"History is not yet collected": "Historiaa ei ole kerätty vielä",
	"Home": "Koti",
	"Hong Kong": "Hongkong",
	"Horizontal": "Vaaka",
	"Hour": "Tunti",
	"Hours": "tunti",
	"Humidity": "Kosteus",
	"ID": "Tunnus",
	"IP Address": "IP-osoite",
	"Iceland": "Islanti",
	"If the pitch is changed, all of the configuration settings are initialized.": "Jos pikseliväliä muutetaan, kaikki konfigurointiasetukset palautetaan alkuasetuksiin.",
	"Image": "Kuva",
	"Impact": "Isku",
	"Incorrect Password entered. Please try again.": "Virheellinen salasana annettu. Yritä uudelleen.",
	"India": "Intia",
	"Information": "Tietoja",
	"Input": "Tulo",
	"Input 6 or more characters": "Syötä vähintään 6 merkkiä",
	"Input Direction": "Tulon suunta",
	"Input Password": "Anna salasana",
	"Input Priority": "Tulojen tärkeysjärjestys",
	"Input Priority Setting": "Tulojen tärkeysjärjestysasetus",
	"Input Signage Name please.": "Syötä näyttötaulun nimi.",
	"Input Window": "Tuloikkuna",
	"Install": "Asenna",
	"Install Failed.": "Asennus epäonnistui.",
	"Install Succeeded": "Asennus onnistui",
	"Installation Failed": "Asennus epäonnistui",
	"Installation Menu": "Asennusvalikko",
	"Installing…": "Asennetaan…",
	"Internet Not available": "Internet ei käytettävissä",
	"Internet available": "Internet käytettävissä",
	"Invalid day value": "Virheellinen päiväarvo",
	"Invalid hour value": "Virheellinen tuntiarvo",
	"Invalid minute value": "Virheellinen minuuttiarvo",
	"Invalid month value": "Virheellinen kuukausiarvo",
	"Invalid new password. The password must be at least 8 characters.": "Virheellinen uusi salasana. Salasanan on oltava vähintään kahdeksan merkkiä pitkä.",
	"Invalid new password. You must use a mixture of characters, numbers and special characters.": "Virheellinen uusi salasana. Salasanassa tulee olla kirjaimia, numeroita ja erikoismerkkejä.",
	"Invalid schedule.": "Virheellinen ajastus.",
	"Invalid value": "Virheellinen arvo",
	"Invalid year value": "Virheellinen vuosiarvo",
	"Iraq": "Irak",
	"Ireland": "Irlanti",
	"Irregular": "Epäsäännöllinen",
	"Issue History": "Julkaisuhistoria",
	"Italy": "Italia",
	"Jamaica": "Jamaika",
	"January": "tammikuu",
	"Japan": "Japani",
	"July": "heinäkuu",
	"June": "kesäkuu",
	"Kamchatka": "Kamtšatka",
	"Katmandu": "Kathmandu",
	"Kazakhstan": "Kazakstan",
	"Kenya": "Kenia",
	"Khartoum": "Khartum",
	"Kiev": "Kiova",
	"Korea, Republic of": "Etelä-Korea",
	"Krasnoyarsk": "Krasnojarsk",
	"Kyrgyzstan": "Kirgistan",
	"LED FPGA Update file list": "LED FPGA -päivityksen tiedostoluettelo",
	"LED FPGA Updating ......": "LED FPGA:ta päivitetään......",
	"LED Features": "LED-ominaisuudet",
	"LED Film Settings": "LED-elokuva-asetukset",
	"LED Open Detection": "LED avoin havaitseminen",
	"LED Settings": "LED-asetukset",
	"LED Unit": "LED-laite",
	"LED Unit Status": "LED-laitteen tila",
	"LG Control Manager": "LG-hallintatyökalu",
	"Landscape": "Vaaka",
	"Language": "Kieli",
	"Large": "Suuri",
	"Last": "viimeksi",
	"Layout": "Asettelu",
	"Layout Editor": "Asettelueditori",
	"Lebanon": "Libanon",
	"Left": "Vasen",
	"Left Port": "Vasen portti",
	"Lisbon": "Lissabon",
	"Lithuania": "Liettua",
	"Loading": "Ladataan",
	"Loading…": "Ladataan…",
	"Local": "Paikallinen",
	"Local Application Upgrade": "Paikallinen sovelluspäivitys",
	"Location": "Sijainti",
	"Log": "Loki",
	"Log Report": "Lokiraportti",
	"Log after Power Up": "Loki virran kytkemisen jälkeen",
	"Login": "Kirjaudu sisään",
	"Login is required.": "Kirjautuminen vaaditaan.",
	"Logout": "Uloskirjautuminen",
	"Lome": "Lomé",
	"London": "Lontoo",
	"Low": "Pieni",
	"Luxembourg": "Luxemburg",
	"MAC Address": "MAC-osoite",
	"MONO TRANSPARENT LED": "LÄPINÄKYVÄ MONO-LED",
	"Macedonia": "Makedonia",
	"Madagascar": "Madagaskar",
	"Main": "Pää",
	"Malaysia": "Malesia",
	"Maldives": "Malediivit",
	"Manage": "Hallinta",
	"Manual": "Manuaalinen",
	"March": "maaliskuu",
	"Marquesas": "Marquesassaaret",
	"Marshall Islands": "Marshallsaaret",
	"Max Backlight": "Max taustavalo",
	"Maximum": "Maksimi",
	"May": "toukokuu",
	"Mayotte": "Mahore",
	"Media": "Tallennusväline",
	"Media Library": "Mediakirjasto",
	"Media file List": "Mediatiedostoluettelo",
	"Media file Upload (XXX GB available)": "Mediatiedoston lähetys (XXX Gt käytettävissä)",
	"Medium": "Keskitaso",
	"Menu Language": "Valikon kieli",
	"Mexico": "Meksiko",
	"Micom Progress": "Micom-eteneminen",
	"Micom Update": "Micom-päivitys",
	"Micom Version": "Micom-versio",
	"Middle East": "Lähi-Itä",
	"Min Backlight": "Min taustavalo",
	"Mini Module": "Minimoduuli",
	"Minimum": "Minimi",
	"Mins": "minuuttia",
	"Model Name": "Mallin nimi",
	"Module Calibration": "Moduulin kalibrointi",
	"Module Calibration is modified. Exit without saving?": "Moduulin kalibrointia on muokattu. Poistutaanko tallentamatta?",
	"Module Size": "Moduulin koko",
	"Modules": "Moduulit",
	"Mon": "Ma",
	"Monday": "Maanantai",
	"Mono": "Mono",
	"Month": "Kuukausi",
	"More": "Lisää",
	"Morocco": "Marokko",
	"Moscow": "Moskova",
	"Mozambique": "Mosambik",
	"Mute": "Mykistä",
	"NOT AVAILABLE": "EI KÄYTETTÄVISSÄ",
	"Name": "Nimi",
	"Natural Mode": "Luonnollinen tila",
	"Natural Size": "Luonnollinen koko",
	"Netherlands": "Alankomaat",
	"Network": "Verkko",
	"Network Settings": "Verkkoasetukset",
	"New Caledonia": "Uusi-Kaledonia",
	"New Password": "Uusi salasana",
	"New Zealand": "Uusi-Seelanti",
	"Newer Ver.": "Uudempi versio",
	"Next": "Seuraava",
	"Next Day": "Seuraava päivä",
	"No": "Ei",
	"No Signal": "Ei signaalia",
	"No backup files exist in storage device.": "Tallennuslaitteessa ei ole varmuuskopiotiedostoja.",
	"None": "Ei mitään",
	"Normal": "Normaali",
	"North America": "Pohjois-Amerikka",
	"North Korea": "Pohjois-Korea",
	"Not Connected": "Ei yhteyttä",
	"November": "marraskuu",
	"Number": "Numero",
	"OLED LIGHT": "OLED-valo",
	"OLED Light": "OLED-valo",
	"OSD Portrait Mode": "OSD-pystytila",
	"OSD Portrait Mode is ON": "OSD-pystykuvatila on PÄÄLLÄ",
	"OSD Portrait Status": "OSD-pystytila",
	"OSD Portrait mode is xxx": "OSD-pystykuvatila on xxx",
	"OSD Rotation is ON": "OSD-kierto on PÄÄLLÄ",
	"OVERWRITE": "KIRJOITA PÄÄLLE",
	"Occurrence Time": "Esiintymäaika",
	"Oceania": "Oseania",
	"October": "lokakuu",
	"Off": "Pois päältä",
	"Off Until Reset": "Pois päältä kunnes nollataan",
	"Off When Open": "Pois päältä ollessa auki",
	"On": "Käytössä",
	"On When Open": "Päällä ollessa auki",
	"Open Loop Fan": "Avoimen silmukan tuuletin",
	"OpenLoop": "Avoin silmukka",
	"Opened": "Auki",
	"Original": "Alkuperäinen",
	"Output Window": "Lähtöikkuna",
	"OverHeat": "Ylikuumeneminen",
	"Overwrite": "Korvaa",
	"Overwrite xxx?": "Korvataanko xxx?",
	"Overwrite?": "Korvataanko?",
	"PM Mode": "PM-tila",
	"PSU": "Virtalähde",
	"Pacific": "Tyynimeri",
	"Panel": "Paneeli",
	"Papua New Guinea": "Papua-Uusi-Guinea",
	"Paris": "Pariisi",
	"Password": "Salasana",
	"Password is incorrect. Please Try Again": "Väärä salasana. Yritä uudelleen",
	"Password is incorrect. Please try again.": "Väärä salasana. Yritä uudelleen.",
	"Philippines": "Filippiinit",
	"Phnom Penh": "Phnom Pénh",
	"Physical Layout": "Fyysinen asettelu",
	"Picture": "Kuva",
	"Picture Mode": "Kuvatila",
	"Picture Settings": "Kuva-asetukset",
	"Pitch": "Pikseliväli",
	"Pixel Pitch": "Pikseliväli",
	"Play": "Toista",
	"Play via URL": "Toisto URL-osoitteen kautta",
	"Please Keep this Signage on.": "Pidä tämä näyttötaulu päällä.",
	"Please check the installation file and try again.": "Tarkista asennustiedosto ja yritä uudelleen.",
	"Please check the schedule again.": "Tarkista ajastus uudelleen.",
	"Please choose a file to upload": "Valitse lähetettävä tiedosto",
	"Please choose a video file to upload": "Valitse lähetettävä videotiedosto",
	"Please don't turn off the device and wait until the installation is completed.": "Älä sammuta laitetta. Odota, kunnes asennus on valmis.",
	"Please login again.": "Kirjaudu sisään uudelleen.",
	"Please select city": "Valitse kaupunki",
	"Please select country": "Valitse maa",
	"Please upload S/W update file via PC browser.": "Lähetä ohjelmistopäivitystiedosto tietokoneen selaimen kautta.",
	"Poland": "Puola",
	"Port": "Portti",
	"Port Number": "Portin numero",
	"Port Selection": "Portin valinta",
	"Port Settings": "Porttiasetukset",
	"Porto Velho": "Pôrto Velho",
	"Portrait": "Pysty",
	"Portrait Mode": "Pystykuvatila",
	"Portugal": "Portugali",
	"Position": "Sijainti",
	"Power": "Virta",
	"Power Off": "Virrankatkaisu",
	"Power Off Management": "Virta pois -hallinta",
	"Power Off(Default)": "Virta pois(oletus)",
	"Prague": "Praha",
	"Prev DAY": "Edellinen PÄIVÄ",
	"Prev.": "Edell.",
	"Preview": "Esikatsele",
	"Priority": "Tärkeysjärjestys",
	"Property": "Ominaisuus",
	"Proxy": "Välityspalvelin",
	"Pyongyang": "Pjongjang",
	"REMOTE": "ETÄ",
	"REMOVE": "POISTA",
	"RESET": "PALAUTA",
	"Rearrange": "Järjestä uudelleen",
	"Reboot": "Käynnistä uudelleen",
	"Reboot?": "Käynnistetäänkö uudelleen?",
	"Rebooting": "Käynnistetään uudelleen",
	"Reference Resolution": "Viiteresoluutio",
	"Refresh": "Päivitä",
	"Regular": "Säännöllinen",
	"Rejected": "Hylätty",
	"Remote": "Etä",
	"Rename": "Nimeä uudelleen",
	"Rename or Overwrite?": "Nimetäänkö uudelleen vai korvataanko?",
	"Rename to {{filename (2)}} or Overwrite?": "Vaihdetaanko nimeksi {{filename (2)}} vai korvataanko?",
	"Republic Of The Congo": "Kongon tasavalta",
	"Require Network Settings": "Vaatii verkkoasetuksia",
	"Reset": "Nollaa",
	"Reset All": "Nollaa kaikki",
	"Reset Mute": "Nollaa mykistys",
	"Reset Mute' is Needed": "Nollaa mykistys' tarvitaan",
	"Resolution": "Resoluutio",
	"Riga": "Riika",
	"Right": "Oikea",
	"Right Port": "Oikea portti",
	"Riyadh": "Riad",
	"Rome": "Rooma",
	"Row": "Rivi",
	"Rows": "Rivit",
	"Rows per Page": "Rivejä sivua kohden",
	"Run Time": "Toiminta-aika",
	"Run Time Since Last Power Up": "Käyttöaika viimeisen virran kytkemisen jälkeen",
	"Russia": "Venäjä",
	"Rwanda": "Ruanda",
	"S/W Update": "Ohjelmistopäivitys",
	"S/W Update File list": "Ohjelmistopäivityksen tiedostoluettelo",
	"S/W Update file list": "Ohjelmistopäivityksen tiedostoluettelo",
	"S/W Updating": "Ohjelmistoa päivitetään",
	"S/W Updating......": "Ohjelmistoa päivitetään......",
	"S/W Ver.": "Ohjelmistoversio",
	"S/W update file does not exist.": "Ohjelmistopäivitystiedostoa ei ole.",
	"SCREEN": "NÄYTTÖ",
	"SELECT TRANSPARENT LED TYPE": "VALITSE LÄPINÄKYVÄN LEDIN TYYPPI",
	"SETTING": "ASETUKSET",
	"SI App / Play via URL": "SI-sovellus / Toisto URL-osoitteen kautta",
	"SI Server IP": "SI-palvelimen IP-osoite",
	"Sakhalin": "Sahalin",
	"Sat": "La",
	"Saturday": "Lauantai",
	"Saudi Arabia": "Saudi-Arabia",
	"Save": "Tallenna",
	"Save as PC Time": "tallenna tietokoneen ajaksi",
	"Schedule Time": "Ajastusaika",
	"Screen": "Näyttö",
	"Screen Configuration": "Näytön konfigurointi",
	"Screen Fault Detection": "Näytön vian tunnistus",
	"Screen OFF & Backlight(Outdoor Mode)": "Näyttö POIS ja taustavalo (ulkotila)",
	"Screen Off": "Näyttö pois päältä",
	"Screen Off & Backlight": "Näyttö pois ja taustavalo",
	"Screen Off & Backlight On": "Näyttö pois ja taustavalo päällä",
	"Screen Off Always": "Näyttö aina pois päältä",
	"Screen Power Off": "Näytön virta pois",
	"Screen Rotation is ON": "Näytön kierto on PÄÄLLÄ",
	"ScreenOn": "Näyttö päällä",
	"Secure Connection": "Suojattu yhteys",
	"Select File": "Valitse tiedosto",
	"Select Input Source": "Valitse tulolähde",
	"Select LED Film Pitch": "Valitse LED-kalvon pikseliväli",
	"Select a file to upload": "Valitse lähetettävä tiedosto",
	"Select media file": "Valitse mediatiedosto",
	"Select the type of transparent LED Signage you installed. You can also change the type in [Control] Tab.": "Valitse asentamasi läpinäkyvän LED-näyttötaulun tyyppi. Voit vaihtaa tyyppiä myös [Hallinta]-välilehdellä.",
	"Sender": "Lähettäjän",
	"Sender Position": "Lähettäjän sijainti",
	"Sender Resolution": "Lähettäjän tarkkuus",
	"Sensor": "Anturi",
	"Seoul": "Soul",
	"September": "syyskuu",
	"Serial Number": "Sarjanumero",
	"Server": "Palvelin",
	"Server Status": "Palvelimen tila",
	"Set": "Aseta",
	"Set Automatically": "Aseta automaattisesti",
	"Set ID": "Aseta tunnus",
	"Set Master": "Aseta master",
	"Set Slave": "Aseta slave",
	"Set URL": "Aseta URL-osoite",
	"Setting": "Asetus",
	"Sharpness": "Terävyys",
	"Show Color": "Näytä väri",
	"Sigane Name is Too Long": "Näyttötaulun nimi on liian pitkä",
	"Signage 365 Care": "Näyttötaulun 365-ylläpito",
	"Signage 365 Care App": "Näyttötaulun 365-ylläpito -sovellus",
	"Signage Name": "Näyttötaulun nimi",
	"Signal": "Signaali",
	"Since Last Power Up": "Viimeisestä virran kytkemisestä",
	"Size": "Koko",
	"Small": "Pieni",
	"Software Version": "Ohjelmistoversio",
	"Solomon Islands": "Salomonsaaret",
	"Sound Control": "Äänen hallinta",
	"South Africa": "Etelä-Afrikka",
	"South America": "Etelä-Amerikka",
	"Spain": "Espanja",
	"Sports": "Urheilu",
	"Standard": "Vakio",
	"Start": "Aloita",
	"Start Time": "Alkamisaika",
	"State": "Tila",
	"Status": "Tila",
	"Stockholm": "Tukholma",
	"Storage": "Tallennuslaite",
	"Subnet Mask": "Aliverkon peite",
	"Subnet prefix length": "Aliverkon etuliitteen pituus",
	"Success": "Onnistui",
	"Sun": "Su",
	"Sunday": "Sunnuntai",
	"SuperSign Content": "SuperSign-sisältö",
	"SuperSign Contents": "SuperSign-sisältö",
	"Suriname": "Surinam",
	"Sustain Aspect Ratio": "Säilytä kuvasuhde",
	"Swaziland": "Swasimaa",
	"Syria": "Syyria",
	"System Box": "Järjestelmälaite",
	"System Control": "Järjestelmän hallinta",
	"System Controller": "Järjestelmäohjain",
	"System Information": "Järjestelmätiedot",
	"System Settings": "Järjestelmäasetukset",
	"Tajikistan": "Tadžikistan",
	"Tallinn": "Tallinna",
	"Tanzania": "Tansania",
	"Tashkent": "Taškent",
	"Tehran": "Teheran",
	"Temperature": "Lämpötila",
	"Temperature Unit": "Lämpötilayksikkö",
	"Temperature history is not yet collected": "Lämpötilahistoriaa ei ole kerätty vielä",
	"Test Color": "Testiväri",
	"Test Pattern": "Testikuvio",
	"Test Pattern On": "Testikuvio päällä",
	"Thailand": "Thaimaa",
	"The POWER remote controller key will not work during the update.": "Kaukosäätimen POWER-painike ei toimi päivityksen aikana.",
	"The Signage 365 care app has been deleted.": "Näyttötaulun 365-ylläpito -sovellus on poistettu.",
	"The Signage 365 care app has been successfully installed.": "Näyttötaulun 365-ylläpito -sovelluksen asennus onnistui.",
	"The Signage 365 care app has been successfully updated.": "Näyttötaulun 365-ylläpito -sovelluksen päivitys onnistui.",
	"The URL format is invalid.": "URL-osoitteen muoto on virheellinen.",
	"The installation of the Signage 365 care app has failed.": "Näyttötaulun 365-ylläpito -sovelluksen asennus epäonnistui.",
	"The installation of the Signage 365 care app is in progress.": "Näyttötaulun 365-ylläpito -sovelluksen asennus on käynnissä.",
	"The same file name already exists.": "Samanniminen tiedosto on jo olemassa.",
	"The update of the Signage 365 care app has failed.": "Näyttötaulun 365-ylläpito -sovelluksen päivitys epäonnistui.",
	"The update of the Signage 365 care app is in progress.": "Näyttötaulun 365-ylläpito -sovelluksen päivitys on käynnissä.",
	"There is a difference between your signage and the signage 365 care server in time and date.": "Näyttötaulusi ja näyttötaulun 365-ylläpidon palvelimen kellonaika ja päivämäärä poikkeavat toisistaan.",
	"There is no list.": "Luetteloa ei ole.",
	"There's No Backup file": "Varmuuskopiotiedostoa ei ole",
	"This pop up will be closed automatically in 5 sec.": "Tämä ponnahdusikkuna sulkeutuu automaattisesti 5 sekunnin kuluttua.",
	"Thu": "To",
	"Thule": "Qaanaaq",
	"Thursday": "Torstai",
	"Tile ID": "Ruututunnus",
	"Tile Mode": "Ruututila",
	"Tile Mode Setting": "Ruututilan asetus",
	"Tile Mode Settings": "Ruututilan asetukset",
	"Time": "Aika",
	"Time & Date": "Aika ja päiväys",
	"Time Setting": "Aika-asetus",
	"Time Zone": "Aikavyöhyke",
	"Timor-Leste": "Itä-Timor",
	"Tint": "Sävy",
	"Tiranë": "Tirana",
	"To choose an AP, please use Settings App. with a remote controller.": "Valitse tukiasema kaukosäätimellä käyttämällä Asetukset-sovellusta.",
	"To make your password more secure, use a mixture of characters, numbers and special characters.": "Jotta salasanasi olisi turvallisempi, siinä tulee olla kirjaimia, numeroita ja erikoismerkkejä.",
	"To use Signage 365 care, you need to connect the device to the network . Do you want to set the network connection?": "Näyttötaulun 365-ylläpito -sovelluksen käyttäminen edellyttää laitteen yhdistämistä verkkoon. Haluatko asettaa verkkoyhteyden?",
	"Tokyo": "Tokio",
	"Top": "Ylös",
	"Top Left": "Ylävasen",
	"Top Right": "Yläoikea",
	"Trimming": "Leikkaus",
	"Trinidad And Tobago": "Trinidad ja Tobago",
	"Tue": "Ti",
	"Tuesday": "Tiistai",
	"Turkey": "Turkki",
	"Type": "Tyyppi",
	"URL Loader": "URL-osoitteen lataus",
	"URL Setting": "URL-asetus",
	"USB Application Upgrade": "USB-sovelluspäivitys",
	"Ukraine": "Ukraina",
	"Unit": "Yksikkö",
	"Unit Calibration": "Yksikön kalibrointi",
	"Unit Calibration is modified. Exit without saving?": "Yksikön kalibrointia on muokattu. Poistutaanko tallentamatta?",
	"Unit Configuration": "Yksikön konfigurointi",
	"Unit Position": "Yksikön sijainti",
	"Unit Property": "Yksikön ominaisuus",
	"Unit Resolution": "Yksikön resoluutio",
	"Unit Settings": "Yksikköasetukset",
	"Unit Status": "Yksikön tila",
	"Unit Temperature": "Yksikön lämpötila",
	"United Arab Emirates": "Arabiemiirikunnat",
	"United Kingdom": "Yhdistynyt kuningaskunta",
	"United States of America": "Amerikan yhdysvallat",
	"Units cut left edge can not be placed in the X:(Cut Pixel) positions.": "Yksikön leikattua vasenta reunaa ei voi sijoittaa X:(Leikkaa pikseli) -kohtiin.",
	"Units cut left edge can not be placed in the X:0 positions.": "Yksikön leikattua vasenta reunaa ei voi sijoittaa X:0-kohtiin.",
	"Unsupported File type.": "Tiedostotyyppiä ei tueta.",
	"Unsupported File type. Only Image/Video files are allowed.": "Tiedostotyyppiä ei tueta. Vain kuva-/videotiedostot sallitaan.",
	"Update": "Päivitys",
	"Update Failed": "Päivitys epäonnistui",
	"Update LED FPGA micom with xxx done": "Päivitä LED FPGA micom, xxx valmis",
	"Update LED FPGA with xxx done": "Päivitä LED FPGA, xxx valmis",
	"Update Progress": "Päivityksen eteneminen",
	"Update Succeeded": "Päivitys onnistui",
	"Update completed. Set is rebooting now.": "Päivitys on valmis. Laite käynnistyy nyt uudelleen.",
	"Update completed. Signage is rebooting now.": "Päivitys on valmis. Näyttötaulu käynnistyy nyt uudelleen.",
	"Update fan micom with this S/W Update file?": "Päivitetäänkö tuulettimen micom käyttämällä tätä ohjelmistopäivitystiedostoa?",
	"Update fan micom with xxx done": "Päivitä tuulettimen micom, xxx valmis",
	"Update?": "Päivitetäänkö?",
	"Updating…": "Päivitetään…",
	"Upgrade Complete": "Päivitys valmis",
	"Upload": "LÄHETÄ",
	"Upload FPGA Update file (XXX GB available)": "Lähetä FPGA-päivitystiedosto (XXX Gt käytettävissä)",
	"Upload LED FPGA update file": "Lähetä LED FPGA -päivitystiedosto",
	"Upload secured S/W Update file": "Lähetä suojattu ohjelmistopäivitystiedosto",
	"Upload secured S/W Update file (XXX GB available)": "Lähetä suojattu ohjelmistopäivitystiedosto (XXX Gt käytettävissä)",
	"Uploading": "Lähetetään",
	"User": "Käyttäjä",
	"User Name": "Käyttäjätunnus",
	"V Sharpness": "Pystyterävyys",
	"Validation error. The new password and the confirm password do not match.": "Vahvistusvirhe. Uusi salasana ja vahvistussalasana eivät täsmää.",
	"Vatican City": "Vatikaanivaltio",
	"Ver": "Versio",
	"Version": "Versio",
	"Vertical": "Pysty",
	"Video Scaler": "Videoskaalain",
	"Vienna": "Wien",
	"Vilnius": "Vilna",
	"Virtual Controller": "Virtuaaliohjain",
	"Vivid": "Eloisa",
	"Volume": "Äänenvoimakkuus",
	"Waiting for Approval": "Odotetaan hyväksymistä",
	"Warm": "Lämmin",
	"Warsaw": "Varsova",
	"Wed": "Ke",
	"Wednesday": "Keskiviikko",
	"Week": "Viikko",
	"Weekday": "Viikonpäivä",
	"Welcome to LG WebOS": "Tervetuloa LG WebOS:ään",
	"Width": "Leveys",
	"Wired": "Langallinen",
	"Working": "Toimii",
	"X Units": "X yksikköä",
	"XX GB free of XXGB": "Vapaana XX/XX Gt",
	"XX of YY": "XX/YY",
	"Yakutsk": "Jakutsk",
	"Year": "Vuosi",
	"Yekaterinburg": "Jekaterinburg",
	"Yemen": "Jemen",
	"Yerevan": "Jerevan",
	"Yes": "Kyllä",
	"You changed IP address or DHCP status. Please reconnect to changed IP address": "Muutit IP-osoitetta tai DHCP-tilaa. Muodosta uudelleen yhteys muuttuneeseen IP-osoitteeseen",
	"You have failed to login 1/5 time.": "1/5 epäonnistunutta kirjautumisyritystä.",
	"You have failed to login 5 times. Please try again after {time}.": "5 epäonnistunutta kirjautumisyritystä. Yritä uudelleen {time} jälkeen.",
	"You may not be able to reconnect to web pages if you cannot find out new IP address.": "Et välttämättä pysty muodostamaan uudelleen yhteyttä verkkosivuihin, jos et pysty selvittämään uutta IP-osoitetta.",
	"You've entered the same password as the current one. Please enter a different password.": "Antamasi salasana on sama kuin nykyinen salasana. Anna toinen salasana.",
	"Your Password has been changed.": "Salasana vaihdettu.",
	"Zambia": "Sambia",
	"Zoom In": "Lähennä",
	"Zoom In/Out": "Lähennä/loitonna",
	"Zoom Out": "Loitonna",
	"align": "kohdista",
	"available": "saatavana",
	"color": "väri",
	"details": "tiedot",
	"full aspect ratio": "täysi kuvasuhde",
	"general": "yleiset",
	"hour": "tunti",
	"last": "Viimeinen",
	"original aspect ratio": "alkuperäinen kuvasuhde",
	"prev Day(prev DAY)": "edellinen päivä",
	"property": "ominaisuus",
	"reading": "lukema",
	"save as PC Time": "tallenna tietokoneen ajaksi",
	"sharpness": "terävyys",
	"upload": "lähetä",
	"version": "versio",
	"warning": "varoitus",
	"webOS Version": "webOS-versio",
	"year": "vuosi",
	"{apptitle} will be deleted.": "{apptitle} poistetaan.",
	"{{filename}} already exists.": "{{filename}} on jo olemassa."
}
