{
    "countryList" : [
        {
            "continent" : "Africa",
            "continent_key" : "Comm_settings_africa",
            "countries" : [
                {"alpha3" : "DZA", "shortName" : "DZ", "fullName" : "Algeria"},
                {"alpha3" : "", "shortName" : "AO", "fullName" : "Angola"},
                {"alpha3" : "", "shortName" : "BJ", "fullName" : "Benin"},
                {"alpha3" : "", "shortName" : "BW", "fullName" : "Botswana"},
                {"alpha3" : "", "shortName" : "BF", "fullName" : "Burkina Faso"},
                {"alpha3" : "", "shortName" : "BI", "fullName" : "Burundi"},
                {"alpha3" : "CMR", "shortName" : "CM", "fullName" : "Cameroon"},
                {"alpha3" : "", "shortName" : "CV", "fullName" : "Cape Verde"},
                {"alpha3" : "", "shortName" : "CF", "fullName" : "Central African Republic"},
                {"alpha3" : "", "shortName" : "TD", "fullName" : "Chad"},
                {"alpha3" : "", "shortName" : "CI", "fullName" : "Côte d'Ivoire"},
                {"alpha3" : "", "shortName" : "CD", "fullName" : "Democratic Republic Of The Congo"},
                {"alpha3" : "", "shortName" : "EG", "fullName" : "Egypt"},
                {"alpha3" : "", "shortName" : "GQ", "fullName" : "Equatorial Guinea"},
                {"alpha3" : "", "shortName" : "ER", "fullName" : "Eritrea"},
                {"alpha3" : "", "shortName" : "ET", "fullName" : "Ethiopia"},
                {"alpha3" : "", "shortName" : "GA", "fullName" : "Gabon"},
                {"alpha3" : "", "shortName" : "GM", "fullName" : "Gambia"},
                {"alpha3" : "GHA", "shortName" : "GH", "fullName" : "Ghana"},
                {"alpha3" : "", "shortName" : "GN", "fullName" : "Guinea"},
                {"alpha3" : "", "shortName" : "GW", "fullName" : "Guinea Bissau"},
                {"alpha3" : "KEN", "shortName" : "KE", "fullName" : "Kenya"},
                {"alpha3" : "", "shortName" : "LS", "fullName" : "Lesotho"},
                {"alpha3" : "", "shortName" : "LR", "fullName" : "Liberia"},
                {"alpha3" : "LBY", "shortName" : "LY", "fullName" : "Libya"},
                {"alpha3" : "", "shortName" : "MG", "fullName" : "Madagascar"},
                {"alpha3" : "MWI", "shortName" : "MW", "fullName" : "Malawi"},
                {"alpha3" : "", "shortName" : "ML", "fullName" : "Mali"},
                {"alpha3" : "MUS", "shortName" : "MU", "fullName" : "Mauritius"},
                {"alpha3" : "", "shortName" : "YT", "fullName" : "Mayotte"},
                {"alpha3" : "MAR", "shortName" : "MA", "fullName" : "Morocco", "euGroup":"etcEU" },
                {"alpha3" : "", "shortName" : "MZ", "fullName" : "Mozambique"},
                {"alpha3" : "NAM", "shortName" : "NA", "fullName" : "Namibia"},
                {"alpha3" : "", "shortName" : "NE", "fullName" : "Niger"},
                {"alpha3" : "NGA", "shortName" : "NG", "fullName" : "Nigeria"},
                {"alpha3" : "", "shortName" : "CG", "fullName" : "Republic Of The Congo"},
                {"alpha3" : "", "shortName" : "RW", "fullName" : "Rwanda"},
                {"alpha3" : "", "shortName" : "SN", "fullName" : "Senegal"},
                {"alpha3" : "", "shortName" : "SL", "fullName" : "Sierra Leone"},
                {"alpha3" : "", "shortName" : "SO", "fullName" : "Somalia"},
                {"alpha3" : "ZAF", "shortName" : "ZA", "fullName" : "South Africa"},
                {"alpha3" : "", "shortName" : "SD", "fullName" : "Sudan"},
                {"alpha3" : "", "shortName" : "SZ", "fullName" : "Swaziland"},
                {"alpha3" : "", "shortName" : "TZ", "fullName" : "Tanzania"},
                {"alpha3" : "", "shortName" : "TG", "fullName" : "Togo"},
                {"alpha3" : "TUN", "shortName" : "TN", "fullName" : "Tunisia"},
                {"alpha3" : "UGA", "shortName" : "UG", "fullName" : "Uganda"},
                {"alpha3" : "ZMB", "shortName" : "ZM", "fullName" : "Zambia"},
                {"alpha3" : "ZWE", "shortName" : "ZW", "fullName" : "Zimbabwe"}
            ]
        },
        {
            "continent" : "Asia",
            "continent_key" : "Comm_settings_asia",
            "countries" : [
                {"alpha3" : "", "shortName" : "AM", "fullName" : "Armenia"},
                {"alpha3" : "", "shortName" : "BD", "fullName" : "Bangladesh"},
                {"alpha3" : "", "shortName" : "BT", "fullName" : "Bhutan"},
                {"alpha3" : "", "shortName" : "KH", "fullName" : "Cambodia"},
                {"alpha3" : "CHN", "shortName" : "CN", "fullName" : "China"},
                {"alpha3" : "HKG", "shortName" : "HK", "fullName" : "Hong Kong"},
                {"alpha3" : "IND", "shortName" : "IN", "fullName" : "India" },
                {"alpha3" : "IDN", "shortName" : "ID", "fullName" : "Indonesia" },
                {"alpha3" : "JPN", "shortName" : "JP", "fullName" : "Japan"},
                {"alpha3" : "KOR", "shortName" : "KR", "fullName" : "Korea, Republic of"},
                {"alpha3" : "", "shortName" : "KG", "fullName" : "Kyrgyzstan"},
                {"alpha3" : "", "shortName" : "LA", "fullName" : "Laos"},
                {"alpha3" : "", "shortName" : "MO", "fullName" : "Macao"},
                {"alpha3" : "MYS", "shortName" : "MY", "fullName" : "Malaysia"},
                {"alpha3" : "", "shortName" : "MV", "fullName" : "Maldives"},
                {"alpha3" : "", "shortName" : "MN", "fullName" : "Mongolia"},
                {"alpha3" : "MMR", "shortName" : "MM", "fullName" : "Myanmar" },
                {"alpha3" : "", "shortName" : "NP", "fullName" : "Nepal"},
                {"alpha3" : "", "shortName" : "KP", "fullName" : "North Korea"},
                {"alpha3" : "", "shortName" : "PK", "fullName" : "Pakistan"},
                {"alpha3" : "PHL", "shortName" : "PH", "fullName" : "Philippines"},
                {"alpha3" : "SGP", "shortName" : "SG", "fullName" : "Singapore"},
                {"alpha3" : "LKA", "shortName" : "LK", "fullName" : "Sri Lanka" },
                {"alpha3" : "TWN", "shortName" : "TW", "fullName" : "Taiwan"},
                {"alpha3" : "", "shortName" : "TJ", "fullName" : "Tajikistan"},
                {"alpha3" : "THA", "shortName" : "TH", "fullName" : "Thailand" },
                {"alpha3" : "", "shortName" : "TL", "fullName" : "Timor-Leste"},
                {"alpha3" : "", "shortName" : "TM", "fullName" : "Turkmenistan"},
                {"alpha3" : "VNM", "shortName" : "VN", "fullName" : "Vietnam" }
            ]
        },
        {
            "continent" : "CIS",
            "continent_key" : "Comm_settings_cis",
            "countries" : [
                {"alpha3" : "", "shortName" : "GE", "fullName" : "Georgia"},
                {"alpha3" : "KAZ", "shortName" : "KZ", "fullName" : "Kazakhstan", "euGroup":"etcEU"},
                {"alpha3" : "RUS", "shortName" : "RU", "fullName" : "Russia", "euGroup":"etcEU"},
                {"alpha3" : "", "shortName" : "UZ", "fullName" : "Uzbekistan"}
            ]
        },
        {
            "continent" : "Europe",
            "continent_key" : "Comm_settings_europe",
            "countries" : [
                {"alpha3" : "ALB", "shortName" : "AL", "fullName" : "Albania",                "euGroup":"eastEU" },
                {"alpha3" : "AUT", "shortName" : "AT", "fullName" : "Austria",                "euGroup":"westEU" },
                {"alpha3" : "", "shortName" : "AZ", "fullName" : "Azerbaijan"},
                {"alpha3" : "BLR", "shortName" : "BY", "fullName" : "Belarus",                "euGroup":"etcEU" },
                {"alpha3" : "BEL", "shortName" : "BE", "fullName" : "Belgium",                "euGroup":"westEU" },
                {"alpha3" : "BIH", "shortName" : "BA", "fullName" : "Bosnia", "euGroup":"eastEU" },
                {"alpha3" : "BGR", "shortName" : "BG", "fullName" : "Bulgaria",               "euGroup":"eastEU" },
                {"alpha3" : "HRV", "shortName" : "HR", "fullName" : "Croatia",                "euGroup":"eastEU" },
                {"alpha3" : "", "shortName" : "CY", "fullName" : "Cyprus"},
                {"alpha3" : "CZE", "shortName" : "CZ", "fullName" : "Czech",         "euGroup":"eastEU" },
                {"alpha3" : "DNK", "shortName" : "DK", "fullName" : "Denmark",                "euGroup":"nordic" },
                {"alpha3" : "EST", "shortName" : "EE", "fullName" : "Estonia",                "euGroup":"eastEU" },
                {"alpha3" : "FIN", "shortName" : "FI", "fullName" : "Finland",                "euGroup":"nordic" },
                {"alpha3" : "FRA", "shortName" : "FR", "fullName" : "France" ,                "euGroup":"westEU"},
                {"alpha3" : "DEU", "shortName" : "DE", "fullName" : "Germany",                "euGroup":"westEU"},
                {"alpha3" : "", "shortName" : "GI", "fullName" : "Gibraltar"},
                {"alpha3" : "GRC", "shortName" : "GR", "fullName" : "Greece",                 "euGroup":"westEU" },
                {"alpha3" : "", "shortName" : "GL", "fullName" : "Greenland"},
                {"alpha3" : "", "shortName" : "GG", "fullName" : "Guernsey"},
                {"alpha3" : "HUN", "shortName" : "HU", "fullName" : "Hungary",                "euGroup":"eastEU" },
                {"alpha3" : "", "shortName" : "IS", "fullName" : "Iceland"},
                {"alpha3" : "IRL", "shortName" : "IE", "fullName" : "Ireland",                "euGroup":"westEU" },
                {"alpha3" : "ITA", "shortName" : "IT", "fullName" : "Italy",                  "euGroup":"westEU"},
                {"alpha3" : "LVA", "shortName" : "LV", "fullName" : "Latvia",                 "euGroup":"eastEU" },
                {"alpha3" : "", "shortName" : "LI", "fullName" : "Liechtenstein"},
                {"alpha3" : "LTU", "shortName" : "LT", "fullName" : "Lithuania",              "euGroup":"eastEU" },
                {"alpha3" : "LUX", "shortName" : "LU", "fullName" : "Luxembourg",             "euGroup":"westEU" },
                {"alpha3" : "", "shortName" : "MK", "fullName" : "Macedonia"},
                {"alpha3" : "", "shortName" : "MT", "fullName" : "Malta"},
                {"alpha3" : "", "shortName" : "MD", "fullName" : "Moldova"},
                {"alpha3" : "", "shortName" : "MC", "fullName" : "Monaco"},
                {"alpha3" : "", "shortName" : "ME", "fullName" : "Montenegro"},
                {"alpha3" : "NLD", "shortName" : "NL", "fullName" : "Netherlands",            "euGroup":"westEU" },
                {"alpha3" : "NOR", "shortName" : "NO", "fullName" : "Norway",                 "euGroup":"nordic" },
                {"alpha3" : "POL", "shortName" : "PL", "fullName" : "Poland",                 "euGroup":"eastEU" },
                {"alpha3" : "PRT", "shortName" : "PT", "fullName" : "Portugal",               "euGroup":"westEU" },
                {"alpha3" : "ROU", "shortName" : "RO", "fullName" : "Romania",                "euGroup":"eastEU" },
                {"alpha3" : "SRB", "shortName" : "RS", "fullName" : "Serbia",                 "euGroup":"eastEU" },
                {"alpha3" : "SVK", "shortName" : "SK", "fullName" : "Slovakia",               "euGroup":"eastEU" },
                {"alpha3" : "SVN", "shortName" : "SI", "fullName" : "Slovenia",               "euGroup":"westEU" },
                {"alpha3" : "ESP", "shortName" : "ES", "fullName" : "Spain",                  "euGroup":"westEU"},
                {"alpha3" : "SWE", "shortName" : "SE", "fullName" : "Sweden",                 "euGroup":"nordic" },
                {"alpha3" : "CHE", "shortName" : "CH", "fullName" : "Switzerland",            "euGroup":"westEU" },
                {"alpha3" : "TUR", "shortName" : "TR", "fullName" : "Turkey",                 "euGroup":"etcEU" },
                {"alpha3" : "UKR", "shortName" : "UA", "fullName" : "Ukraine",                "euGroup":"etcEU" },
                {"alpha3" : "GBR", "shortName" : "GB", "fullName" : "United Kingdom",         "euGroup":"westEU"},
                {"alpha3" : "", "shortName" : "VA", "fullName" : "Vatican City"}
            ]
        },
        {
            "continent" : "MiddleEast",
            "continent_key" : "Comm_settings_middleeast",
            "countries" : [
                {"alpha3" : "", "shortName" : "AF", "fullName" : "Afghanistan"},
                {"alpha3" : "BHR", "shortName" : "BH", "fullName" : "Bahrain"},
                {"alpha3" : "IRN", "shortName" : "IR", "fullName" : "Iran"},
                {"alpha3" : "IRQ", "shortName" : "IQ", "fullName" : "Iraq"},
                {"alpha3" : "ISR", "shortName" : "IL", "fullName" : "Israel"},
                {"alpha3" : "JOR", "shortName" : "JO", "fullName" : "Jordan"},
                {"alpha3" : "KWT", "shortName" : "KW", "fullName" : "Kuwait"},
                {"alpha3" : "LBN", "shortName" : "LB", "fullName" : "Lebanon"},
                {"alpha3" : "OMN", "shortName" : "OM", "fullName" : "Oman"},
                {"alpha3" : "QAT", "shortName" : "QA", "fullName" : "Qatar"},
                {"alpha3" : "SAU", "shortName" : "SA", "fullName" : "Saudi Arabia"},
                {"alpha3" : "", "shortName" : "SY", "fullName" : "Syria"},
                {"alpha3" : "ARE", "shortName" : "AE", "fullName" : "United Arab Emirates"},
                {"alpha3" : "YEM", "shortName" : "YE", "fullName" : "Yemen"}
            ]
        },
        {
            "continent" : "NorthAmerica",
            "continent_key" : "Comm_settings_northamerica",
            "countries" : [
                {"alpha3" : "CAN", "shortName" : "CA", "fullName" : "Canada"},
                {"alpha3" : "USA", "shortName" : "US", "fullName" : "United States of America"},
                {"alpha3" : "MEX", "shortName" : "MX", "fullName" : "Mexico"}
            ]
        },
        {
            "continent" : "Oceania",
            "continent_key" : "Comm_settings_oceania",
            "countries" : [
                {"alpha3" : "AUS", "shortName" : "AU", "fullName" : "Australia"},
                {"alpha3" : "", "shortName" : "CX", "fullName" : "Christmas Island"},
                {"alpha3" : "", "shortName" : "FJ", "fullName" : "Fiji"},
                {"alpha3" : "", "shortName" : "NF", "fullName" : "Kingston"},
                {"alpha3" : "", "shortName" : "KI", "fullName" : "Kiribati"},
                {"alpha3" : "", "shortName" : "NC", "fullName" : "New Caledonia"},
                {"alpha3" : "NZL", "shortName" : "NZ", "fullName" : "New Zealand"},
                {"alpha3" : "", "shortName" : "PW", "fullName" : "Palau"},
                {"alpha3" : "", "shortName" : "PG", "fullName" : "Papua New Guinea"},
                {"alpha3" : "", "shortName" : "WS", "fullName" : "Samoa"},
                {"alpha3" : "", "shortName" : "SB", "fullName" : "Solomon Islands"},
                {"alpha3" : "", "shortName" : "TO", "fullName" : "Tonga"},
                {"alpha3" : "", "shortName" : "MH", "fullName" : "Marshall Islands"}
            ]
        },
        {
            "continent" : "Pacific",
            "continent_key" : "Comm_settings_pacific",
            "countries" : [
                {"alpha3" : "", "shortName" : "PF", "fullName" : "French Polynesia"},
                {"alpha3" : "", "shortName" : "GU", "fullName" : "Guam"}
            ]
        },
        {
            "continent" : "SouthAmerica",
            "continent_key" : "Comm_settings_southamerica",
            "countries" : [
                {"alpha3" : "", "shortName" : "SR", "fullName" : "Suriname"},
                {"alpha3" : "", "shortName" : "AW", "fullName" : "Aruba"},
                {"alpha3" : "", "shortName" : "BS", "fullName" : "Bahamas"},
                {"alpha3" : "", "shortName" : "BB", "fullName" : "Barbados"},
                {"alpha3" : "", "shortName" : "BM", "fullName" : "Bermuda"},
                {"alpha3" : "", "shortName" : "KY", "fullName" : "Cayman Islands"},
                {"alpha3" : "", "shortName" : "CR", "fullName" : "Costa Rica"},
                {"alpha3" : "", "shortName" : "CU", "fullName" : "Cuba"},
                {"alpha3" : "", "shortName" : "DM", "fullName" : "Dominica"},
                {"alpha3" : "", "shortName" : "GP", "fullName" : "Guadeloupe"},
                {"alpha3" : "", "shortName" : "HT", "fullName" : "Haiti"},
                {"alpha3" : "", "shortName" : "MQ", "fullName" : "Martinique"},
                {"alpha3" : "", "shortName" : "PR", "fullName" : "Puerto Rico"},
                {"alpha3" : "", "shortName" : "LC", "fullName" : "Saint Lucia"},
                {"alpha3" : "ARG", "shortName" : "AR", "fullName" : "Argentina"},
                {"alpha3" : "", "shortName" : "BZ", "fullName" : "Belize"},
                {"alpha3" : "", "shortName" : "BO", "fullName" : "Bolivia"},
                {"alpha3" : "BRA", "shortName" : "BR", "fullName" : "Brazil"},
                {"alpha3" : "CHL", "shortName" : "CL", "fullName" : "Chile"},
                {"alpha3" : "COL", "shortName" : "CO", "fullName" : "Colombia"},
                {"alpha3" : "", "shortName" : "DO", "fullName" : "Dominican Republic"},
                {"alpha3" : "ECU", "shortName" : "EC", "fullName" : "Ecuador"},
                {"alpha3" : "", "shortName" : "SV", "fullName" : "El Salvador"},
                {"alpha3" : "", "shortName" : "GT", "fullName" : "Guatemala"},
                {"alpha3" : "", "shortName" : "GY", "fullName" : "Guyana"},
                {"alpha3" : "", "shortName" : "HN", "fullName" : "Honduras"},
                {"alpha3" : "", "shortName" : "JM", "fullName" : "Jamaica"},
                {"alpha3" : "", "shortName" : "NI", "fullName" : "Nicaragua"},
                {"alpha3" : "PAN", "shortName" : "PA", "fullName" : "Panama"},
                {"alpha3" : "", "shortName" : "PY", "fullName" : "Paraguay"},
                {"alpha3" : "PER", "shortName" : "PE", "fullName" : "Peru"},
                {"alpha3" : "", "shortName" : "TT", "fullName" : "Trinidad And Tobago"},
                {"alpha3" : "", "shortName" : "UY", "fullName" : "Uruguay"},
                {"alpha3" : "", "shortName" : "VE", "fullName" : "Venezuela"}
            ]
        }
    ]
}
