{
	"ko" : {
		"Refresh": "새로 고침",
		"Power": "전원",
		"Connected": "연결됨",
		"Time Zone": "표준 시간대",
		"Time": "시간",
		"Input": "외부입력",
		"DNS SERVER": "DNS 서버",
		"MAC Address": "MAC 주소",
		"Subnet Mask": "서브넷 마스크",
		"User": "사용자",
		"Home": "홈",
		"Fail": "실패",
		"Success": "성공",
		"Confirm Password": "비밀번호 확인",
		"Change Password": "비밀번호 변경",
		"Current Password": "현재 비밀번호",
		"New Password": "새 비밀번호",
		"Contrast" : "명암",
		"Weekday" : "요일",
		"LG Control Manager" : "LG 컨트롤 매니저",
		"Standard" : "표준 영상"
	},
	"cs" : {
		"Refresh": "Obnovit",
		"Power": "Napájení",
		"Connected": "Připojeno",
		"Time Zone": "Časové pásmo",
		"Time": "Čas",
		"Input": "Vstup",
		"MAC Address": "MAC adresa",
		"Subnet Mask": "Maska podsítě",
		"User": "Uživatelské",
		"Home": "Domů",
		"Fail": "Nezdařilo se",
		"Success": "Úspěšně dokončeno!",
		"Confirm Password": "Potvrdit heslo",
		"Change Password": "Změnit heslo",
		"Current Password": "Aktuální heslo",
		"New Password": "Nové heslo",
		"Contrast" : "Kontrast"
	},
	"de" : {
		"Refresh": "Aktualisieren",
		"Power": "Ein/Aus",
		"Connected": "Verbunden",
		"Time Zone": "Zeitzone",
		"Time": "Zeit",
		"Input": "Eingang",
		"DNS SERVER": "DNS-Server",
		"MAC Address": "MAC-Adresse",
		"Subnet Mask": "Subnetzmaske",
		"User": "Benutzer",
		"Home": "Startbildschirm",
		"Fail": "Fehler",
		"Success": "Erfolgreich",
		"Confirm Password": "Passwort bestätigen",
		"Change Password": "Passwort ändern",
		"Current Password": "Aktuelles Passwort",
		"New Password": "Neues Passwort",
		"Contrast" : "Kontrast"
	},
	"fr" : {
		"Refresh": "Rafraîchir",
		"Power": "Marche",
		"Connected": "Connecté",
		"Time Zone": "Fuseau horaire",
		"Time": "Heure",
		"Input": "Entrée",
		"DNS SERVER": "Serveur DNS",
		"MAC Address": "Adresse MAC",
		"Subnet Mask": "Masque de sous-réseau",
		"User": "Utilisateur",
		"Home": "Accueil",
		"Fail": "Échec",
		"Success": "Réussite",
		"Confirm Password": "Confirmer le mot de passe",
		"Change Password": "Modifier le mot de passe",
		"Current Password": "Mot de passe actuel",
		"New Password": "Nouveau mot de passe",
		"Contrast" : "Contraste"
	},
	"sv" : {
		"Refresh": "Uppdatera",
		"Connected": "Ansluten",
		"Time Zone": "Tidzon",
		"Time": "Tid",
		"Input": "Inmatning",
		"DNS SERVER": "DNS-SERVER",
		"MAC Address": "MAC-adress",
		"Subnet Mask": "Subnetmask",
		"User": "Användare",
		"Home": "Hem",
		"Success": "Klart",
		"Fail": "Misslyckades",
		"Confirm Password": "Bekräfta lösenord",
		"Change Password": "Ändra lösenord",
		"Current Password": "Aktuellt lösenord",
		"New Password": "Nytt lösenord",
		"Contrast" : "Kontrast"
	},
	"es" : {
		"Refresh": "Actualizar",
		"Power": "Encendido",
		"Connected": "Conectado",
		"Time Zone": "Zona horaria",
		"Time": "Hora",
		"Input": "Entrada",
		"DNS SERVER": "SERVIDOR DNS",
		"MAC Address": "Dirección MAC",
		"Subnet Mask": "Máscara de subred",
		"User": "Usuario",
		"Home": "Inicio",
		"Fail": "Error",
		"Success": "¡Correcto!",
		"Confirm Password": "Confirmar contraseña",
		"Change Password": "Cambiar contraseña",
		"Current Password": "Contraseña actual",
		"New Password": "Nueva contraseña",
		"Contrast" : "Contraste"
	},
	"zh" : {
		"Refresh": "刷新",
		"Power": "电源",
		"Connected": "已连接",
		"Time Zone": "时区",
		"Time": "时间",
		"Input": "输入",
		"DNS SERVER": "DNS 服务器",
		"MAC Address": "MAC 地址",
		"Subnet Mask": "子网掩码",
		"User": "用户",
		"Home": "主页",
		"Fail": "失败",
		"Success": "成功",
		"Confirm Password": "确认密码",
		"Change Password": "更改密码",
		"Current Password": "当前密码",
		"New Password": "新密码",
		"Contrast" : "对比度"
	},
	"ar" : {
		"Refresh": "إعادة التحميل",
		"Power": "الطاقة",
		"Connected": "متصل",
		"Time Zone": "المنطقة الزمنية ",
		"Time": "الوقت",
		"Input": "إدخال",
		"DNS SERVER": "سيرفر DNS",
		"MAC Address": "عنوان MAC",
		"User": "المستخدم",
		"Home": "الصفحة الرئيسية",
		"Success": "تم بنجاح",
		"Fail": "فشل",
		"Confirm Password": "تأكيد كلمة المرور",
		"Change Password": "تغيير كلمة المرور",
		"Current Password": "كلمة المرور الحالية",
		"New Password": "كلمة مرور جديدة",
		"Contrast" : "تباين"
	},
	"da" : {
		"Refresh": "Opdatér",
		"Power": "Strøm",
		"Connected": "Tilsluttet",
		"Time Zone": "Tidszone",
		"Time": "Tid",
		"DNS SERVER": "DNS-SERVER",
		"MAC Address": "MAC-adresse",
		"Subnet Mask": "Undernetmaske",
		"User": "Bruger",
		"Home": "Hjem",
		"Fail": "Mislykket",
		"Success": "vellykket",
		"Confirm Password": "Bekræft adgangskode",
		"Change Password": "Skift adgangskode",
		"Current Password": "Nuværende adganskode",
		"New Password": "Ny adgangskode",
		"Contrast" : "Kontrast"
	},
	"ru" : {
		"Refresh": "Обновить",
		"Power": "Питание",
		"Connected": "Соединение установлено",
		"Time Zone": "Часовой пояс",
		"Time": "Время",
		"Input": "Вход",
		"DNS SERVER": "СЕРВЕР DNS",
		"MAC Address": "MAC-адрес",
		"Subnet Mask": "Маска подсети",
		"User": "Пользователь",
		"Home": "Главное меню",
		"Fail": "Не выполнено",
		"Success": "Выполнено",
		"Confirm Password": "Подтвердить пароль",
		"Change Password": "Изменить пароль",
		"Current Password": "Текущий пароль",
		"New Password": "Новый пароль",
		"Contrast" : "Контрастность"
	},
	"zh/Hant/HK" : {
		"Refresh": "重新整理",
		"Power": "電源",
		"Connected": "已連線",
		"Time Zone": "時區",
		"Time": "時間",
		"Input": "輸入",
		"DNS SERVER": "DNS 伺服器",
		"MAC Address": "MAC 位址",
		"Subnet Mask": "子網路遮罩",
		"User": "用戶",
		"Fail": "失敗",
		"Confirm Password": "確認密碼",
		"Change Password": "變更密碼",
		"Current Password": "目前密碼",
		"New Password": "新密碼",
		"Contrast" : "對比"
	},
	"it" : {
		"Refresh": "Aggiorna",
		"Power": "Accensione",
		"Connected": "Connesso",
		"Time Zone": "Fuso orario",
		"Time": "Ora",
		"Input": "Ingresso",
		"DNS SERVER": "SERVER DNS",
		"MAC Address": "Indirizzo MAC",
		"Subnet Mask": "Subnet mask",
		"User": "Utente",
		"Success": "Operazione riuscita",
		"Fail": "Operazione non riuscita",
		"Confirm Password": "Conferma password",
		"Change Password": "Modifica password",
		"Current Password": "Password corrente",
		"New Password": "Nuova password",
		"Contrast" : "Contrasto"
	},
	"pt" : {
		"Refresh": "Atualizar",
		"Power": "Energia",
		"Connected": "Conectado",
		"Time Zone": "Fuso Horário",
		"Time": "Hora",
		"Input": "Entrada",
		"DNS SERVER": "SERVIDOR DNS",
		"MAC Address": "Endereço MAC",
		"Subnet Mask": "Máscara de subrede",
		"User": "Usuário",
		"Home": "Página inicial",
		"Fail": "Falha",
		"Success": "Sucesso",
		"Confirm Password": "Confirme a Senha",
		"Change Password": "Mudar Senha",
		"Current Password": "Senha Atual",
		"New Password": "Nova Senha",
		"Contrast" : "Contraste"
	},
	"pt/PT" : {
		"Power": "Ligar/desligar",
		"Connected": "Ligado",
		"DNS SERVER": "Servidor DNS",
		"Subnet Mask": "Máscara de Sub-rede",
		"User": "Utilizador",
		"Home": "Início",
		"Success": "Conseguiu",
		"Confirm Password": "Confirmar Palavra-passe",
		"Change Password": "Alterar Palavra-passe",
		"Current Password": "Palavra-passe Atual",
		"New Password": "Nova Palavra-passe"
	},
	"ja" : {
		"Refresh": "更新",
		"Power": "電源",
		"Connected": "接続されました。",
		"Time Zone": "タイムゾーン",
		"Time": "時刻",
		"Input": "入力切換",
		"DNS SERVER": "DNSサーバー",
		"MAC Address": "MACアドレス",
		"Subnet Mask": "サブネットマスク",
		"User": "ユーザー設定",
		"Home": "ホーム",
		"Fail": "失敗",
		"Success": "成功",
		"Confirm Password": "パスワードの確認",
		"Change Password": "パスワードの変更",
		"Current Password": "現在のパスワード",
		"New Password": "新しいパスワード",
		"Contrast" : "コントラスト"
	},
	"el" : {
		"Refresh": "Ανανέωση",
		"Power": "Λειτουργία",
		"Connected": "Έχει συνδεθεί",
		"Time Zone": "Ζώνη ώρας",
		"Time": "Ώρα",
		"Input": "Είσοδος",
		"DNS SERVER": "Διακομιστής DNS",
		"MAC Address": "Διεύθυνση MAC",
		"Subnet Mask": "Μάσκα υποδικτύου",
		"User": "Χρήστης",
		"Home": "Αρχική",
		"Success": "Επιτυχία",
		"Fail": "Αποτυχία",
		"Confirm Password": "Επιβεβαίωση κωδικού πρόσβασης",
		"Change Password": "Αλλαγή κωδικού πρόσβασης",
		"Current Password": "Τρέχων κωδικός πρόσβασης",
		"New Password": "Νέος κωδικός πρόσβασης",
		"Contrast" : "Αντίθεση"
	},
	"fi" : {
		"Refresh": "Päivitä",
		"Power": "Virta",
		"Connected": "Yhteys muodostettu",
		"Time Zone": "Aikavyöhyke",
		"Time": "Aika",
		"Input": "Tulo",
		"DNS SERVER": "DNS-PALVELIN",
		"MAC Address": "MAC-osoite",
		"Subnet Mask": "Aliverkon peite",
		"User": "Käyttäjä",
		"Home": "Koti",
		"Success": "Onnistui",
		"Fail": "Epäonnistui",
		"Confirm Password": "Vahvista salasana",
		"Change Password": "Vaihda salasana",
		"Current Password": "Nykyinen salasana",
		"New Password": "Uusi salasana",
		"Contrast" : "Kontrasti"
	},
	"nb" : {
		"Refresh": "Oppdater",
		"Connected": "Tilkoblet",
		"Input": "Inngang",
		"DNS SERVER": "DNS–SERVER",
		"MAC Address": "MAC-adresse",
		"Subnet Mask": "Undernettmaske",
		"User": "Bruker",
		"Home": "Hjem",
		"Time": "Tid",
		"Confirm Password": "Bekreft passord",
		"Contrast": "Kontrast",
		"Change Password": "Endre passord",
		"Current Password": "Nåværende passord",
		"New Password": "Nytt passord",
		"Fail": "Mislykket",
		"Success": "Vellykket",
		"Time Zone": "Tidssone"
	},
	"nl" : {
		"Refresh": "Vernieuwen",
		"Power": "Aan/Uit",
		"Connected": "Verbonden",
		"Time Zone": "Tijdzone",
		"Time": "Tijd",
		"Input": "Ingang",
		"DNS SERVER": "DNS-SERVER",
		"MAC Address": "MAC-adres",
		"Subnet Mask": "Subnetmasker",
		"User": "Gebruiker",
		"Home": "Thuis",
		"Fail": "Mislukt",
		"Success": "Gelukt",
		"Confirm Password": "Wachtwoord bevestigen",
		"Change Password": "Wachtwoord wijzigen",
		"Current Password": "Huidig wachtwoord",
		"New Password": "Nieuw wachtwoord"
	}
}
